{
  "content": [
    {
      "id": 436,
      "alias": "secret_formula",
      "title": "สูตรลับวิชารัก",
      "isAdult": false,
      "isComplete": false,
      "orderNo": 1,
      "thumbnails": [
        {
          "imagePath": "https://image.balcony.studio/th/co_thumbnail/secret_formula/1697710258195.webp",
          "type": "SQUARE"
        },
        {
          "imagePath": "https://image.balcony.studio/th/co_thumbnail/secret_formula/1697710258380.webp",
          "type": "MAIN"
        }
      ],
      "badge": {
        "newest": true,
        "adult": false,
        "scheduled": true,
        "up": false,
        "completed": false,
        "recommended": false,
        "discount": 0,
        "free": 1,
        "freetime": false
      },
      "viewCount": 32201,
      "tag": "อัพทุกวันศุกร์,BL,โรแมนติคคอมเมดี้,รักหวานแหวว,เข้าใจผิด,เมะเจ้าเล่ห์,เมะคลั่งรัก,เมะเจ้าแผนการ,เมะอบอุ่น,เมะฮอต,เมะแซ่บ,เคะหน้าหวาน,เคะน่ารัก,เคะซื่อบื้อ,เคะขี้ยั่ว,เคะไซส์มินิ,เคะใสซื่อ,มหาลัย,รักวัยรุ่น,OnlyBOOMTOON",
      "updatedAt": 1704387600000,
      "creators": "ILMYEONSIK, milk"
    },
    {
      "id": 432,
      "alias": "my_secretary",
      "title": "เลขาลีของผม",
      "isAdult": false,
      "isComplete": false,
      "orderNo": 2,
      "thumbnails": [
        {
          "imagePath": "https://image.balcony.studio/th/co_thumbnail/my_suha/1693889407149.webp",
          "type": "SQUARE"
        },
        {
          "imagePath": "https://image.balcony.studio/th/co_thumbnail/my_suha/1693889407330.webp",
          "type": "MAIN"
        }
      ],
      "badge": {
        "newest": true,
        "adult": false,
        "scheduled": true,
        "up": false,
        "completed": false,
        "recommended": false,
        "discount": 0,
        "free": 1,
        "freetime": false
      },
      "viewCount": 25246,
      "tag": "อัพทุกวันศุกร์,BL,มนุษย์เงินเดือน,ออฟฟิต,ฮาร์ดคอร์,เมะเด็กกว่า,เมะมีปม,เมะคลั่งรัก,เมะใจดี,เคะน่ารัก,เคะแก่กว่า,เคะแซ่บ,เคะขี้ยั่ว,รักในที่ทำงาน,เจ้านาย,OnlyBOOMTOON",
      "updatedAt": 1704387600000,
      "creators": "CHAHYUN"
    },
    {
      "id": 394,
      "alias": "beast_area",
      "title": "วังวนอสรพิษ",
      "isAdult": false,
      "isComplete": false,
      "orderNo": 3,
      "thumbnails": [
        {
          "imagePath": "https://image.balcony.studio/th/co_thumbnail/beast_area/1696414306244.webp",
          "type": "SQUARE"
        },
        {
          "imagePath": "https://image.balcony.studio/th/co_thumbnail/beast_area/1696414306439.webp",
          "type": "MAIN"
        }
      ],
      "badge": {
        "newest": true,
        "adult": false,
        "scheduled": true,
        "up": false,
        "completed": false,
        "recommended": false,
        "discount": 0,
        "free": 1,
        "freetime": false
      },
      "viewCount": 32483,
      "tag": "อัพทุกวันศุกร์,BL,สายดาร์ค,ฮาร์ดคอร์,ดราม่า,Serious,แก้แค้น,เมะแข็งแกร่ง,เมะเลว,เมะเจ้าเล่ห์,เมะเลือดเย็น,เมะเพอร์เฟ็ค,เมะเย็นชา,เคะแซ่บ,เคะไฮโซ,เคะขี้ยั่ว,เคะมีปม,เคะเจ้าแผนการ,OnlyBOOMTOON,อัพเดทพร้อมเกาหลี",
      "updatedAt": 1704459600000,
      "creators": "Matryo, Nire"
    },
    {
      "id": 404,
      "alias": "devil_world",
      "title": "จันทราแห่งโลกปีศาจ",
      "isAdult": false,
      "isComplete": false,
      "orderNo": 4,
      "thumbnails": [
        {
          "imagePath": "https://image.balcony.studio/th/co_thumbnail/devil_world/1692872020972.webp",
          "type": "SQUARE"
        },
        {
          "imagePath": "https://image.balcony.studio/th/co_thumbnail/devil_world/1692872021157.webp",
          "type": "MAIN"
        }
      ],
      "badge": {
        "newest": true,
        "adult": false,
        "scheduled": true,
        "up": false,
        "completed": false,
        "recommended": false,
        "discount": 0,
        "free": 1,
        "freetime": false
      },
      "viewCount": 40631,
      "tag": "อัพทุกวันศุกร์,BL,แฟนตาซี,แนวยุโรปโบราณ,เมะหน้าหวาน,เมะสวย,เมะแอบรัก,เมะแซ่บ,เมะขี้แกล้ง,เคะแข็งแกร่ง,เคะหล่อ,เคะกล้ามปู,เคะหัวแข็ง,เคะคนซึน,เคะแซ่บ,รักในวัง,เหนือธรรมชาติ,อมนุษย์/ปีศาจ,OnlyBOOMTOON",
      "updatedAt": 1704387600000,
      "creators": "Anorysil, HACK, suhyeon"
    },
    {
      "id": 98,
      "alias": "LUCKY_para",
      "title": "Lucky Paradise",
      "isAdult": false,
      "isComplete": false,
      "orderNo": 5,
      "thumbnails": [
        {
          "imagePath": "https://image.balcony.studio/th/co_thumbnail/LUCKY_para/1701170243541.webp",
          "type": "SQUARE"
        },
        {
          "imagePath": "https://image.balcony.studio/th/co_thumbnail/LUCKY_para/1701170243685.webp",
          "type": "MAIN"
        }
      ],
      "badge": {
        "newest": false,
        "adult": false,
        "scheduled": false,
        "up": false,
        "completed": true,
        "recommended": false,
        "discount": 0,
        "free": 2,
        "freetime": false
      },
      "viewCount": 218911,
      "tag": "BL,รักในมหาลัย,รุ่นพี่รุ่นน้อง,เมะลูกหมา,เคะกล้ามปู,เมะเด็กกว่า,เคะน่ารัก,เมะขี้แย,เราสองสามคน,ตลก/คอมเมดี้,OnlyBOOMTOON",
      "updatedAt": 1704387600000,
      "creators": "Kangneuk"
    },
    {
      "id": 270,
      "alias": "netkama",
      "title": "Netkama Punch!!!",
      "isAdult": false,
      "isComplete": false,
      "orderNo": 6,
      "thumbnails": [
        {
          "imagePath": "https://image.balcony.studio/th/co_thumbnail/netkama/1678768295596.webp",
          "type": "SQUARE"
        },
        {
          "imagePath": "https://image.balcony.studio/th/co_thumbnail/netkama/1678768295755.webp",
          "type": "MAIN"
        }
      ],
      "badge": {
        "newest": true,
        "adult": false,
        "scheduled": true,
        "up": false,
        "completed": false,
        "recommended": false,
        "discount": 0,
        "free": 1,
        "freetime": false
      },
      "viewCount": 254362,
      "tag": "อัพทุกวันศุกร์,BL,โรแมนติคคอมเมดี้,ตลก/คอมเมดี้,เข้าใจผิด,รักหวานแหวว,เมะคลั่งรัก,เมะแข็งแกร่ง,เมะขี้แกล้ง,เมะคนซึน,เคะลุง,เคะมีปม,เคะเจ้าแผนการ,เคะแก่กว่า,เคะน่ารัก,เกม,OnlyBOOMTOON",
      "updatedAt": 1704387600000,
      "creators": "CHIMA, gongben, bongyee"
    },
    {
      "id": 254,
      "alias": "handicraft",
      "title": "โรงรัญจวนสวาท",
      "isAdult": false,
      "isComplete": false,
      "orderNo": 7,
      "thumbnails": [
        {
          "imagePath": "https://image.balcony.studio/th/co_thumbnail/handicraft/1675338735863.webp",
          "type": "SQUARE"
        },
        {
          "imagePath": "https://image.balcony.studio/th/co_thumbnail/handicraft/1675338736093.webp",
          "type": "MAIN"
        }
      ],
      "badge": {
        "newest": true,
        "adult": false,
        "scheduled": true,
        "up": false,
        "completed": false,
        "recommended": false,
        "discount": 0,
        "free": 1,
        "freetime": false
      },
      "viewCount": 177348,
      "tag": "อัพทุกวันศุกร์,BL,ย้อนยุคสมัยโบราณ,สายดาร์ค,ฮาร์ดคอร์,BDSM,เมะอาวุธลับไซส์บิ๊ก,เมะมีปม,เมะเย็นชา,เมะผมยาว,เมะแซ่บ,เคะขี้ยั่ว,เคะกล้ามปู,เคะเจ้าแผนการ,เคะไฮโซ,เคะคนตรง,โชซอน,OnlyBOOMTOON",
      "updatedAt": 1704387600000,
      "creators": "songmi"
    },
    {
      "id": 252,
      "alias": "zero_gravity",
      "title": "รักไร้แรงโน้มถ่วง",
      "isAdult": false,
      "isComplete": false,
      "orderNo": 8,
      "thumbnails": [
        {
          "imagePath": "https://image.balcony.studio/th/co_thumbnail/zero_gravity/1677222497975.webp",
          "type": "SQUARE"
        },
        {
          "imagePath": "https://image.balcony.studio/th/co_thumbnail/zero_gravity/1677222498188.webp",
          "type": "MAIN"
        },
        {
          "imagePath": "https://image.balcony.studio/th/co_thumbnail/zero_gravity/1677222498438.webp",
          "type": "MAIN_NON_ADULT"
        }
      ],
      "badge": {
        "newest": false,
        "adult": false,
        "scheduled": true,
        "up": false,
        "completed": false,
        "recommended": false,
        "discount": 0,
        "free": 1,
        "freetime": false
      },
      "viewCount": 146974,
      "tag": "อัพทุกวันศุกร์,BL,โรแมนติคแฟนตาซี,แฟนตาซียุคปัจจุบัน,รักต่างเผ่าพันธุ์,เมะแข็งแกร่ง,เมะเจ้าเล่ห์,เมะหน้าหวาน,เมะแซ่บ,เมะขี้แกล้ง,เมะคลั่งรัก,เคะกล้ามปู,เคะจน,เคะอบอุ่น,เคะไม่โดดเด่น,เหนือธรรมชาติ,OnlyBOOMTOON",
      "updatedAt": 1692363600000,
      "creators": "LattePanda"
    },
    {
      "id": 327,
      "alias": "show_me",
      "title": "SHOW ME YOUR BUST",
      "isAdult": false,
      "isComplete": false,
      "orderNo": 9,
      "thumbnails": [
        {
          "imagePath": "https://image.balcony.studio/th/co_thumbnail/show-me-your-bust/1688550795690.webp",
          "type": "SQUARE"
        },
        {
          "imagePath": "https://image.balcony.studio/th/co_thumbnail/show-me-your-bust/1688550796079.webp",
          "type": "MAIN"
        }
      ],
      "badge": {
        "newest": true,
        "adult": false,
        "scheduled": true,
        "up": false,
        "completed": false,
        "recommended": false,
        "discount": 0,
        "free": 1,
        "freetime": false
      },
      "viewCount": 447436,
      "tag": "อัพทุกวันศุกร์,GL,รักวัยรุ่น,รักในมหาลัย,เราสองสามคน,เพื่อนรักรักเพื่อน,นางเอกเจ้าเสน่ห์,นางเอกขี้ยั่ว,นางเอกแซ่บ,มหาลัย,OnlyBOOMTOON",
      "updatedAt": 1704387600000,
      "creators": "Team Gaji"
    },
    {
      "id": 151,
      "alias": "mongmong",
      "title": "รักใส ๆ ของนายโฮ่งโฮ่ง",
      "isAdult": false,
      "isComplete": false,
      "orderNo": 10,
      "thumbnails": [
        {
          "imagePath": "https://image.balcony.studio/th/co_thumbnail/mongmong/1684838154934.webp",
          "type": "SQUARE"
        },
        {
          "imagePath": "https://image.balcony.studio/th/co_thumbnail/mongmong/1684838155158.webp",
          "type": "MAIN"
        }
      ],
      "badge": {
        "newest": false,
        "adult": false,
        "scheduled": true,
        "up": false,
        "completed": false,
        "recommended": false,
        "discount": 0,
        "free": 1,
        "freetime": false
      },
      "viewCount": 280643,
      "tag": "อัพทุกวันศุกร์,BL,เหนือธรรมชาติ,โรแมนติคแฟนตาซี,เมะลูกหมา,เมะขี้แย,เมะหน้าหวาน,เมะคลั่งรัก,เคะน่ารัก,เคะซื่อบื้อ,เคะสดใส,เพื่อนรักรักเพื่อน,เราสองสามคน,สัตว์,OnlyBOOMTOON",
      "updatedAt": 1704387600000,
      "creators": " ongsim"
    },
    {
      "id": 119,
      "alias": "defineD_R",
      "title": "Define The Relationship ปักหัวใจไว้ที่เธอ",
      "isAdult": false,
      "isComplete": false,
      "orderNo": 11,
      "thumbnails": [
        {
          "imagePath": "https://image.balcony.studio/th/co_thumbnail/defineD_R/1687321932831.webp",
          "type": "SQUARE"
        },
        {
          "imagePath": "https://image.balcony.studio/th/co_thumbnail/defineD_R/1687321933034.webp",
          "type": "MAIN"
        }
      ],
      "badge": {
        "newest": false,
        "adult": false,
        "scheduled": true,
        "up": false,
        "completed": false,
        "recommended": false,
        "discount": 0,
        "free": 1,
        "freetime": false
      },
      "viewCount": 357780,
      "tag": "อัพทุกวันศุกร์,BL,Omegaverse ,เมะอบอุ่น,เมะแก่กว่า,เมะใจดี,เคะเพอร์เฟ็ค,เคะมีปม,กลับมาพบกันอีกครั้ง,OnlyBOOMTOON",
      "updatedAt": 1703782800000,
      "creators": "Flona, CHADA"
    },
    {
      "id": 358,
      "alias": "falling_stars",
      "title": "จักรวาลของดาวตก",
      "isAdult": false,
      "isComplete": false,
      "orderNo": 12,
      "thumbnails": [
        {
          "imagePath": "https://image.balcony.studio/th/co_thumbnail/falling_stars/1691661178073.webp",
          "type": "SQUARE"
        },
        {
          "imagePath": "https://image.balcony.studio/th/co_thumbnail/falling_stars/1691661178249.webp",
          "type": "MAIN"
        }
      ],
      "badge": {
        "newest": true,
        "adult": false,
        "scheduled": true,
        "up": false,
        "completed": false,
        "recommended": false,
        "discount": 0,
        "free": 1,
        "freetime": false
      },
      "viewCount": 16624,
      "tag": "อัพทุกวันศุกร์,BL,Omegaverse ,แอบรัก,เพื่อนรักรักเพื่อน,รักครั้งแรก,เมะยากจน,เมะอบอุ่น,เมะใสซื่อ,เมะรักจริง,เคะสวย,เคะหน้าหวาน,เคะไฮโซ,เคะคนซึน,เคะขี้ยั่ว,OnlyBOOMTOON,อัพเดทพร้อมเกาหลี",
      "updatedAt": 1704459600000,
      "creators": "Cheongdam"
    },
    {
      "id": 299,
      "alias": "alpha",
      "title": "ล้ำเส้นรักนายอัลฟ่า",
      "isAdult": false,
      "isComplete": false,
      "orderNo": 13,
      "thumbnails": [
        {
          "imagePath": "https://image.balcony.studio/th/co_thumbnail/alpha4jung/1685492529564.webp",
          "type": "SQUARE"
        },
        {
          "imagePath": "https://image.balcony.studio/th/co_thumbnail/alpha4jung/1685492529706.webp",
          "type": "MAIN"
        }
      ],
      "badge": {
        "newest": false,
        "adult": false,
        "scheduled": true,
        "up": false,
        "completed": false,
        "recommended": false,
        "discount": 0,
        "free": 1,
        "freetime": false
      },
      "viewCount": 31510,
      "tag": "อัพทุกวันศุกร์,BL,เราสองสามคน,สายดาร์ค,Omegaverse ,รักในมหาลัย,เมะเด็กกว่า,เมะแซ่บ,เมะเจ้าชู้,เคะสวย,เคะแก่กว่า,เคะสดใส,เคะคนซึน,มหาลัย,OnlyBOOMTOON,อัพเดทพร้อมเกาหลี",
      "updatedAt": 1703250000000,
      "creators": "TR, studio malans"
    },
    {
      "id": 298,
      "alias": "placebo",
      "title": "Placebo",
      "isAdult": false,
      "isComplete": false,
      "orderNo": 14,
      "thumbnails": [
        {
          "imagePath": "https://image.balcony.studio/th/co_thumbnail/placebo/1685511882053.webp",
          "type": "SQUARE"
        },
        {
          "imagePath": "https://image.balcony.studio/th/co_thumbnail/placebo/1685511882213.webp",
          "type": "MAIN"
        }
      ],
      "badge": {
        "newest": false,
        "adult": false,
        "scheduled": true,
        "up": false,
        "completed": false,
        "recommended": false,
        "discount": 0,
        "free": 1,
        "freetime": false
      },
      "viewCount": 269089,
      "tag": "อัพทุกวันศุกร์,BL,อัพสองทุ่ม,สายดาร์ค,ฮาร์ดคอร์,เมะเจ้าเล่ห์,เมะเลว,เมะเด็กกว่า,เมะเจ้าแผนการ,เมะฮอต,เมะคลั่งรัก,เคะมีปม,เคะแก่กว่า,เคะสู้คน,เคะหัวแข็ง,เคะคนตรง,OnlyBOOMTOON,อัพเดทพร้อมเกาหลี",
      "updatedAt": 1702040400000,
      "creators": "cuke soap"
    },
    {
      "id": 260,
      "alias": "woof_wolf",
      "title": "Woof Wolf",
      "isAdult": false,
      "isComplete": false,
      "orderNo": 15,
      "thumbnails": [
        {
          "imagePath": "https://image.balcony.studio/th/co_thumbnail/bt_1110056/1689120451193.webp",
          "type": "SQUARE"
        },
        {
          "imagePath": "https://image.balcony.studio/th/co_thumbnail/bt_1110056/1689120451413.webp",
          "type": "MAIN"
        }
      ],
      "badge": {
        "newest": false,
        "adult": false,
        "scheduled": false,
        "up": false,
        "completed": true,
        "recommended": false,
        "discount": 0,
        "free": 1,
        "freetime": false
      },
      "viewCount": 62971,
      "tag": "BL,โรแมนติคแฟนตาซี,แฟนตาซี,รักวัยรุ่น,รักในมหาลัย,แอบรัก,สัตว์,เมะลูกหมา,เมะฮอต,เมะใสซื่อ,เคะแว่น,เคะขี้แกล้ง,เคะแซ่บ,เคะขี้ยั่ว,เหนือธรรมชาติ,มหาลัย,รักต่างเผ่าพันธุ์,OnlyBOOMTOON",
      "updatedAt": 1701363600000,
      "creators": "Magoo"
    },
    {
      "id": 133,
      "alias": "avle",
      "title": "AVLE",
      "isAdult": false,
      "isComplete": false,
      "orderNo": 16,
      "thumbnails": [
        {
          "imagePath": "https://image.balcony.studio/th/co_thumbnail/A_vle/1652230050439.webp",
          "type": "SQUARE"
        },
        {
          "imagePath": "https://image.balcony.studio/th/co_thumbnail/A_vle/1652230050628.webp",
          "type": "MAIN"
        }
      ],
      "badge": {
        "newest": false,
        "adult": false,
        "scheduled": false,
        "up": false,
        "completed": true,
        "recommended": false,
        "discount": 0,
        "free": 1,
        "freetime": false
      },
      "viewCount": 304401,
      "tag": "BL,สายดาร์ค,เราสองสามคน,เมะเลว,เมะเจ้าเล่ห์,เมะอาวุธลับไซส์บิ๊ก,เมะกล้ามปู,เมะเจ้าแผนการ,เมะสุภาพ,เมะอบอุ่น,เคะแอบรัก,เคะมีปม,เคะขี้ยั่ว,เคะแซ่บ,แข่งขัน,OnlyBOOMTOON",
      "updatedAt": 1701363600000,
      "creators": "Rangni, GOMDORI"
    },
    {
      "id": 351,
      "alias": "thanks_to_you",
      "title": "เพราะมีเธอ",
      "isAdult": false,
      "isComplete": false,
      "orderNo": 17,
      "thumbnails": [
        {
          "imagePath": "https://image.balcony.studio/th/co_thumbnail/bc_of_u/1688610079882.webp",
          "type": "SQUARE"
        },
        {
          "imagePath": "https://image.balcony.studio/th/co_thumbnail/bc_of_u/1688610080013.webp",
          "type": "MAIN"
        }
      ],
      "badge": {
        "newest": false,
        "adult": false,
        "scheduled": false,
        "up": false,
        "completed": true,
        "recommended": false,
        "discount": 0,
        "free": 1,
        "freetime": false
      },
      "viewCount": 20236,
      "tag": "BL,ดราม่า,Serious,กลับมาพบกันอีกครั้ง,รักต่างวัย,เมะเด็กกว่า,เมะอบอุ่น,เมะสุภาพ,เมะไฮโซ,เมะแซ่บ,เมะคลั่งรัก,เคะแก่กว่า,เคะมีปม,เคะขี้กลัว,เคะน่ารัก,เคะใจดี,มาเฟีย,OnlyBOOMTOON",
      "updatedAt": 1700758800000,
      "creators": "harucoi"
    },
    {
      "id": 89,
      "alias": "cloud",
      "title": "Cloud",
      "isAdult": false,
      "isComplete": false,
      "orderNo": 18,
      "thumbnails": [
        {
          "imagePath": "https://image.balcony.studio/th/co_thumbnail/cloud/1673568856862.webp",
          "type": "SQUARE"
        },
        {
          "imagePath": "https://image.balcony.studio/th/co_thumbnail/cloud/1673568857130.webp",
          "type": "MAIN"
        }
      ],
      "badge": {
        "newest": false,
        "adult": false,
        "scheduled": true,
        "up": false,
        "completed": false,
        "recommended": false,
        "discount": 0,
        "free": 1,
        "freetime": false
      },
      "viewCount": 358662,
      "tag": "อัพทุกวันศุกร์,BL,รักวัยรุ่น,รักในโรงเรียน,แอบรัก,เมะเจ้าเล่ห์,เมะเจ้าแผนการ,เคะแว่น,ตากล้อง,OnlyBOOMTOON",
      "updatedAt": 1697734800000,
      "creators": "kimpas"
    },
    {
      "id": 215,
      "alias": "wait_for_you",
      "title": "รอเธอหันมา I’ll be here for you",
      "isAdult": false,
      "isComplete": false,
      "orderNo": 19,
      "thumbnails": [
        {
          "imagePath": "https://image.balcony.studio/th/co_thumbnail/wait_for_you/1678424688226.webp",
          "type": "SQUARE"
        },
        {
          "imagePath": "https://image.balcony.studio/th/co_thumbnail/wait_for_you/1678424688426.webp",
          "type": "MAIN"
        },
        {
          "imagePath": "https://image.balcony.studio/th/co_thumbnail/wait_for_you/1678424688589.webp",
          "type": "MAIN_NON_ADULT"
        }
      ],
      "badge": {
        "newest": false,
        "adult": false,
        "scheduled": false,
        "up": false,
        "completed": true,
        "recommended": false,
        "discount": 0,
        "free": 1,
        "freetime": false
      },
      "viewCount": 56013,
      "tag": "BL,ดราม่า,กลับมาพบกันอีกครั้ง,แอบรัก,เมะหน้าหวาน,เมะสุภาพ,เมะเย็นชา,เมะขี้แย,เมะมีปม,เคะหน้าหวาน,เคะแอบรัก,เคะคนตรง,เคะรักจริง,เคะมีปม,OnlyBOOMTOON",
      "updatedAt": 1693501200000,
      "creators": "Lee hyeon-sook"
    },
    {
      "id": 61,
      "alias": "moneyromance",
      "title": "Love for Sale",
      "isAdult": false,
      "isComplete": false,
      "orderNo": 20,
      "thumbnails": [
        {
          "imagePath": "https://image.balcony.studio/th/co_thumbnail/moneyromance/1660698947901.webp",
          "type": "SQUARE"
        },
        {
          "imagePath": "https://image.balcony.studio/th/co_thumbnail/moneyromance/1681460064097.webp",
          "type": "MAIN"
        },
        {
          "imagePath": "https://image.balcony.studio/th/co_thumbnail/moneyromance/1681460064295.webp",
          "type": "MAIN_NON_ADULT"
        }
      ],
      "badge": {
        "newest": false,
        "adult": false,
        "scheduled": false,
        "up": false,
        "completed": true,
        "recommended": false,
        "discount": 0,
        "free": 1,
        "freetime": false
      },
      "viewCount": 264805,
      "tag": "BL,โรแมนติคคอมเมดี้,รักต่างวัย,ดราม่า,เคะจน,เคะกล้ามปู,เคะคนซึน,เคะขี้แย,เคะเด็กกว่า,เมะเจ้าเล่ห์,เมะเจ้าแผนการ,เมะแก่กว่า,เมะไฮโซ,เมะพูดเพราะ,เมะอบอุ่น,เมะสุภาพ,เมะแซ่บ,OnlyBOOMTOON",
      "updatedAt": 1691686800000,
      "creators": "Dal HyeonJi"
    }
  ],
  "pageable": {
    "sort": {
      "unsorted": true,
      "sorted": false,
      "empty": true
    },
    "offset": 0,
    "pageNumber": 0,
    "pageSize": 20,
    "paged": true,
    "unpaged": false
  },
  "last": false,
  "totalPages": 4,
  "totalElements": 62,
  "size": 20,
  "number": 0,
  "sort": {
    "unsorted": true,
    "sorted": false,
    "empty": true
  },
  "numberOfElements": 20,
  "first": true,
  "empty": false
}
