{
  "content": [
    {
      "id": 446,
      "alias": "monday",
      "title": "Monday's Savior",
      "isAdult": false,
      "isComplete": false,
      "orderNo": 1,
      "thumbnails": [
        {
          "imagePath": "https://image.balcony.studio/th/co_thumbnail/saviorMday/1703048120708.webp",
          "type": "SQUARE"
        },
        {
          "imagePath": "https://image.balcony.studio/th/co_thumbnail/saviorMday/1703048120873.webp",
          "type": "MAIN"
        }
      ],
      "badge": {
        "newest": true,
        "adult": false,
        "scheduled": true,
        "up": false,
        "completed": false,
        "recommended": false,
        "discount": 0,
        "free": 1,
        "freetime": false
      },
      "viewCount": 39800,
      "tag": "อัพทุกวันจันทร์,BL,ไม่เซ็นเซอร์,รักวัยรุ่น,เมะเจ้าเล่ห์,เมะเจ้าแผนการ,เมะคลั่งรัก,เมะสำนึกผิด,เมะอาวุธลับไซส์บิ๊ก,เมะแซ่บ,เมะมีปม,เมะอบอุ่น,เคะน่ารัก,เคะหน้าหวาน,เคะมีปม,เคะขี้อาย,เคะซื่อบื้อ,เคะแอบรัก,เคะขี้ยั่ว,OnlyBOOMTOON",
      "updatedAt": 1704646800000,
      "creators": "wageul"
    },
    {
      "id": 414,
      "alias": "illusion_stigma",
      "title": "ตรารักลวงใจ",
      "isAdult": false,
      "isComplete": false,
      "orderNo": 2,
      "thumbnails": [
        {
          "imagePath": "https://image.balcony.studio/th/co_thumbnail/illusion_stigma/1699344540652.webp",
          "type": "SQUARE"
        },
        {
          "imagePath": "https://image.balcony.studio/th/co_thumbnail/illusion_stigma/1699344540882.webp",
          "type": "MAIN"
        }
      ],
      "badge": {
        "newest": true,
        "adult": false,
        "scheduled": true,
        "up": false,
        "completed": false,
        "recommended": false,
        "discount": 0,
        "free": 1,
        "freetime": false
      },
      "viewCount": 211513,
      "tag": "อัพทุกวันจันทร์,BL,ไม่เซ็นเซอร์,Omegaverse ,Mpreg,ดราม่า,เมะแข็งแกร่ง,เมะเพอร์เฟ็ค,เมะเลว,เมะสำนึกผิด,เมะอาวุธลับไซส์บิ๊ก,เมะแซ่บ,เคะน่ารัก,เคะมีปม,เคะใสซื่อ,เคะแอบรัก,เคะใจดี,เลี้ยงเด็ก,OnlyBOOMTOON,อัพเดทพร้อมเกาหลี",
      "updatedAt": 1704718800000,
      "creators": "Kangpucon"
    },
    {
      "id": 225,
      "alias": "dawn_cloud_river",
      "title": "รุ่งอรุณ เมฆา วารี",
      "isAdult": false,
      "isComplete": false,
      "orderNo": 3,
      "thumbnails": [
        {
          "imagePath": "https://image.balcony.studio/th/co_thumbnail/dawn_cloud_river/1696421058249.webp",
          "type": "SQUARE"
        },
        {
          "imagePath": "https://image.balcony.studio/th/co_thumbnail/dawn_cloud_river/1696421058448.webp",
          "type": "MAIN"
        }
      ],
      "badge": {
        "newest": false,
        "adult": false,
        "scheduled": true,
        "up": false,
        "completed": false,
        "recommended": false,
        "discount": 0,
        "free": 7,
        "freetime": false
      },
      "viewCount": 710032,
      "tag": "อัพทุกวันจันทร์,BL,โรแมนติคแฟนตาซี,เหนือธรรมชาติ,อมนุษย์/ปีศาจ,กลับมาพบกันอีกครั้ง,เมะแข็งแกร่ง,เมะคลั่งรัก,เมะอาวุธลับไซส์บิ๊ก,เมะคนซึน,เมะลูกหมา,เมะขี้แย,เคะเพอร์เฟ็ค,เคะแข็งแกร่ง,เคะสุภาพ,เคะอบอุ่น,พลังวิเศษ,OnlyBOOMTOON",
      "updatedAt": 1704646800000,
      "creators": "Ma jeung ji"
    },
    {
      "id": 458,
      "alias": "8th_love",
      "title": "รักครั้งที่ 8 ของพวกเขา",
      "isAdult": false,
      "isComplete": false,
      "orderNo": 4,
      "thumbnails": [
        {
          "imagePath": "https://image.balcony.studio/th/co_thumbnail/8bl/1704253835978.webp",
          "type": "SQUARE"
        },
        {
          "imagePath": "https://image.balcony.studio/th/co_thumbnail/8bl/1704253836142.webp",
          "type": "MAIN"
        }
      ],
      "badge": {
        "newest": true,
        "adult": false,
        "scheduled": true,
        "up": true,
        "completed": false,
        "recommended": false,
        "discount": 0,
        "free": 1,
        "freetime": false
      },
      "viewCount": 568,
      "tag": "อัพทุกวันจันทร์,BL,โรแมนติคคอมเมดี้,รักวัยรุ่น,รักในมหาลัย,เมะอบอุ่น,เมะลูกหมา,เมะใสซื่อ,เมะเด็กกว่า,เคะหน้าหวาน,เคะแข็งแกร่ง,เคะแก่กว่า,เคะใจดี,มหาลัย,รุ่นพี่รุ่นน้อง,เรื่องสั้น",
      "updatedAt": 1704794400000,
      "creators": "Sondo"
    },
    {
      "id": 341,
      "alias": "mission_to_love",
      "title": "ภารกิจร้ายกลายเป็นรัก",
      "isAdult": false,
      "isComplete": false,
      "orderNo": 5,
      "thumbnails": [
        {
          "imagePath": "https://image.balcony.studio/th/co_thumbnail/killng_r/1685683972191.webp",
          "type": "SQUARE"
        },
        {
          "imagePath": "https://image.balcony.studio/th/co_thumbnail/killng_r/1685683972480.webp",
          "type": "MAIN"
        }
      ],
      "badge": {
        "newest": false,
        "adult": false,
        "scheduled": true,
        "up": false,
        "completed": false,
        "recommended": false,
        "discount": 0,
        "free": 1,
        "freetime": false
      },
      "viewCount": 73934,
      "tag": "อัพทุกวันจันทร์,BL,แฟนตาซี,เมะใจดี,เมะกล้ามปู,เมะอาวุธลับไซส์บิ๊ก,เมะรักจริง,เมะแซ่บ,เมะคนตรง,เมะอบอุ่น,เคะหน้าหวาน,เคะน่ารัก,เคะซื่อบื้อ,เคะใสซื่อ,เคะไซส์มินิ,แฟนตาซียุคปัจจุบัน,เหนือธรรมชาติ,อมนุษย์/ปีศาจ,OnlyBOOMTOON",
      "updatedAt": 1704646800000,
      "creators": "JEA"
    },
    {
      "id": 366,
      "alias": "onward",
      "title": "ONWARD",
      "isAdult": false,
      "isComplete": false,
      "orderNo": 6,
      "thumbnails": [
        {
          "imagePath": "https://image.balcony.studio/th/co_thumbnail/onward/1701157641889.webp",
          "type": "SQUARE"
        },
        {
          "imagePath": "https://image.balcony.studio/th/co_thumbnail/onward/1701157642127.webp",
          "type": "MAIN"
        }
      ],
      "badge": {
        "newest": false,
        "adult": false,
        "scheduled": true,
        "up": false,
        "completed": false,
        "recommended": false,
        "discount": 0,
        "free": 1,
        "freetime": false
      },
      "viewCount": 59207,
      "tag": "อัพทุกวันจันทร์,BL,การเติบโต,เมะลูกหมา,เมะอาวุธลับไซส์บิ๊ก,เมะกล้ามปู,เมะเด็กกว่า,เมะสุภาพ,เมะอบอุ่น,เมะใสซื่อ,เคะแก่กว่า,เคะแข็งแกร่ง,เคะแซ่บ,เคะไฮโซ,เคะมีปม,เคะไทป์แมว,เคะคนซึน,OnlyBOOMTOON",
      "updatedAt": 1704646800000,
      "creators": "HONGSSONA"
    },
    {
      "id": 160,
      "alias": "umma_1",
      "title": "สัญญาปีศาจราคะ",
      "isAdult": false,
      "isComplete": false,
      "orderNo": 7,
      "thumbnails": [
        {
          "imagePath": "https://image.balcony.studio/th/co_thumbnail/umma_1/1675324871279.webp",
          "type": "MAIN_NON_ADULT"
        },
        {
          "imagePath": "https://image.balcony.studio/th/co_thumbnail/umma_1/1675661616410.webp",
          "type": "SQUARE"
        },
        {
          "imagePath": "https://image.balcony.studio/th/co_thumbnail/umma_1/1696421178864.webp",
          "type": "MAIN"
        }
      ],
      "badge": {
        "newest": false,
        "adult": false,
        "scheduled": true,
        "up": false,
        "completed": false,
        "recommended": false,
        "discount": 0,
        "free": 1,
        "freetime": false
      },
      "viewCount": 1364354,
      "tag": "อัพทุกวันจันทร์,โรมานซ์,โรแมนติคแฟนตาซี,แฟนตาซี,รักต่างเผ่าพันธุ์,เหนือธรรมชาติ,อมนุษย์/ปีศาจ,พระเอกเจ้าเสน่ห์,พระเอกขี้ยั่ว,พระเอกแซ่บ,นางเอกมีปม,นางเอกพิลึก,นางเอกจืดจาง,OnlyBOOMTOON",
      "updatedAt": 1704646800000,
      "creators": "KIM MARE"
    },
    {
      "id": 381,
      "alias": "sion_and_sion",
      "title": "ชีอนและชีอนอีกคนหนึ่ง",
      "isAdult": false,
      "isComplete": false,
      "orderNo": 9,
      "thumbnails": [
        {
          "imagePath": "https://image.balcony.studio/th/co_thumbnail/two_si_on/1691386715723.webp",
          "type": "SQUARE"
        },
        {
          "imagePath": "https://image.balcony.studio/th/co_thumbnail/two_si_on/1691386715947.webp",
          "type": "MAIN"
        }
      ],
      "badge": {
        "newest": true,
        "adult": false,
        "scheduled": true,
        "up": false,
        "completed": false,
        "recommended": false,
        "discount": 0,
        "free": 1,
        "freetime": false
      },
      "viewCount": 23125,
      "tag": "อัพทุกวันจันทร์,BL,แฟนตาซี,สิงร่าง/ข้ามมิติ,เคะกล้ามปู,เคะขี้กลัว,เคะรักจริง,เคะใสซื่อ,เมะเลว,เมะเจ้าเล่ห์,เมะเย็นชา,เมะสดใส,เมะแอบรัก,เมะอบอุ่น,เราสองสามคน,OnlyBOOMTOON",
      "updatedAt": 1704646800000,
      "creators": "Hwamma Sirae"
    },
    {
      "id": 345,
      "alias": "rootless",
      "title": "ต้นไม้ไร้ราก",
      "isAdult": false,
      "isComplete": false,
      "orderNo": 10,
      "thumbnails": [
        {
          "imagePath": "https://image.balcony.studio/th/co_thumbnail/arbol-sin-raices/1688388525854.webp",
          "type": "SQUARE"
        },
        {
          "imagePath": "https://image.balcony.studio/th/co_thumbnail/arbol-sin-raices/1688388526221.webp",
          "type": "MAIN"
        }
      ],
      "badge": {
        "newest": true,
        "adult": false,
        "scheduled": true,
        "up": false,
        "completed": false,
        "recommended": false,
        "discount": 0,
        "free": 1,
        "freetime": false
      },
      "viewCount": 103673,
      "tag": "อัพทุกวันจันทร์,BL,สายดาร์ค,ดราม่า,Serious,รักต่างวัย,เมะมีปม,เมะเด็กกว่า,เมะเย็นชา,เมะคลั่งรัก,เคะหล่อ,เคะอบอุ่น,เคะแก่กว่า,กลับมาพบกันอีกครั้ง,แอบรัก,OnlyBOOMTOON",
      "updatedAt": 1704646800000,
      "creators": "LAPO"
    },
    {
      "id": 329,
      "alias": "in_my_bed",
      "title": "เหล่าชายหนุ่มบนเตียงของฉัน",
      "isAdult": false,
      "isComplete": false,
      "orderNo": 11,
      "thumbnails": [
        {
          "imagePath": "https://image.balcony.studio/th/co_thumbnail/themeninmybed/1689690662214.webp",
          "type": "MAIN"
        },
        {
          "imagePath": "https://image.balcony.studio/BOOMTOON_COM/co_thumbnail/in_my_bed/1691386187848.webp",
          "type": "SQUARE"
        }
      ],
      "badge": {
        "newest": true,
        "adult": false,
        "scheduled": true,
        "up": false,
        "completed": false,
        "recommended": false,
        "discount": 0,
        "free": 1,
        "freetime": false
      },
      "viewCount": 208929,
      "tag": "อัพทุกวันจันทร์,โรมานซ์,เราสองสามคน,นางเอกแซ่บ,นางเอกมีปม,นางเอกร้าย,นางเอกเจ้าเสน่ห์,นางเอกสำนึกผิด,พระเอกสุภาพ,พระเอกคาริสม่าพุ่ง,พระเอกใสซื่อ,พระเอกไทป์ลูกหมา,พระเอกใจดี,พระเอกเย็นชา,พระเอกแซ่บ,กลับมาพบกันอีกครั้ง,เพื่อนรักรักเพื่อน,ทาสรักยัยตัวร้าย,On",
      "updatedAt": 1704646800000,
      "creators": "Apricot.K, Aeng"
    },
    {
      "id": 323,
      "alias": "hosik",
      "title": "Hosik's Story",
      "isAdult": false,
      "isComplete": false,
      "orderNo": 12,
      "thumbnails": [
        {
          "imagePath": "https://image.balcony.studio/th/co_thumbnail/hosigi/1686099760858.webp",
          "type": "SQUARE"
        },
        {
          "imagePath": "https://image.balcony.studio/th/co_thumbnail/hosigi/1686099761116.webp",
          "type": "MAIN"
        }
      ],
      "badge": {
        "newest": true,
        "adult": false,
        "scheduled": true,
        "up": false,
        "completed": false,
        "recommended": false,
        "discount": 0,
        "free": 1,
        "freetime": false
      },
      "viewCount": 65726,
      "tag": "อัพทุกวันจันทร์,BL,Mpreg,รักวัยรุ่น,รักในมหาลัย,เลี้ยงเด็ก,เมะเจ้าเล่ห์,เมะเจ้าแผนการ,เมะเพอร์เฟ็ค,เมะคลั่งรัก,เมะสุภาพ,เคะน่ารัก,เคะใสซื่อ,เคะสดใส,เคะซื่อบื้อ,เคะขี้แย,รุ่นพี่รุ่นน้อง,OnlyBOOMTOON",
      "updatedAt": 1704646800000,
      "creators": "nokchae"
    },
    {
      "id": 312,
      "alias": "mad_place",
      "title": "Mad Place",
      "isAdult": false,
      "isComplete": false,
      "orderNo": 13,
      "thumbnails": [
        {
          "imagePath": "https://image.balcony.studio/th/co_thumbnail/mad_place/1685493524292.webp",
          "type": "SQUARE"
        },
        {
          "imagePath": "https://image.balcony.studio/th/co_thumbnail/mad_place/1685493524483.webp",
          "type": "MAIN"
        }
      ],
      "badge": {
        "newest": true,
        "adult": false,
        "scheduled": true,
        "up": false,
        "completed": false,
        "recommended": false,
        "discount": 0,
        "free": 1,
        "freetime": false
      },
      "viewCount": 100666,
      "tag": "อัพทุกวันจันทร์,BL,สืบสวน/สยองขวัญ,ดราม่า,สายดาร์ค,เมะสุภาพ,เมะมีปม,เมะอาวุธลับไซส์บิ๊ก,เคะเจ้าเล่ห์,เคะเจ้าแผนการ,เคะแอบรัก,OnlyBOOMTOON",
      "updatedAt": 1704646800000,
      "creators": "Junah"
    },
    {
      "id": 310,
      "alias": "change_of_seasons",
      "title": "ฤดูที่เปลี่ยนผ่าน",
      "isAdult": false,
      "isComplete": false,
      "orderNo": 14,
      "thumbnails": [
        {
          "imagePath": "https://image.balcony.studio/th/co_thumbnail/change_of_seasons/1685683496902.webp",
          "type": "SQUARE"
        },
        {
          "imagePath": "https://image.balcony.studio/th/co_thumbnail/change_of_seasons/1701930939823.webp",
          "type": "MAIN"
        },
        {
          "imagePath": "https://image.balcony.studio/th/co_thumbnail/change_of_seasons/1701930940038.webp",
          "type": "MAIN_NON_ADULT"
        }
      ],
      "badge": {
        "newest": false,
        "adult": false,
        "scheduled": true,
        "up": false,
        "completed": false,
        "recommended": false,
        "discount": 0,
        "free": 1,
        "freetime": false
      },
      "viewCount": 754518,
      "tag": "อัพทุกวันจันทร์,โรมานซ์,ออฟฟิต,เข้าใจผิด,รักครั้งแรก,แอบรัก,พระเอกเย็นชา,พระเอกเพอร์เฟ็ค,พระเอกแซ่บ,พระเอกขี้หวง,พระเอกคาริสม่าพุ่ง,พระเอกสำนึกผิด,นางเอกเก่ง,นางเอกใสซื่อ,นางเอกมีปม,นางเอกใจดี,รักในที่ทำงาน,เจ้านาย,OnlyBOOMTOON",
      "updatedAt": 1704646800000,
      "creators": "Gyungta, nacho(Happybooks2u), Min Hyeyoon, sand"
    },
    {
      "id": 240,
      "alias": "bad_good",
      "title": "Bad Kid Good Partner",
      "isAdult": false,
      "isComplete": false,
      "orderNo": 15,
      "thumbnails": [
        {
          "imagePath": "https://image.balcony.studio/th/co_thumbnail/bt_1110220/1683809387814.webp",
          "type": "SQUARE"
        },
        {
          "imagePath": "https://image.balcony.studio/th/co_thumbnail/bt_1110220/1683809388094.webp",
          "type": "MAIN"
        }
      ],
      "badge": {
        "newest": false,
        "adult": false,
        "scheduled": true,
        "up": false,
        "completed": false,
        "recommended": false,
        "discount": 0,
        "free": 1,
        "freetime": false
      },
      "viewCount": 124709,
      "tag": "อัพทุกวันจันทร์,BL,วงการบันเทิง,เราสองสามคน,กลับมาพบกันอีกครั้ง,เข้าใจผิด,เมะฮอต,เมะเพอร์เฟ็ค,เมะเด็กกว่า,เคะมีปม,เคะแก่กว่า,เคะไม่โดดเด่น,เคะขี้อาย,ดารา,OnlyBOOMTOON",
      "updatedAt": 1704646800000,
      "creators": "millmill, seonok"
    },
    {
      "id": 262,
      "alias": "plaything",
      "title": "Plaything : ของเล่นของแกรนด์ดยุก",
      "isAdult": false,
      "isComplete": false,
      "orderNo": 16,
      "thumbnails": [
        {
          "imagePath": "https://image.balcony.studio/th/co_thumbnail/plaything/1674623556406.webp",
          "type": "SQUARE"
        },
        {
          "imagePath": "https://image.balcony.studio/th/co_thumbnail/plaything/1674623556684.webp",
          "type": "MAIN"
        }
      ],
      "badge": {
        "newest": true,
        "adult": false,
        "scheduled": true,
        "up": false,
        "completed": false,
        "recommended": false,
        "discount": 0,
        "free": 1,
        "freetime": false
      },
      "viewCount": 258892,
      "tag": "อัพทุกวันจันทร์,BL,แฟนตาซี,แนวยุโรปโบราณ,รักในวัง,ฮาร์ดคอร์,เมะหน้าหวาน,เมะสวย,เมะแข็งแกร่ง,เมะอาวุธลับไซส์บิ๊ก,เมะแซ่บ,เมะผมยาว,เคะมีปม,เคะกล้ามปู,เคะหนี,เคะสู้คน,เจ้านาย,OnlyBOOMTOON",
      "updatedAt": 1699808400000,
      "creators": "TR, POTION"
    },
    {
      "id": 296,
      "alias": "secret_diary",
      "title": "บันทึกลับของเลดี้เอลิชา",
      "isAdult": false,
      "isComplete": false,
      "orderNo": 17,
      "thumbnails": [
        {
          "imagePath": "https://image.balcony.studio/th/co_thumbnail/1000606/1683606886213.webp",
          "type": "SQUARE"
        },
        {
          "imagePath": "https://image.balcony.studio/th/co_thumbnail/1000606/1683606886365.webp",
          "type": "MAIN"
        }
      ],
      "badge": {
        "newest": false,
        "adult": false,
        "scheduled": false,
        "up": false,
        "completed": false,
        "recommended": false,
        "discount": 0,
        "free": 1,
        "freetime": false
      },
      "viewCount": 182289,
      "tag": "โรมานซ์,แฟนตาซี,เราสองสามคน,โรแมนติคคอมเมดี้,แนวยุโรปโบราณ,ตลก/คอมเมดี้,สิงร่าง/ข้ามมิติ,นางเอกเจ้าเสน่ห์,นางเอกเพอร์เฟ็ค,นางเอกขี้ยั่ว,นางเอกแซ่บ,OnlyBOOMTOON",
      "updatedAt": 1695574800000,
      "creators": "Jangsegu"
    },
    {
      "id": 250,
      "alias": "my_child",
      "title": "เด็กคนนี้เป็นลูกของผมนะ!",
      "isAdult": false,
      "isComplete": false,
      "orderNo": 18,
      "thumbnails": [
        {
          "imagePath": "https://image.balcony.studio/th/co_thumbnail/my_child/1675150597026.webp",
          "type": "SQUARE"
        },
        {
          "imagePath": "https://image.balcony.studio/th/co_thumbnail/my_child/1675150597144.webp",
          "type": "MAIN"
        }
      ],
      "badge": {
        "newest": false,
        "adult": false,
        "scheduled": false,
        "up": false,
        "completed": true,
        "recommended": false,
        "discount": 0,
        "free": 1,
        "freetime": false
      },
      "viewCount": 213581,
      "tag": "BL,Omegaverse ,โรแมนติคคอมเมดี้,เลี้ยงเด็ก,กลับมาพบกันอีกครั้ง,เมะแข็งแกร่ง,เมะเพอร์เฟ็ค,เมะอบอุ่น,เมะใจดี,เคะน่ารัก,เคะหนี,เคะซื่อบื้อ,ออฟฟิต,รักในที่ทำงาน,OnlyBOOMTOON",
      "updatedAt": 1696179600000,
      "creators": "Sahgong"
    },
    {
      "id": 67,
      "alias": "rose_cham",
      "title": "กุหลาบคู่แชมเปญ",
      "isAdult": false,
      "isComplete": false,
      "orderNo": 19,
      "thumbnails": [
        {
          "imagePath": "https://image.balcony.studio/th/co_thumbnail/rose_cham/1678682635018.webp",
          "type": "SQUARE"
        },
        {
          "imagePath": "https://image.balcony.studio/th/co_thumbnail/rose_cham/1678682635155.webp",
          "type": "MAIN"
        }
      ],
      "badge": {
        "newest": false,
        "adult": false,
        "scheduled": false,
        "up": false,
        "completed": true,
        "recommended": false,
        "discount": 0,
        "free": 1,
        "freetime": false
      },
      "viewCount": 693146,
      "tag": "BL,Serious,แข่งขัน,เข้าใจผิด,เมะแข็งแกร่ง,เมะเลือดเย็น,เมะอาวุธลับไซส์บิ๊ก,เมะกล้ามปู,เมะแซ่บ,เมะขี้หวง,เคะสวย,เคะหัวแข็ง,เคะสู้คน,เคะคนตรง,มาเฟีย,OnlyBOOMTOON,จบแล้ว",
      "updatedAt": 1691946000000,
      "creators": "ZIG, Ttung gae"
    },
    {
      "id": 113,
      "alias": "Sura_S2",
      "title": "สัมพันธ์รักอสุรา",
      "isAdult": false,
      "isComplete": false,
      "orderNo": 20,
      "thumbnails": [
        {
          "imagePath": "https://image.balcony.studio/th/co_thumbnail/Sura_S2/1649224671078.webp",
          "type": "SQUARE"
        },
        {
          "imagePath": "https://image.balcony.studio/th/co_thumbnail/Sura_S2/1649224671215.webp",
          "type": "MAIN"
        },
        {
          "imagePath": "https://image.balcony.studio/th/co_thumbnail/Sura_S2/1649224671347.webp",
          "type": "MAIN_NON_ADULT"
        }
      ],
      "badge": {
        "newest": false,
        "adult": false,
        "scheduled": false,
        "up": false,
        "completed": true,
        "recommended": false,
        "discount": 0,
        "free": 1,
        "freetime": false
      },
      "viewCount": 180297,
      "tag": "BL,Serious,ดราม่า,สายดาร์ค,ฮาร์ดคอร์,BDSM,เมะคลั่งรัก,เมะเลือดเย็น,เคะใสซื่อ,OnlyBOOMTOON",
      "updatedAt": 1690736400000,
      "creators": "Shin Yuri"
    },
    {
      "id": 288,
      "alias": "error",
      "title": "นายเด็กใหม่ เขาไม่ชอบผมครับ",
      "isAdult": false,
      "isComplete": false,
      "orderNo": 21,
      "thumbnails": [
        {
          "imagePath": "https://image.balcony.studio/th/co_thumbnail/error/1677031686420.webp",
          "type": "SQUARE"
        },
        {
          "imagePath": "https://image.balcony.studio/th/co_thumbnail/error/1677031686712.webp",
          "type": "MAIN"
        }
      ],
      "badge": {
        "newest": true,
        "adult": false,
        "scheduled": false,
        "up": false,
        "completed": true,
        "recommended": false,
        "discount": 0,
        "free": 1,
        "freetime": false
      },
      "viewCount": 27659,
      "tag": "BL,โรแมนติคคอมเมดี้,รักวัยรุ่น,ตลก/คอมเมดี้,น่ารัก,Feelgood,แอบรัก,เข้าใจผิด,รักครั้งแรก,เพื่อนรักรักเพื่อน,เมะอบอุ่น,เมะสดใส,เมะขี้แกล้ง,เมะใสซื่อ,เคะขี้อาย,เคะคนซึน,เคะคนตรง,โรงเรียน,OnlyBOOMTOON",
      "updatedAt": 1689526800000,
      "creators": "soui"
    }
  ],
  "pageable": {
    "sort": {
      "unsorted": true,
      "sorted": false,
      "empty": true
    },
    "offset": 0,
    "pageNumber": 0,
    "pageSize": 20,
    "paged": true,
    "unpaged": false
  },
  "last": false,
  "totalPages": 3,
  "totalElements": 60,
  "size": 20,
  "number": 0,
  "sort": {
    "unsorted": true,
    "sorted": false,
    "empty": true
  },
  "numberOfElements": 20,
  "first": true,
  "empty": false
}
