{
  "content": [
    {
      "id": 434,
      "alias": "love_diet",
      "title": "รักนี้ต้องไดเอต",
      "isAdult": false,
      "isComplete": false,
      "orderNo": 1,
      "thumbnails": [
        {
          "imagePath": "https://image.balcony.studio/th/co_thumbnail/am_I_fat/1693889203821.webp",
          "type": "SQUARE"
        },
        {
          "imagePath": "https://image.balcony.studio/th/co_thumbnail/am_I_fat/1693889203996.webp",
          "type": "MAIN"
        }
      ],
      "badge": {
        "newest": true,
        "adult": false,
        "scheduled": true,
        "up": false,
        "completed": false,
        "recommended": false,
        "discount": 0,
        "free": 1,
        "freetime": false
      },
      "viewCount": 39972,
      "tag": "อัพทุกเสาร์,BL,ตลก/คอมเมดี้,เข้าใจผิด,เมะแข็งแกร่ง,เมะลูกหมา,เมะกล้ามปู,เมะเด็กกว่า,เมะมีปม,เคะน่ารัก,เคะหน้าหวาน,เคะรักจริง,เคะแก่กว่า,เคะแซ่บ,เคะขี้ยั่ว,มหาลัย,รุ่นพี่รุ่นน้อง,รักวัยรุ่น,OnlyBOOMTOON",
      "updatedAt": 1704474000000,
      "creators": "OHEUN, Cho Sangduck"
    },
    {
      "id": 437,
      "alias": "saturday",
      "title": "เจ้านายในวันเสาร์",
      "isAdult": false,
      "isComplete": false,
      "orderNo": 2,
      "thumbnails": [
        {
          "imagePath": "https://image.balcony.studio/th/co_thumbnail/SAT/1697075508912.webp",
          "type": "SQUARE"
        },
        {
          "imagePath": "https://image.balcony.studio/th/co_thumbnail/SAT/1697075509140.webp",
          "type": "MAIN"
        }
      ],
      "badge": {
        "newest": true,
        "adult": false,
        "scheduled": true,
        "up": false,
        "completed": false,
        "recommended": false,
        "discount": 0,
        "free": 1,
        "freetime": false
      },
      "viewCount": 57066,
      "tag": "อัพทุกเสาร์,BL,ไม่เซ็นเซอร์,BDSM,สายดาร์ค,ฮาร์ดคอร์,ดราม่า,ออฟฟิต,แอบรัก,เมะแข็งแกร่ง,เมะเจ้าแผนการ,เมะคนซึน,เมะเลือดเย็น,เมะสำนึกผิด,เมะปากร้าย,เคะน่ารัก,เคะใจดี,เคะมีปม,เคะแอบรัก,OnlyBOOMTOON",
      "updatedAt": 1704474000000,
      "creators": "Seomonhwa, DO.D"
    },
    {
      "id": 403,
      "alias": "fox_marriage",
      "title": "วิวาห์ลับของท่านจิ้งจอก",
      "isAdult": false,
      "isComplete": false,
      "orderNo": 3,
      "thumbnails": [
        {
          "imagePath": "https://image.balcony.studio/th/co_thumbnail/fox_marriage/1693283187606.webp",
          "type": "SQUARE"
        },
        {
          "imagePath": "https://image.balcony.studio/th/co_thumbnail/fox_marriage/1693283187853.webp",
          "type": "MAIN"
        }
      ],
      "badge": {
        "newest": true,
        "adult": false,
        "scheduled": true,
        "up": false,
        "completed": false,
        "recommended": false,
        "discount": 0,
        "free": 1,
        "freetime": false
      },
      "viewCount": 32979,
      "tag": "อัพทุกเสาร์,BL,แฟนตาซี,แฟนตาซียุคปัจจุบัน,Mpreg,เลี้ยงเด็ก,เมะแข็งแกร่ง,เมะปากร้าย,เมะคนซึน,เมะไฮโซ,เคะหน้าหวาน,เคะมีปม,เคะใสซื่อ,เคะสดใส,เหนือธรรมชาติ,อมนุษย์/ปีศาจ,OnlyBOOMTOON",
      "updatedAt": 1704474000000,
      "creators": "Han SiWon, Lee SoLWoo"
    },
    {
      "id": 139,
      "alias": "night_of_W",
      "title": "ทะเลรัตติกาล",
      "isAdult": false,
      "isComplete": false,
      "orderNo": 4,
      "thumbnails": [
        {
          "imagePath": "https://image.balcony.studio/th/co_thumbnail/night_of_W/1698660805803.webp",
          "type": "SQUARE"
        },
        {
          "imagePath": "https://image.balcony.studio/th/co_thumbnail/night_of_W/1698660806007.webp",
          "type": "MAIN"
        }
      ],
      "badge": {
        "newest": false,
        "adult": false,
        "scheduled": true,
        "up": false,
        "completed": false,
        "recommended": false,
        "discount": 0,
        "free": 10,
        "freetime": false
      },
      "viewCount": 1708301,
      "tag": "อัพทุกเสาร์,BL,Omegaverse ,ฮาร์ดคอร์,เมะแข็งแกร่ง,เมะเจ้าแผนการ,เมะเจ้าเล่ห์,เมะแซ่บ,เมะสำนึกผิด,เคะสู้คน,เคะมีปม,เคะคนตรง,มาเฟีย,OnlyBOOMTOON",
      "updatedAt": 1703869200000,
      "creators": "euja"
    },
    {
      "id": 408,
      "alias": "in_dreams",
      "title": "UNDER THE GREENLIGHT : IN DREAMS",
      "isAdult": false,
      "isComplete": false,
      "orderNo": 5,
      "thumbnails": [
        {
          "imagePath": "https://image.balcony.studio/th/co_thumbnail/in_dreams/1698838596368.webp",
          "type": "SQUARE"
        },
        {
          "imagePath": "https://image.balcony.studio/th/co_thumbnail/in_dreams/1698838596527.webp",
          "type": "MAIN"
        }
      ],
      "badge": {
        "newest": true,
        "adult": false,
        "scheduled": true,
        "up": false,
        "completed": false,
        "recommended": false,
        "discount": 0,
        "free": 1,
        "freetime": false
      },
      "viewCount": 25415,
      "tag": "อัพทุกเสาร์,BL,สายดาร์ค,ฮาร์ดคอร์,เมะกล้ามปู,เมะเด็กกว่า,เมะลูกหมา,เมะใสซื่อ,เมะแซ่บ,เคะหล่อ,เคะแข็งแกร่ง,เคะแก่กว่า,เคะกล้ามปู,มาเฟีย",
      "updatedAt": 1703343600000,
      "creators": "JAXX"
    },
    {
      "id": 401,
      "alias": "hot_company",
      "title": "บริษัทร้อนซ่อนรัก",
      "isAdult": false,
      "isComplete": false,
      "orderNo": 6,
      "thumbnails": [
        {
          "imagePath": "https://image.balcony.studio/th/co_thumbnail/daf_1000701/1695117079692.webp",
          "type": "SQUARE"
        },
        {
          "imagePath": "https://image.balcony.studio/th/co_thumbnail/daf_1000701/1695117079921.webp",
          "type": "MAIN"
        }
      ],
      "badge": {
        "newest": true,
        "adult": false,
        "scheduled": true,
        "up": false,
        "completed": false,
        "recommended": false,
        "discount": 0,
        "free": 1,
        "freetime": false
      },
      "viewCount": 70346,
      "tag": "อัพทุกเสาร์,โรมานซ์,ออฟฟิต,โรแมนติคคอมเมดี้,มนุษย์เงินเดือน,พระเอกเจ้าเสน่ห์,พระเอกไฮโซ,พระเอกแซ่บ,พระเอกเซ็กซี่,นางเอกใสซื่อ,นางเอกขี้ยั่ว,นางเอกคนตรง,เจ้านาย,รักในที่ทำงาน,OnlyBOOMTOON",
      "updatedAt": 1704474000000,
      "creators": "Hongwa, CHACHA KIM"
    },
    {
      "id": 360,
      "alias": "love_and_lust",
      "title": "ใคร่ราคะ",
      "isAdult": false,
      "isComplete": false,
      "orderNo": 8,
      "thumbnails": [
        {
          "imagePath": "https://image.balcony.studio/th/co_thumbnail/love_and_lust/1691640330652.webp",
          "type": "SQUARE"
        },
        {
          "imagePath": "https://image.balcony.studio/th/co_thumbnail/love_and_lust/1691640330836.webp",
          "type": "MAIN"
        }
      ],
      "badge": {
        "newest": false,
        "adult": false,
        "scheduled": true,
        "up": true,
        "completed": false,
        "recommended": false,
        "discount": 0,
        "free": 5,
        "freetime": false
      },
      "viewCount": 445420,
      "tag": "อัพทุกเสาร์,BL,ไม่เซ็นเซอร์,ดราม่า,เมะเด็กกว่า,เมะไฮโซ,เมะมีปม,เมะฮอต,เมะแซ่บ,เคะสวย,เคะแก่กว่า,เคะจน,เจ้านาย,OnlyBOOMTOON,อัพเดทพร้อมเกาหลี",
      "updatedAt": 1704546000000,
      "creators": "Majjip"
    },
    {
      "id": 52,
      "alias": "BBanana_S",
      "title": "บานาน่า สแกนเดิล",
      "isAdult": false,
      "isComplete": false,
      "orderNo": 9,
      "thumbnails": [
        {
          "imagePath": "https://image.balcony.studio/th/co_thumbnail/BBanana_S/1666595380675.webp",
          "type": "SQUARE"
        },
        {
          "imagePath": "https://image.balcony.studio/th/co_thumbnail/BBanana_S/1666595380908.webp",
          "type": "MAIN"
        }
      ],
      "badge": {
        "newest": false,
        "adult": false,
        "scheduled": true,
        "up": false,
        "completed": false,
        "recommended": false,
        "discount": 0,
        "free": 1,
        "freetime": false
      },
      "viewCount": 149777,
      "tag": "อัพทุกเสาร์,BL,ดราม่า,เมะสำนึกผิด,เคะแอบรัก,รักในมหาลัย,เพื่อนร่วมบ้าน,รุ่นพี่รุ่นน้อง,เมะอบอุ่น,เมะขี้หวง,รักหวานแหวว,เคะแก่กว่า,เมะหน้าหวาน,มหาลัย,OnlyBOOMTOON",
      "updatedAt": 1704474000000,
      "creators": "DolSHA"
    },
    {
      "id": 187,
      "alias": "scum",
      "title": "ถิ่นคนเถื่อน",
      "isAdult": false,
      "isComplete": false,
      "orderNo": 10,
      "thumbnails": [
        {
          "imagePath": "https://image.balcony.studio/th/co_thumbnail/scum/1663570689691.webp",
          "type": "SQUARE"
        },
        {
          "imagePath": "https://image.balcony.studio/th/co_thumbnail/scum/1663570689972.webp",
          "type": "MAIN"
        }
      ],
      "badge": {
        "newest": true,
        "adult": false,
        "scheduled": true,
        "up": false,
        "completed": false,
        "recommended": false,
        "discount": 0,
        "free": 1,
        "freetime": false
      },
      "viewCount": 821587,
      "tag": "อัพทุกเสาร์,BL,ดราม่า,สายดาร์ค,รักต่างวัย,กลับมาพบกันอีกครั้ง,เมะแข็งแกร่ง,เมะเลือดเย็น,เมะแอบรัก,เมะคลั่งรัก,เมะอาวุธลับไซส์บิ๊ก,เมะเด็กกว่า,เคะกล้ามปู,เคะมีปม,เคะแข็งแกร่ง,เคะคนซึน,มาเฟีย,OnlyBOOMTOON",
      "updatedAt": 1704474000000,
      "creators": "Brothers Without A Tomorrow"
    },
    {
      "id": 287,
      "alias": "not_heroine",
      "title": "คุณคะ ฉันไม่ใช่นางเอก!",
      "isAdult": false,
      "isComplete": false,
      "orderNo": 11,
      "thumbnails": [
        {
          "imagePath": "https://image.balcony.studio/th/co_thumbnail/okotowari/1679052068000.webp",
          "type": "SQUARE"
        },
        {
          "imagePath": "https://image.balcony.studio/th/co_thumbnail/okotowari/1679052068176.webp",
          "type": "MAIN"
        }
      ],
      "badge": {
        "newest": true,
        "adult": false,
        "scheduled": true,
        "up": false,
        "completed": false,
        "recommended": false,
        "discount": 0,
        "free": 3,
        "freetime": false
      },
      "viewCount": 54094,
      "tag": "อัพทุกเสาร์,แฟนตาซี,สิงร่าง/ข้ามมิติ,แนวยุโรปโบราณ,รักวัยรุ่น,เกิร์ลครัช,นางเอกเจ้าเสน่ห์,นางเอกเก่ง,นางเอกมีปม,นางเอกเฟรนด์ลี่,พระเอกเพอร์เฟ็ค,พระเอกไทป์ลูกหมา,พระเอกคาริสม่าพุ่ง,พลังวิเศษ,OnlyBOOMTOON",
      "updatedAt": 1700845200000,
      "creators": "Yehwon, Salaman"
    },
    {
      "id": 276,
      "alias": "asura",
      "title": "ปกรณัมรักราชาอสูร",
      "isAdult": false,
      "isComplete": false,
      "orderNo": 12,
      "thumbnails": [
        {
          "imagePath": "https://image.balcony.studio/th/co_thumbnail/asura/1679052815410.webp",
          "type": "SQUARE"
        },
        {
          "imagePath": "https://image.balcony.studio/th/co_thumbnail/asura/1679052815611.webp",
          "type": "MAIN"
        }
      ],
      "badge": {
        "newest": true,
        "adult": false,
        "scheduled": true,
        "up": false,
        "completed": false,
        "recommended": false,
        "discount": 0,
        "free": 1,
        "freetime": false
      },
      "viewCount": 88792,
      "tag": "อัพทุกเสาร์,BL,ย้อนยุคสมัยโบราณ,สายดาร์ค,ฮาร์ดคอร์,รักต่างชนชั้น,ดราม่า,เมะแข็งแกร่ง,เมะเลว,เมะคนซึน,เมะเลือดเย็น,เมะคลั่งรัก,เมะสำนึกผิด,เคะน่ารัก,เคะใสซื่อ,เคะอบอุ่น,เคะใจดี,เคะมีปม,OnlyBOOMTOON,รักในวัง",
      "updatedAt": 1704474000000,
      "creators": "Black kong"
    },
    {
      "id": 256,
      "alias": "dog_and_wolf",
      "title": "ช่วงเวลาของหมาและหมาป่า",
      "isAdult": false,
      "isComplete": false,
      "orderNo": 13,
      "thumbnails": [
        {
          "imagePath": "https://image.balcony.studio/th/co_thumbnail/dogs_and_wolf/1675338357352.webp",
          "type": "MAIN"
        },
        {
          "imagePath": "https://image.balcony.studio/th/co_thumbnail/dogs_and_wolf/1680827761562.webp",
          "type": "SQUARE"
        },
        {
          "imagePath": "https://image.balcony.studio/th/co_thumbnail/dogs_and_wolf/1680827761783.webp",
          "type": "MAIN_NON_ADULT"
        }
      ],
      "badge": {
        "newest": true,
        "adult": false,
        "scheduled": true,
        "up": false,
        "completed": false,
        "recommended": false,
        "discount": 0,
        "free": 1,
        "freetime": false
      },
      "viewCount": 55614,
      "tag": "อัพทุกเสาร์,BL,ดราม่า,Serious,สายดาร์ค,Omegaverse ,เมะแข็งแกร่ง,เมะเจ้าแผนการ,เมะเจ้าเล่ห์,เมะคนซึน,เคะหน้าหวาน,เคะใสซื่อ,เคะมีปม,เคะไซส์มินิ,OnlyBOOMTOON",
      "updatedAt": 1704474000000,
      "creators": "Joy, SolWoo Lee"
    },
    {
      "id": 157,
      "alias": "spinach_fl",
      "title": "Spinach Bouquet",
      "isAdult": false,
      "isComplete": false,
      "orderNo": 14,
      "thumbnails": [
        {
          "imagePath": "https://image.balcony.studio/th/co_thumbnail/spinach_fl/1675768703514.webp",
          "type": "SQUARE"
        },
        {
          "imagePath": "https://image.balcony.studio/th/co_thumbnail/spinach_fl/1675768703750.webp",
          "type": "MAIN"
        }
      ],
      "badge": {
        "newest": false,
        "adult": false,
        "scheduled": true,
        "up": false,
        "completed": false,
        "recommended": false,
        "discount": 0,
        "free": 3,
        "freetime": false
      },
      "viewCount": 48775,
      "tag": "อัพทุกเสาร์,BL,รักวัยรุ่น,โรแมนติคคอมเมดี้,Feelgood,น่ารัก,เข้าใจผิด,เมะอบอุ่น,เมะคนตรง,เมะเจ้าเล่ห์,เคะมีปม,เคะขี้แย,เคะขี้อาย,เคะไม่โดดเด่น,เพื่อนข้างบ้าน,รุ่นพี่รุ่นน้อง,โรงเรียน,OnlyBOOMTOON",
      "updatedAt": 1704474000000,
      "creators": "TERRA"
    },
    {
      "id": 266,
      "alias": "cloud_rain",
      "title": "ลิขิตรักเทพมังกร",
      "isAdult": false,
      "isComplete": false,
      "orderNo": 15,
      "thumbnails": [
        {
          "imagePath": "https://image.balcony.studio/th/co_thumbnail/cloud_rain/1677818129858.webp",
          "type": "SQUARE"
        },
        {
          "imagePath": "https://image.balcony.studio/th/co_thumbnail/cloud_rain/1677818130096.webp",
          "type": "MAIN"
        }
      ],
      "badge": {
        "newest": false,
        "adult": false,
        "scheduled": false,
        "up": false,
        "completed": true,
        "recommended": false,
        "discount": 0,
        "free": 1,
        "freetime": false
      },
      "viewCount": 60239,
      "tag": "BL,โรแมนติคแฟนตาซี,โรแมนติคคอมเมดี้,ตลก/คอมเมดี้,รักต่างเผ่าพันธุ์,แฟนตาซี,รักครั้งแรก,เมะขี้แกล้ง,เมะฮอต,เมะแซ่บ,เมะอาวุธลับไซส์บิ๊ก,เมะคลั่งรัก,เคะขี้อาย,เคะซื่อบื้อ,เคะสวย,เคะใสซื่อ,เคะอบอุ่น,เหนือธรรมชาติ,OnlyBOOMTOON",
      "updatedAt": 1700845200000,
      "creators": "MOSCARETO, OKDONG"
    },
    {
      "id": 30,
      "alias": "talkto",
      "title": "Talk  to Me",
      "isAdult": false,
      "isComplete": false,
      "orderNo": 16,
      "thumbnails": [
        {
          "imagePath": "https://image.balcony.studio/th/co_thumbnail/talkto/1630864044662.webp",
          "type": "MAIN"
        },
        {
          "imagePath": "https://image.balcony.studio/th/co_thumbnail/talkto/1664173419883.webp",
          "type": "SQUARE"
        },
        {
          "imagePath": "https://image.balcony.studio/th/co_thumbnail/talkto/1664173420096.webp",
          "type": "MAIN_NON_ADULT"
        }
      ],
      "badge": {
        "newest": false,
        "adult": false,
        "scheduled": false,
        "up": false,
        "completed": true,
        "recommended": false,
        "discount": 0,
        "free": 2,
        "freetime": false
      },
      "viewCount": 202678,
      "tag": "โรมานซ์,OnlyBOOMTOON,รักในมหาลัย,นางเอกแซ่บ,นางเอกขี้ยั่ว,พระเอกแซ่บ,พระเอกสุภาพ,มหาลัย,ความสัมพันธ์",
      "updatedAt": 1696006800000,
      "creators": "อึนบยอล"
    },
    {
      "id": 261,
      "alias": "inthecastle",
      "title": "In the Castle",
      "isAdult": false,
      "isComplete": false,
      "orderNo": 17,
      "thumbnails": [
        {
          "imagePath": "https://image.balcony.studio/th/co_thumbnail/inthecastle/1679473947433.webp",
          "type": "SQUARE"
        },
        {
          "imagePath": "https://image.balcony.studio/th/co_thumbnail/inthecastle/1679473947610.webp",
          "type": "MAIN"
        },
        {
          "imagePath": "https://image.balcony.studio/th/co_thumbnail/inthecastle/1679473947896.webp",
          "type": "MAIN_NON_ADULT"
        }
      ],
      "badge": {
        "newest": false,
        "adult": false,
        "scheduled": false,
        "up": false,
        "completed": true,
        "recommended": false,
        "discount": 0,
        "free": 1,
        "freetime": false
      },
      "viewCount": 385334,
      "tag": "BL,แฟนตาซี,BDSM,สายดาร์ค,ฮาร์ดคอร์,ตลก/คอมเมดี้,เราสองสามคน,เหนือธรรมชาติ,อมนุษย์/ปีศาจ,เมะแข็งแกร่ง,เมะอาวุธลับไซส์บิ๊ก,เมะลูกหมา,เมะเจ้าแผนการ,เมะแซ่บ,เคะน่ารัก,เคะแว่น,เคะซื่อบื้อ,รักต่างเผ่าพันธุ์,OnlyBOOMTOON",
      "updatedAt": 1695402000000,
      "creators": "PPURIN"
    },
    {
      "id": 134,
      "alias": "B_position",
      "title": "Bad Position",
      "isAdult": false,
      "isComplete": false,
      "orderNo": 18,
      "thumbnails": [
        {
          "imagePath": "https://image.balcony.studio/th/co_thumbnail/B_position/1650947394439.webp",
          "type": "SQUARE"
        },
        {
          "imagePath": "https://image.balcony.studio/th/co_thumbnail/B_position/1650947394604.webp",
          "type": "MAIN"
        }
      ],
      "badge": {
        "newest": true,
        "adult": false,
        "scheduled": true,
        "up": false,
        "completed": false,
        "recommended": false,
        "discount": 0,
        "free": 1,
        "freetime": false
      },
      "viewCount": 232886,
      "tag": "อัพทุกเสาร์,BL,วงการบันเทิง,ดารา,เมะเจ้าเล่ห์,เมะเพอร์เฟ็ค,เมะอาวุธลับไซส์บิ๊ก,เมะเจ้าแผนการ,เคะสวย,เคะรักจริง,เคะซื่อบื้อ,เคะขี้แย,ความสัมพันธ์,โรแมนติคคอมเมดี้,OnlyBOOMTOON",
      "updatedAt": 1704474000000,
      "creators": "Zudo"
    },
    {
      "id": 273,
      "alias": "revenge",
      "title": "แค้นนี้ต้องรัก",
      "isAdult": false,
      "isComplete": false,
      "orderNo": 19,
      "thumbnails": [
        {
          "imagePath": "https://image.balcony.studio/th/co_thumbnail/bt_1110368/1678945282384.webp",
          "type": "SQUARE"
        },
        {
          "imagePath": "https://image.balcony.studio/th/co_thumbnail/bt_1110368/1678945282528.webp",
          "type": "MAIN"
        }
      ],
      "badge": {
        "newest": false,
        "adult": false,
        "scheduled": false,
        "up": false,
        "completed": true,
        "recommended": false,
        "discount": 0,
        "free": 1,
        "freetime": false
      },
      "viewCount": 53679,
      "tag": "BL,แก้แค้น,ย้อนอดีต/เกิดใหม่,คู่รักในบริษัท,มนุษย์เงินเดือน,เมะสำนึกผิด,เมะอบอุ่น,เมะสุภาพ,เมะกล้ามปู,เมะฮอต,เมะเด็กกว่า,เคะมีปม,เคะเจ้าแผนการ,เคะเจ้าเล่ห์,เคะสู้คน,เคะแก่กว่า,เหนือธรรมชาติ,OnlyBOOMTOON",
      "updatedAt": 1691168400000,
      "creators": "EOJIN"
    },
    {
      "id": 279,
      "alias": "lucifer",
      "title": "คิดถึงนะ ลูซิเฟอร์",
      "isAdult": false,
      "isComplete": false,
      "orderNo": 20,
      "thumbnails": [
        {
          "imagePath": "https://image.balcony.studio/th/co_thumbnail/lucifer/1679889392782.webp",
          "type": "SQUARE"
        },
        {
          "imagePath": "https://image.balcony.studio/th/co_thumbnail/lucifer/1679889392925.webp",
          "type": "MAIN"
        }
      ],
      "badge": {
        "newest": false,
        "adult": false,
        "scheduled": false,
        "up": false,
        "completed": true,
        "recommended": false,
        "discount": 0,
        "free": 1,
        "freetime": false
      },
      "viewCount": 22777,
      "tag": "BL,โรแมนติคคอมเมดี้,ตลก/คอมเมดี้,แอบรัก,รักครั้งแรก,เข้าใจผิด,วงการบันเทิง,เมะเพอร์เฟ็ค,เมะเจ้าเล่ห์,เมะคลั่งรัก,เมะไฮโซ,เมะฮอต,เคะน่ารัก,เคะร่าเริง ,เคะอบอุ่น,เคะใสซื่อ,ไอดอล,ดารา,OnlyBOOMTOON",
      "updatedAt": 1690563600000,
      "creators": "MOSCARETO, OKDONG"
    },
    {
      "id": 245,
      "alias": "group_project",
      "title": "โปรเจกต์รักอันตรายกับนายสุดฮอต",
      "isAdult": false,
      "isComplete": false,
      "orderNo": 21,
      "thumbnails": [
        {
          "imagePath": "https://image.balcony.studio/th/co_thumbnail/group_project/1673602876832.webp",
          "type": "SQUARE"
        },
        {
          "imagePath": "https://image.balcony.studio/th/co_thumbnail/group_project/1678272594625.webp",
          "type": "MAIN"
        }
      ],
      "badge": {
        "newest": false,
        "adult": false,
        "scheduled": false,
        "up": false,
        "completed": true,
        "recommended": false,
        "discount": 0,
        "free": 0,
        "freetime": false
      },
      "viewCount": 20773,
      "tag": "BL,โรแมนติคคอมเมดี้,รักวัยรุ่น,รักในมหาลัย,ตลก/คอมเมดี้,เมะอบอุ่น,เมะเพอร์เฟ็ค,เมะลูกหมา,เคะน่ารัก,เคะขี้อาย,เคะซื่อบื้อ,มหาลัย,OnlyBOOMTOON",
      "updatedAt": 1687539600000,
      "creators": "TT"
    }
  ],
  "pageable": {
    "sort": {
      "sorted": false,
      "unsorted": true,
      "empty": true
    },
    "offset": 0,
    "pageNumber": 0,
    "pageSize": 20,
    "paged": true,
    "unpaged": false
  },
  "last": false,
  "totalPages": 3,
  "totalElements": 54,
  "size": 20,
  "number": 0,
  "sort": {
    "sorted": false,
    "unsorted": true,
    "empty": true
  },
  "numberOfElements": 20,
  "first": true,
  "empty": false
}
