{
  "content": [
    {
      "id": 431,
      "alias": "golden_pair",
      "title": "Golden Pair",
      "isAdult": false,
      "isComplete": false,
      "orderNo": 2,
      "thumbnails": [
        {
          "imagePath": "https://image.balcony.studio/th/co_thumbnail/GoldenPair/1697709174958.webp",
          "type": "SQUARE"
        },
        {
          "imagePath": "https://image.balcony.studio/th/co_thumbnail/GoldenPair/1697709175167.webp",
          "type": "MAIN"
        }
      ],
      "badge": {
        "newest": true,
        "adult": false,
        "scheduled": true,
        "up": true,
        "completed": false,
        "recommended": false,
        "discount": 0,
        "free": 1,
        "freetime": false
      },
      "viewCount": 37906,
      "tag": "อัพทุกอาทิตย์,BL,Omegaverse ,ไม่เซ็นเซอร์,อมนุษย์/ปีศาจ,รักต่างวัย,เมะคลั่งรัก,เมะอาวุธลับไซส์บิ๊ก,เมะลูกหมา,เมะใสซื่อ,เมะรักจริง,เมะเด็กกว่า,เมะขี้แย,เคะหล่อ,เคะแข็งแกร่ง,เคะกล้ามปู,เคะแก่กว่า,เคะลุง,เคะขี้แกล้ง,สัตว์,เหนือธรรมชาติ,OnlyBOOMTOON",
      "updatedAt": 1704560400000,
      "creators": "Hyeol-Aek"
    },
    {
      "id": 443,
      "alias": "role_play",
      "title": "บทบาทแฟน ทำแทนได้หรือ?",
      "isAdult": false,
      "isComplete": false,
      "orderNo": 3,
      "thumbnails": [
        {
          "imagePath": "https://image.balcony.studio/th/co_thumbnail/role_play/1702369656666.webp",
          "type": "SQUARE"
        },
        {
          "imagePath": "https://image.balcony.studio/th/co_thumbnail/role_play/1702369656883.webp",
          "type": "MAIN"
        }
      ],
      "badge": {
        "newest": true,
        "adult": false,
        "scheduled": true,
        "up": false,
        "completed": false,
        "recommended": false,
        "discount": 0,
        "free": 1,
        "freetime": false
      },
      "viewCount": 12465,
      "tag": "อัพทุกอาทิตย์,BL",
      "updatedAt": 1704034800000,
      "creators": "DAONG"
    },
    {
      "id": 435,
      "alias": "snake_bite",
      "title": "Snake Bite",
      "isAdult": false,
      "isComplete": false,
      "orderNo": 4,
      "thumbnails": [
        {
          "imagePath": "https://image.balcony.studio/th/co_thumbnail/snake_bite/1697455977613.webp",
          "type": "SQUARE"
        },
        {
          "imagePath": "https://image.balcony.studio/th/co_thumbnail/snake_bite/1697455977851.webp",
          "type": "MAIN"
        }
      ],
      "badge": {
        "newest": true,
        "adult": false,
        "scheduled": true,
        "up": true,
        "completed": false,
        "recommended": false,
        "discount": 0,
        "free": 1,
        "freetime": false
      },
      "viewCount": 18935,
      "tag": "อัพทุกอาทิตย์,โรมานซ์,BL,GL,เราสองสามคน,สายดาร์ค,ฮาร์ดคอร์,มหาลัย,รุ่นพี่รุ่นน้อง,OnlyBOOMTOON",
      "updatedAt": 1704560400000,
      "creators": "Gongzo"
    },
    {
      "id": 433,
      "alias": "not_my_type",
      "title": "รักไม่ตรงสเป็ก",
      "isAdult": false,
      "isComplete": false,
      "orderNo": 5,
      "thumbnails": [
        {
          "imagePath": "https://image.balcony.studio/th/co_thumbnail/not_my_type/1699868576914.webp",
          "type": "SQUARE"
        },
        {
          "imagePath": "https://image.balcony.studio/th/co_thumbnail/not_my_type/1699868577145.webp",
          "type": "MAIN"
        }
      ],
      "badge": {
        "newest": true,
        "adult": false,
        "scheduled": true,
        "up": true,
        "completed": false,
        "recommended": false,
        "discount": 0,
        "free": 1,
        "freetime": false
      },
      "viewCount": 23734,
      "tag": "อัพทุกอาทิตย์,BL,โรแมนติคคอมเมดี้,Omegaverse ,ตลก/คอมเมดี้,เข้าใจผิด,เมะฮอต,เมะแอบรัก,เมะแซ่บ,เมะรักจริง,เคะหล่อ,เคะกล้ามปู,เคะซื่อบื้อ,เคะน่ารัก,เคะแอบรัก,OnlyBOOMTOON",
      "updatedAt": 1704560400000,
      "creators": "Hataejin, CHASAM, topy"
    },
    {
      "id": 427,
      "alias": "vanilla_flavor",
      "title": "ขอรสวานิลลานะ!",
      "isAdult": false,
      "isComplete": false,
      "orderNo": 6,
      "thumbnails": [
        {
          "imagePath": "https://image.balcony.studio/th/co_thumbnail/bt_1110520/1698148916297.webp",
          "type": "SQUARE"
        },
        {
          "imagePath": "https://image.balcony.studio/th/co_thumbnail/bt_1110520/1698148916500.webp",
          "type": "MAIN"
        }
      ],
      "badge": {
        "newest": true,
        "adult": false,
        "scheduled": true,
        "up": true,
        "completed": false,
        "recommended": false,
        "discount": 0,
        "free": 1,
        "freetime": false
      },
      "viewCount": 24907,
      "tag": "อัพทุกอาทิตย์,BL,โรแมนติคคอมเมดี้,เพื่อนรักรักเพื่อน,รักวัยรุ่น,เมะอบอุ่น,เมะแซ่บ,เมะรักจริง,เคะน่ารัก,เคะขี้ยั่ว,เคะแซ่บ,เคะสดใส,มหาลัย,OnlyBOOMTOON",
      "updatedAt": 1704560400000,
      "creators": "A"
    },
    {
      "id": 399,
      "alias": "lovely_senior",
      "title": "รุ่นพี่ที่รัก",
      "isAdult": false,
      "isComplete": false,
      "orderNo": 7,
      "thumbnails": [
        {
          "imagePath": "https://image.balcony.studio/th/co_thumbnail/minna/1698835938767.webp",
          "type": "SQUARE"
        },
        {
          "imagePath": "https://image.balcony.studio/th/co_thumbnail/minna/1698835938989.webp",
          "type": "MAIN"
        }
      ],
      "badge": {
        "newest": true,
        "adult": false,
        "scheduled": true,
        "up": true,
        "completed": false,
        "recommended": false,
        "discount": 0,
        "free": 1,
        "freetime": false
      },
      "viewCount": 22766,
      "tag": "อัพทุกอาทิตย์,BL,รักวัยรุ่น,รักในมหาลัย,เมะเจ้าเล่ห์,เมะแข็งแกร่ง,เมะอาวุธลับไซส์บิ๊ก,เมะแก่กว่า,เมะแซ่บ,เคะน่ารัก,เคะใสซื่อ,เคะแว่น,เคะไซส์มินิ,เคะเด็กกว่า,เคะไม่โดดเด่น,รุ่นพี่รุ่นน้อง,OnlyBOOMTOON",
      "updatedAt": 1704560400000,
      "creators": "อีดูกึน"
    },
    {
      "id": 168,
      "alias": "ghost_door",
      "title": "สัมผัสหลอนซ่อนวิญญาณ",
      "isAdult": false,
      "isComplete": false,
      "orderNo": 8,
      "thumbnails": [
        {
          "imagePath": "https://image.balcony.studio/th/co_thumbnail/ghost_door/1659507708144.webp",
          "type": "SQUARE"
        },
        {
          "imagePath": "https://image.balcony.studio/th/co_thumbnail/ghost_door/1659507708312.webp",
          "type": "MAIN"
        }
      ],
      "badge": {
        "newest": true,
        "adult": false,
        "scheduled": true,
        "up": true,
        "completed": false,
        "recommended": false,
        "discount": 0,
        "free": 1,
        "freetime": false
      },
      "viewCount": 382700,
      "tag": "อัพทุกอาทิตย์,BL,ผี/วิญญาณ,เรื่องลี้ลับ,เมะแข็งแกร่ง,เมะอาวุธลับไซส์บิ๊ก,เมะเจ้าแผนการ,เมะเจ้าเล่ห์,เมะเพอร์เฟ็ค,เคะแว่น,เคะใสซื่อ,เคะไม่โดดเด่น,เคะขี้กลัว,มนุษย์เงินเดือน,รักในที่ทำงาน,เหนือธรรมชาติ,เจ้านาย,OnlyBOOMTOON",
      "updatedAt": 1704560400000,
      "creators": "MEL"
    },
    {
      "id": 317,
      "alias": "dreadful_night",
      "title": "Dreadful Night รัตติกาลสยองท่องเกมมรณะ",
      "isAdult": false,
      "isComplete": false,
      "orderNo": 9,
      "thumbnails": [
        {
          "imagePath": "https://image.balcony.studio/th/co_thumbnail/dreadful_night/1688374978052.webp",
          "type": "SQUARE"
        },
        {
          "imagePath": "https://image.balcony.studio/th/co_thumbnail/dreadful_night/1688374978196.webp",
          "type": "MAIN"
        }
      ],
      "badge": {
        "newest": false,
        "adult": false,
        "scheduled": true,
        "up": false,
        "completed": false,
        "recommended": false,
        "discount": 0,
        "free": 1,
        "freetime": false
      },
      "viewCount": 97102,
      "tag": "อัพทุกอาทิตย์,BL,ไม่เซ็นเซอร์,สายดาร์ค,สืบสวน/สยองขวัญ,เรื่องลี้ลับ,เมะแข็งแกร่ง,เมะเจ้าแผนการ,เมะคลั่งรัก,เมะเลือดเย็น,เมะแซ่บ,เคะคนซึน,เคะเจ้าเล่ห์,เคะหน้าหวาน,เคะสู้คน,เคะแข็งแกร่ง,เกม,ไทม์ลูป,OnlyBOOMTOON,อัพเดทพร้อมเกาหลี",
      "updatedAt": 1704027600000,
      "creators": "moan"
    },
    {
      "id": 372,
      "alias": "without_dragon",
      "title": "โลกที่ไร้มังกร",
      "isAdult": false,
      "isComplete": false,
      "orderNo": 10,
      "thumbnails": [
        {
          "imagePath": "https://image.balcony.studio/th/co_thumbnail/without_dragon/1694000707949.webp",
          "type": "SQUARE"
        },
        {
          "imagePath": "https://image.balcony.studio/th/co_thumbnail/without_dragon/1694000708081.webp",
          "type": "MAIN"
        }
      ],
      "badge": {
        "newest": true,
        "adult": false,
        "scheduled": true,
        "up": false,
        "completed": false,
        "recommended": false,
        "discount": 0,
        "free": 3,
        "freetime": false
      },
      "viewCount": 7506,
      "tag": "อัพทุกวันพฤหัส,อัพทุกอาทิตย์,โรมานซ์,แฟนตาซี,เหนือธรรมชาติ,พระเอกสุภาพ,พระเอกใจดี,นางเอกพิลึก,นางเอกมีปม,นางเอกใจดี",
      "updatedAt": 1703955600000,
      "creators": "Girdap, Byeol Ttang, Udyong, Ok Kuseul"
    },
    {
      "id": 241,
      "alias": "half_of_me",
      "title": "HALF OF ME",
      "isAdult": false,
      "isComplete": false,
      "orderNo": 12,
      "thumbnails": [
        {
          "imagePath": "https://image.balcony.studio/th/co_thumbnail/me_D/1689324469311.webp",
          "type": "SQUARE"
        },
        {
          "imagePath": "https://image.balcony.studio/th/co_thumbnail/me_D/1689324469510.webp",
          "type": "MAIN"
        }
      ],
      "badge": {
        "newest": false,
        "adult": false,
        "scheduled": true,
        "up": true,
        "completed": false,
        "recommended": false,
        "discount": 0,
        "free": 1,
        "freetime": false
      },
      "viewCount": 45920,
      "tag": "อัพทุกอาทิตย์,BL,แฟนตาซี,ตลก/คอมเมดี้,สิงร่าง/ข้ามมิติ,เมะแข็งแกร่ง,เมะเพอร์เฟ็ค,เคะแข็งแกร่ง,เคะหน้าหวาน,เคะคนตรง,เหนือธรรมชาติ,แอบรัก,ดราม่า,OnlyBOOMTOON",
      "updatedAt": 1704560400000,
      "creators": "samk, JUHAN"
    },
    {
      "id": 321,
      "alias": "fate_and_fortune",
      "title": "Between Fate and Fortune",
      "isAdult": false,
      "isComplete": false,
      "orderNo": 13,
      "thumbnails": [
        {
          "imagePath": "https://image.balcony.studio/th/co_thumbnail/fate/1699515547840.webp",
          "type": "SQUARE"
        },
        {
          "imagePath": "https://image.balcony.studio/th/co_thumbnail/fate/1699515548014.webp",
          "type": "MAIN"
        }
      ],
      "badge": {
        "newest": false,
        "adult": false,
        "scheduled": true,
        "up": true,
        "completed": false,
        "recommended": false,
        "discount": 0,
        "free": 1,
        "freetime": false
      },
      "viewCount": 112263,
      "tag": "อัพทุกอาทิตย์,BL,ดราม่า,กลับมาพบกันอีกครั้ง,เมะเจ้าเล่ห์,เมะเจ้าแผนการ,เมะกล้ามปู,เมะเด็กกว่า,เคะกล้ามปู,เคะจน,เคะแก่กว่า,เราสองสามคน,OnlyBOOMTOON",
      "updatedAt": 1704560400000,
      "creators": "Mono"
    },
    {
      "id": 233,
      "alias": "no_moral",
      "title": "No Moral",
      "isAdult": false,
      "isComplete": false,
      "orderNo": 14,
      "thumbnails": [
        {
          "imagePath": "https://image.balcony.studio/th/co_thumbnail/bt_1110234/1687315479249.webp",
          "type": "SQUARE"
        },
        {
          "imagePath": "https://image.balcony.studio/th/co_thumbnail/bt_1110234/1687315479455.webp",
          "type": "MAIN"
        }
      ],
      "badge": {
        "newest": false,
        "adult": false,
        "scheduled": true,
        "up": false,
        "completed": false,
        "recommended": false,
        "discount": 0,
        "free": 1,
        "freetime": false
      },
      "viewCount": 75427,
      "tag": "อัพทุกอาทิตย์,BL,กลับมาพบกันอีกครั้ง,เมะเจ้าเล่ห์,เมะแข็งแกร่ง,เมะเพอร์เฟ็ค,เมะปากร้าย,เมะเย็นชา,เมะคนซึน,เมะคนตรง,เคะเสียสละ,เคะใจดี,เคะใสซื่อ,เคะเด็กกว่า,เคะอบอุ่น,ออฟฟิต,รักในที่ทำงาน,เจ้านาย,OnlyBOOMTOON",
      "updatedAt": 1704042000000,
      "creators": "TEHANU, SHAMPOO"
    },
    {
      "id": 167,
      "alias": "killer",
      "title": "เมื่อคิลเลอร์ตกหลุมรัก",
      "isAdult": false,
      "isComplete": false,
      "orderNo": 15,
      "thumbnails": [
        {
          "imagePath": "https://image.balcony.studio/th/co_thumbnail/killer/1667779843000.webp",
          "type": "SQUARE"
        },
        {
          "imagePath": "https://image.balcony.studio/th/co_thumbnail/killer/1667779843184.webp",
          "type": "MAIN"
        }
      ],
      "badge": {
        "newest": false,
        "adult": false,
        "scheduled": true,
        "up": false,
        "completed": false,
        "recommended": false,
        "discount": 0,
        "free": 1,
        "freetime": false
      },
      "viewCount": 219872,
      "tag": "อัพทุกอาทิตย์,BL,โรแมนติคคอมเมดี้,ตลก/คอมเมดี้,เข้าใจผิด,ปลอมตัว,Feelgood,แอบรัก,เคะซื่อบื้อ,เคะลุง,เคะเลือดเย็น,เคะรักจริง,เคะแอบรัก,เคะแข็งแกร่ง,เมะเพอร์เฟ็ค,เมะใจดี,เมะอบอุ่น,เมะเจ้าเล่ห์,ดารา,OnlyBOOMTOON",
      "updatedAt": 1698825600000,
      "creators": "eresemo"
    },
    {
      "id": 242,
      "alias": "let_me_do_it",
      "title": "เรื่องใช้แรงขอให้บอกผม!",
      "isAdult": false,
      "isComplete": false,
      "orderNo": 16,
      "thumbnails": [
        {
          "imagePath": "https://image.balcony.studio/th/co_thumbnail/himth/1673437796936.webp",
          "type": "SQUARE"
        },
        {
          "imagePath": "https://image.balcony.studio/th/co_thumbnail/himth/1673437797153.webp",
          "type": "MAIN"
        }
      ],
      "badge": {
        "newest": true,
        "adult": false,
        "scheduled": true,
        "up": false,
        "completed": false,
        "recommended": false,
        "discount": 0,
        "free": 1,
        "freetime": false
      },
      "viewCount": 44176,
      "tag": "อัพทุกอาทิตย์,โรมานซ์,โรแมนติคคอมเมดี้,ตลก/คอมเมดี้,เข้าใจผิด,พระเอกใจดี,พระเอกสุภาพ,พระเอกเด็กกว่า,พระเอกใสซื่อ,พระเอกเซ็กซี่,นางเอกเจ้าเสน่ห์,นางเอกแก่กว่า,นางเอกขี้ยั่ว,นางเอกแซ่บ,โสดตั้งแต่เกิด,OnlyBOOMTOON",
      "updatedAt": 1694883600000,
      "creators": "Neon.B, PITO"
    },
    {
      "id": 309,
      "alias": "summer_love",
      "title": "รักในฤดูร้อน",
      "isAdult": false,
      "isComplete": false,
      "orderNo": 17,
      "thumbnails": [
        {
          "imagePath": "https://image.balcony.studio/th/co_thumbnail/dbd_00199/1686550133792.webp",
          "type": "SQUARE"
        },
        {
          "imagePath": "https://image.balcony.studio/th/co_thumbnail/dbd_00199/1686550133998.webp",
          "type": "MAIN"
        }
      ],
      "badge": {
        "newest": false,
        "adult": false,
        "scheduled": false,
        "up": false,
        "completed": true,
        "recommended": false,
        "discount": 0,
        "free": 1,
        "freetime": false
      },
      "viewCount": 202659,
      "tag": "BL,รักวัยรุ่น,โรแมนติคคอมเมดี้,แอบรัก,เมะเพอร์เฟ็ค,เมะฮอต,เมะอบอุ่น,เมะขี้หวง,เมะเจ้าแผนการ,เมะคลั่งรัก,เคะน่ารัก,เคะซื่อบื้อ,เคะสดใส,เคะร่าเริง ,เพื่อนสมัยเด็ก,โรงเรียน,เพื่อนรักรักเพื่อน,OnlyBOOMTOON",
      "updatedAt": 1702141200000,
      "creators": "iiromill, minggur, zeolgu"
    },
    {
      "id": 284,
      "alias": "mary_jane",
      "title": "แมรี่ เจน MARY JANE",
      "isAdult": false,
      "isComplete": false,
      "orderNo": 18,
      "thumbnails": [
        {
          "imagePath": "https://image.balcony.studio/th/co_thumbnail/MARY_JANE/1679563061910.webp",
          "type": "SQUARE"
        },
        {
          "imagePath": "https://image.balcony.studio/th/co_thumbnail/MARY_JANE/1679563062082.webp",
          "type": "MAIN"
        }
      ],
      "badge": {
        "newest": true,
        "adult": false,
        "scheduled": true,
        "up": false,
        "completed": false,
        "recommended": false,
        "discount": 0,
        "free": 1,
        "freetime": false
      },
      "viewCount": 117729,
      "tag": "อัพทุกอาทิตย์,BL,สืบสวน/สยองขวัญ,สายดาร์ค,ฮาร์ดคอร์,ดราม่า,Serious,เรื่องลึกลับ,เมะแข็งแกร่ง,เมะมีปม,เมะคลั่งรัก,เมะเลือดเย็น,เมะเด็กกว่า,เมะแซ่บ,เคะแก่กว่า,เคะหน้าหวาน,เคะใจดี,เคะเพอร์เฟ็ค,OnlyBOOMTOON",
      "updatedAt": 1699722000000,
      "creators": "G. Wagen, Doya"
    },
    {
      "id": 297,
      "alias": "khankhan",
      "title": "ทาสรักของคุน ค่านค่าน",
      "isAdult": false,
      "isComplete": false,
      "orderNo": 19,
      "thumbnails": [
        {
          "imagePath": "https://image.balcony.studio/th/co_thumbnail/khankhan/1683178103793.webp",
          "type": "SQUARE"
        },
        {
          "imagePath": "https://image.balcony.studio/th/co_thumbnail/khankhan/1683178103978.webp",
          "type": "MAIN"
        }
      ],
      "badge": {
        "newest": false,
        "adult": false,
        "scheduled": false,
        "up": false,
        "completed": true,
        "recommended": false,
        "discount": 0,
        "free": 1,
        "freetime": false
      },
      "viewCount": 126265,
      "tag": "BL,ย้อนยุคสมัยโบราณ,สิงร่าง/ข้ามมิติ,ตลก/คอมเมดี้,โรแมนติคคอมเมดี้,เมะฮอต,เมะใสซื่อ,เมะลูกหมา,เคะแข็งแกร่ง,เคะไทป์แมว,เคะราชินี,เคะสวย,รักในวัง,ทาส,OnlyBOOMTOON",
      "updatedAt": 1700326800000,
      "creators": "Cactus Thorn, K.ssal, syunnyun"
    },
    {
      "id": 293,
      "alias": "retaking",
      "title": "Retaking Romance",
      "isAdult": false,
      "isComplete": false,
      "orderNo": 20,
      "thumbnails": [
        {
          "imagePath": "https://image.balcony.studio/th/co_thumbnail/dozyou/1681445484167.webp",
          "type": "SQUARE"
        },
        {
          "imagePath": "https://image.balcony.studio/th/co_thumbnail/dozyou/1681445484353.webp",
          "type": "MAIN"
        }
      ],
      "badge": {
        "newest": false,
        "adult": false,
        "scheduled": false,
        "up": false,
        "completed": true,
        "recommended": false,
        "discount": 0,
        "free": 1,
        "freetime": false
      },
      "viewCount": 32093,
      "tag": "BL,โรแมนติคคอมเมดี้,กลับมาพบกันอีกครั้ง,เพื่อนรักรักเพื่อน,เข้าใจผิด,เมะคนซึน,เมะขี้แย,เมะเย็นชา,เมะแอบรัก,เคะร่าเริง ,เคะขี้ยั่ว,เคะแซ่บ,รักในที่ทำงาน,ออฟฟิต,เพื่อนเก่า,เราสองสามคน,OnlyBOOMTOON",
      "updatedAt": 1696698000000,
      "creators": "Bareum"
    },
    {
      "id": 263,
      "alias": "classic_theater",
      "title": "Classic BL Theater",
      "isAdult": false,
      "isComplete": false,
      "orderNo": 21,
      "thumbnails": [
        {
          "imagePath": "https://image.balcony.studio/th/co_thumbnail/classic_theater/1675939232047.webp",
          "type": "SQUARE"
        },
        {
          "imagePath": "https://image.balcony.studio/th/co_thumbnail/classic_theater/1675939232266.webp",
          "type": "MAIN"
        }
      ],
      "badge": {
        "newest": false,
        "adult": false,
        "scheduled": false,
        "up": false,
        "completed": true,
        "recommended": false,
        "discount": 0,
        "free": 1,
        "freetime": false
      },
      "viewCount": 35649,
      "tag": "BL,ย้อนยุคสมัยโบราณ,เมะแข็งแกร่ง,เมะอบอุ่น,เมะคนซึน,เมะเด็กกว่า,เมะคลั่งรัก,เมะแซ่บ,เมะเจ้าเล่ห์,เมะเจ้าแผนการ,เมะอาวุธลับไซส์บิ๊ก,เคะขี้ยั่ว,เคะกล้ามปู,เคะหน้าหวาน,เคะแซ่บ,เคะใสซื่อ,OnlyBOOMTOON,เรื่องสั้น",
      "updatedAt": 1696698000000,
      "creators": "Byeol, BO"
    },
    {
      "id": 202,
      "alias": "destined",
      "title": "บุพเพรักสลักใจ",
      "isAdult": false,
      "isComplete": false,
      "orderNo": 22,
      "thumbnails": [
        {
          "imagePath": "https://image.balcony.studio/th/co_thumbnail/E_year/1687328757929.webp",
          "type": "SQUARE"
        },
        {
          "imagePath": "https://image.balcony.studio/th/co_thumbnail/E_year/1687328758102.webp",
          "type": "MAIN"
        }
      ],
      "badge": {
        "newest": false,
        "adult": false,
        "scheduled": false,
        "up": false,
        "completed": true,
        "recommended": false,
        "discount": 0,
        "free": 1,
        "freetime": false
      },
      "viewCount": 51749,
      "tag": "BL,ย้อนยุคสมัยโบราณ,รักในวัง,รักต่างชนชั้น,โสดตั้งแต่เกิด,เมะแข็งแกร่ง,เมะเจ้าเล่ห์,เมะเจ้าแผนการ,เมะคนซึน,เคะใจดี,เคะมีปม,เคะใสซื่อ,เคะแอบรัก,เคะขี้อาย,OnlyBOOMTOON",
      "updatedAt": 1700931600000,
      "creators": "Gwendolyn, Mandu Fairy"
    }
  ],
  "pageable": {
    "sort": {
      "unsorted": true,
      "sorted": false,
      "empty": true
    },
    "offset": 0,
    "pageNumber": 0,
    "pageSize": 20,
    "paged": true,
    "unpaged": false
  },
  "totalPages": 4,
  "last": false,
  "totalElements": 69,
  "size": 20,
  "number": 0,
  "sort": {
    "unsorted": true,
    "sorted": false,
    "empty": true
  },
  "numberOfElements": 20,
  "first": true,
  "empty": false
}
