{
  "content": [
    {
      "id": 400,
      "alias": "guiding_hazard",
      "title": "ไกด์ดิ้งแสนอันตราย",
      "isAdult": false,
      "isComplete": false,
      "orderNo": 2,
      "thumbnails": [
        {
          "imagePath": "https://image.balcony.studio/th/co_thumbnail/guiding_hazard/1697456404993.webp",
          "type": "SQUARE"
        },
        {
          "imagePath": "https://image.balcony.studio/th/co_thumbnail/guiding_hazard/1697456405255.webp",
          "type": "MAIN"
        }
      ],
      "badge": {
        "newest": true,
        "adult": false,
        "scheduled": true,
        "up": false,
        "completed": false,
        "recommended": false,
        "discount": 0,
        "free": 1,
        "freetime": false
      },
      "viewCount": 150377,
      "tag": "อัพทุกวันพุธ,BL,แฟนตาซียุคปัจจุบัน,แฟนตาซี,ตลก/คอมเมดี้,กลับมาพบกันอีกครั้ง,เมะสุภาพ,เมะอบอุ่น,เมะฮอต,เมะใสซื่อ,เคะแข็งแกร่ง,เคะหน้าหวาน,เคะหัวแข็ง,เคะคนซึน,เคะมีปม,เคะหล่อ,พลังวิเศษ,เหนือธรรมชาติ,OnlyBOOMTOON",
      "updatedAt": 1704214800000,
      "creators": "Sunsun, Chungnyun"
    },
    {
      "id": 359,
      "alias": "idealtype_but",
      "title": "สเป็กนะ แต่ทำไมขี้บ่นจัง",
      "isAdult": false,
      "isComplete": false,
      "orderNo": 3,
      "thumbnails": [
        {
          "imagePath": "https://image.balcony.studio/th/co_thumbnail/idealtype_but/1688442871374.webp",
          "type": "SQUARE"
        },
        {
          "imagePath": "https://image.balcony.studio/th/co_thumbnail/idealtype_but/1688442871517.webp",
          "type": "MAIN"
        }
      ],
      "badge": {
        "newest": true,
        "adult": false,
        "scheduled": true,
        "up": false,
        "completed": false,
        "recommended": false,
        "discount": 0,
        "free": 1,
        "freetime": false
      },
      "viewCount": 116312,
      "tag": "อัพทุกวันพุธ,BL,รักต่างวัย,รักในมหาลัย,แอบรัก,เมะแก่กว่า,เมะคนซึน,เมะอาวุธลับไซส์บิ๊ก,เมะแว่น,เมะปากร้าย,เคะน่ารัก,เคะสดใส,เคะแอบรัก,เคะเด็กกว่า,เคะไซส์มินิ,เคะรักจริง,OnlyBOOMTOON",
      "updatedAt": 1704214800000,
      "creators": "BaeRipoteo, JoSamanru"
    },
    {
      "id": 395,
      "alias": "love_practice",
      "title": "ซ้อมรักพิชิตใจนาย",
      "isAdult": false,
      "isComplete": false,
      "orderNo": 4,
      "thumbnails": [
        {
          "imagePath": "https://image.balcony.studio/th/co_thumbnail/dryoff_M/1694665314923.webp",
          "type": "SQUARE"
        },
        {
          "imagePath": "https://image.balcony.studio/th/co_thumbnail/dryoff_M/1694665315137.webp",
          "type": "MAIN"
        }
      ],
      "badge": {
        "newest": true,
        "adult": false,
        "scheduled": true,
        "up": false,
        "completed": false,
        "recommended": false,
        "discount": 0,
        "free": 1,
        "freetime": false
      },
      "viewCount": 44184,
      "tag": "อัพทุกวันพุธ,BL,ตลก/คอมเมดี้,แอบรัก,เพื่อนรักรักเพื่อน,เข้าใจผิด,3P,เราสองสามคน,เมะเด็กกว่า,เมะอาวุธลับไซส์บิ๊ก,เมะขี้แย,เมะลูกหมา,เมะฮอต,เมะแซ่บ,เมะสำนึกผิด,เคะคนซึน,เคะแอบรัก,เคะแก่กว่า,เคะขี้ยั่ว,OnlyBOOMTOON",
      "updatedAt": 1704214800000,
      "creators": "sita"
    },
    {
      "id": 387,
      "alias": "good_wife",
      "title": "ภรรยาสุดเซ็กซี่",
      "isAdult": false,
      "isComplete": false,
      "orderNo": 5,
      "thumbnails": [
        {
          "imagePath": "https://image.balcony.studio/th/co_thumbnail/sexy_wife_/1690969426378.webp",
          "type": "SQUARE"
        },
        {
          "imagePath": "https://image.balcony.studio/th/co_thumbnail/sexy_wife_/1690969426663.webp",
          "type": "MAIN"
        }
      ],
      "badge": {
        "newest": true,
        "adult": false,
        "scheduled": true,
        "up": false,
        "completed": false,
        "recommended": false,
        "discount": 0,
        "free": 1,
        "freetime": false
      },
      "viewCount": 54284,
      "tag": "อัพทุกวันพุธ,โรมานซ์,โรแมนติคคอมเมดี้,พระเอกเจ้าเสน่ห์,พระเอกขี้ยั่ว,พระเอกไฮโซ,พระเอกคาริสม่าพุ่ง,พระเอกเซ็กซี่,นางเอกมีปม,นางเอกขี้ยั่ว,นางเอกแซ่บ,นางเอกเก่ง,อยู่ด้วยกัน,OnlyBOOMTOON",
      "updatedAt": 1704214800000,
      "creators": "Daonhyang, Mangmyo, Westsun"
    },
    {
      "id": 362,
      "alias": "kisses",
      "title": "KISSES X KISS X KISSES ขอจูบได้ไหมครับ",
      "isAdult": false,
      "isComplete": false,
      "orderNo": 6,
      "thumbnails": [
        {
          "imagePath": "https://image.balcony.studio/th/co_thumbnail/ki3_wb/1688988559309.webp",
          "type": "SQUARE"
        },
        {
          "imagePath": "https://image.balcony.studio/th/co_thumbnail/ki3_wb/1688988559551.webp",
          "type": "MAIN"
        }
      ],
      "badge": {
        "newest": true,
        "adult": false,
        "scheduled": true,
        "up": false,
        "completed": false,
        "recommended": false,
        "discount": 0,
        "free": 3,
        "freetime": false
      },
      "viewCount": 32990,
      "tag": "อัพทุกวันพุธ,BL,รักวัยรุ่น,โรแมนติคคอมเมดี้,รักในโรงเรียน,ตลก/คอมเมดี้,เพื่อนรักรักเพื่อน,รักครั้งแรก,เมะอบอุ่น,เมะเพอร์เฟ็ค,เมะลูกหมา,เมะมีปม,เคะไม่โดดเด่น,เคะซื่อบื้อ,เคะคนซึน,เคะไซส์มินิ,เคะมีปม,เคะน่ารัก,โรงเรียน,OnlyBOOMTOON",
      "updatedAt": 1704214800000,
      "creators": "ANSI"
    },
    {
      "id": 364,
      "alias": "come_and_take",
      "title": "Come and Take!",
      "isAdult": false,
      "isComplete": false,
      "orderNo": 7,
      "thumbnails": [
        {
          "imagePath": "https://image.balcony.studio/th/co_thumbnail/come_take/1702891255070.webp",
          "type": "SQUARE"
        },
        {
          "imagePath": "https://image.balcony.studio/th/co_thumbnail/come_take/1702891255279.webp",
          "type": "MAIN"
        }
      ],
      "badge": {
        "newest": false,
        "adult": false,
        "scheduled": true,
        "up": false,
        "completed": false,
        "recommended": false,
        "discount": 0,
        "free": 1,
        "freetime": false
      },
      "viewCount": 41237,
      "tag": "อัพทุกวันพุธ,BL,รักต่างวัย,กลับมาพบกันอีกครั้ง,แอบรัก,รักครั้งแรก,เมะลูกหมา,เมะกล้ามปู,เมะมีปม,เมะเด็กกว่า,เมะแอบรัก,เมะคลั่งรัก,เคะหล่อ,เคะแว่น,เคะแก่กว่า,เคะไฮโซ,เคะอบอุ่น,OnlyBOOMTOON",
      "updatedAt": 1704214800000,
      "creators": "Tale, Dolphin"
    },
    {
      "id": 216,
      "alias": "bad_stupid",
      "title": "ตัวร้ายไม่ได้เรื่องทุกราย",
      "isAdult": false,
      "isComplete": false,
      "orderNo": 8,
      "thumbnails": [
        {
          "imagePath": "https://image.balcony.studio/th/co_thumbnail/bad_stupid/1669023304342.webp",
          "type": "SQUARE"
        },
        {
          "imagePath": "https://image.balcony.studio/th/co_thumbnail/bad_stupid/1669023304517.webp",
          "type": "MAIN"
        }
      ],
      "badge": {
        "newest": false,
        "adult": false,
        "scheduled": false,
        "up": false,
        "completed": true,
        "recommended": false,
        "discount": 0,
        "free": 1,
        "freetime": false
      },
      "viewCount": 91877,
      "tag": "BL,โรแมนติคคอมเมดี้,กลับมาพบกันอีกครั้ง,เมะแข็งแกร่ง,เมะเจ้าเล่ห์,เมะคลั่งรัก,เมะอบอุ่น,เมะสำนึกผิด,เมะเพอร์เฟ็ค,เคะแว่น,เคะซื่อบื้อ,เคะมีปม,เคะใจดี,เคะเรียบร้อย,เคะไม่โดดเด่น,แฟนเก่า,มาเฟีย,OnlyBOOMTOON",
      "updatedAt": 1703005200000,
      "creators": "จังนยัง, udo"
    },
    {
      "id": 234,
      "alias": "junior_love",
      "title": "ผู้ช่วยครับ รับรักผมหน่อย",
      "isAdult": false,
      "isComplete": false,
      "orderNo": 9,
      "thumbnails": [
        {
          "imagePath": "https://image.balcony.studio/th/co_thumbnail/bt_1110164/1673256681891.webp",
          "type": "SQUARE"
        },
        {
          "imagePath": "https://image.balcony.studio/th/co_thumbnail/bt_1110164/1673256682120.webp",
          "type": "MAIN"
        }
      ],
      "badge": {
        "newest": true,
        "adult": false,
        "scheduled": true,
        "up": false,
        "completed": false,
        "recommended": false,
        "discount": 0,
        "free": 1,
        "freetime": false
      },
      "viewCount": 67441,
      "tag": "อัพทุกวันพุธ,BL,โรแมนติคคอมเมดี้,ตลก/คอมเมดี้,คู่รักในบริษัท,ออฟฟิต,มนุษย์เงินเดือน,เมะอาวุธลับไซส์บิ๊ก,เมะลูกหมา,เมะกล้ามปู,เมะแอบรัก,เมะใสซื่อ,เคะเจ้าเล่ห์,เคะเพอร์เฟ็ค,เคะไทป์แมว,เคะแซ่บ,เคะขี้ยั่ว,เจ้านาย,รักในที่ทำงาน,OnlyBOOMTOON",
      "updatedAt": 1704214800000,
      "creators": "Yoonhee Lee"
    },
    {
      "id": 272,
      "alias": "step-lover",
      "title": "Step-Lover",
      "isAdult": false,
      "isComplete": false,
      "orderNo": 10,
      "thumbnails": [
        {
          "imagePath": "https://image.balcony.studio/th/co_thumbnail/bt_1110132/1676883337258.webp",
          "type": "SQUARE"
        },
        {
          "imagePath": "https://image.balcony.studio/th/co_thumbnail/bt_1110132/1676883337463.webp",
          "type": "MAIN"
        }
      ],
      "badge": {
        "newest": false,
        "adult": false,
        "scheduled": false,
        "up": false,
        "completed": true,
        "recommended": false,
        "discount": 0,
        "free": 1,
        "freetime": false
      },
      "viewCount": 68592,
      "tag": "BL,คู่รักในบริษัท,รักในที่ทำงาน,เมะแข็งแกร่ง,เมะเจ้าเล่ห์,เมะเจ้าแผนการ,เมะแซ่บ,เมะสุภาพ,เคะขี้แกล้ง,เคะมีปม,เคะหัวแข็ง,เคะแซ่บ,เจ้านาย,ออฟฟิต,มนุษย์เงินเดือน,OnlyBOOMTOON",
      "updatedAt": 1704214800000,
      "creators": "jungwoo"
    },
    {
      "id": 28,
      "alias": "modest_",
      "title": "นายสุภาพบุรุษ",
      "isAdult": false,
      "isComplete": false,
      "orderNo": 11,
      "thumbnails": [
        {
          "imagePath": "https://image.balcony.studio/th/co_thumbnail/modest_/1644390768534.webp",
          "type": "SQUARE"
        },
        {
          "imagePath": "https://image.balcony.studio/th/co_thumbnail/modest_/1644390768764.webp",
          "type": "MAIN"
        }
      ],
      "badge": {
        "newest": false,
        "adult": false,
        "scheduled": true,
        "up": false,
        "completed": false,
        "recommended": false,
        "discount": 0,
        "free": 1,
        "freetime": false
      },
      "viewCount": 319074,
      "tag": "อัพทุกวันพุธ,BL,มนุษย์เงินเดือน,เมะคลั่งรัก,เมะเพอร์เฟ็ค,เมะคนซึน,เมะแซ่บ,เคะแซ่บ,เมะแว่น,เคะหน้าหวาน,ทั้งรักทั้งเกลียด,OnlyBOOMTOON",
      "updatedAt": 1704214800000,
      "creators": "GGang-e, อุค"
    },
    {
      "id": 10,
      "alias": "Witch_30YO",
      "title": "แม่มดสาว 30ยังแจ๋ว",
      "isAdult": false,
      "isComplete": false,
      "orderNo": 12,
      "thumbnails": [
        {
          "imagePath": "https://image.balcony.studio/th/co_thumbnail/Witch_30YO/1689845027020.webp",
          "type": "SQUARE"
        },
        {
          "imagePath": "https://image.balcony.studio/th/co_thumbnail/Witch_30YO/1689845027266.webp",
          "type": "MAIN"
        }
      ],
      "badge": {
        "newest": false,
        "adult": false,
        "scheduled": true,
        "up": false,
        "completed": false,
        "recommended": false,
        "discount": 0,
        "free": 1,
        "freetime": false
      },
      "viewCount": 286333,
      "tag": "อัพทุกวันพุธ,โรมานซ์,แฟนตาซี,โสดตั้งแต่เกิด,ตลก/คอมเมดี้,พระเอกพูดเพราะ,พระเอกเพอร์เฟ็ค,นางเอกเจ้าชู้,นางเอกพิลึก,OnlyBOOMTOON",
      "updatedAt": 1704214800000,
      "creators": "face park"
    },
    {
      "id": 277,
      "alias": "last_will",
      "title": "เลื่อนวันตายเพื่อคำขอสุดท้าย",
      "isAdult": false,
      "isComplete": false,
      "orderNo": 13,
      "thumbnails": [
        {
          "imagePath": "https://image.balcony.studio/th/co_thumbnail/last_will/1680162818065.webp",
          "type": "SQUARE"
        },
        {
          "imagePath": "https://image.balcony.studio/th/co_thumbnail/last_will/1680162818231.webp",
          "type": "MAIN"
        }
      ],
      "badge": {
        "newest": true,
        "adult": false,
        "scheduled": true,
        "up": false,
        "completed": false,
        "recommended": false,
        "discount": 0,
        "free": 1,
        "freetime": false
      },
      "viewCount": 45312,
      "tag": "อัพทุกวันพุธ,BL,แฟนตาซี,พลังวิเศษ,รักครั้งแรก,เมะเด็กกว่า,เมะอบอุ่น,เมะแข็งแกร่ง,เมะลูกหมา,เมะคลั่งรัก,เคะหน้าหวาน,เคะมีปม,เคะแก่กว่า,เคะแข็งแกร่ง,เคะเสียสละ,เหนือธรรมชาติ,ต่อสู้,OnlyBOOMTOON",
      "updatedAt": 1698771600000,
      "creators": "Sorim, HYEON"
    },
    {
      "id": 226,
      "alias": "not_friend",
      "title": "แค่เพื่อนไม่พอ",
      "isAdult": false,
      "isComplete": false,
      "orderNo": 14,
      "thumbnails": [
        {
          "imagePath": "https://image.balcony.studio/th/co_thumbnail/blurredlines/1672914322426.webp",
          "type": "SQUARE"
        },
        {
          "imagePath": "https://image.balcony.studio/th/co_thumbnail/blurredlines/1672914322593.webp",
          "type": "MAIN"
        }
      ],
      "badge": {
        "newest": false,
        "adult": false,
        "scheduled": false,
        "up": false,
        "completed": true,
        "recommended": false,
        "discount": 0,
        "free": 1,
        "freetime": false
      },
      "viewCount": 1281097,
      "tag": "โรมานซ์,รักในมหาลัย,เพื่อนรักรักเพื่อน,รักครั้งแรก,แอบรัก,พระเอกใสซื่อ,พระเอกเจี๋ยมเจี้ยม,นางเอกแซ่บ,นางเอกขี้ยั่ว,นางเอกเจ้าเสน่ห์,OnlyBOOMTOON",
      "updatedAt": 1701795600000,
      "creators": "baepero, saeltto"
    },
    {
      "id": 291,
      "alias": "horizon",
      "title": "สุดทางรักคู่ขนาน",
      "isAdult": false,
      "isComplete": false,
      "orderNo": 15,
      "thumbnails": [
        {
          "imagePath": "https://image.balcony.studio/th/co_thumbnail/_HORIZON/1682654681907.webp",
          "type": "SQUARE"
        },
        {
          "imagePath": "https://image.balcony.studio/th/co_thumbnail/_HORIZON/1682654682125.webp",
          "type": "MAIN"
        }
      ],
      "badge": {
        "newest": true,
        "adult": false,
        "scheduled": true,
        "up": false,
        "completed": false,
        "recommended": false,
        "discount": 0,
        "free": 1,
        "freetime": false
      },
      "viewCount": 111312,
      "tag": "อัพทุกวันพุธ,BL,เราสองสามคน,ดราม่า,อมนุษย์/ปีศาจ,เมะแซ่บ,เมะใจดี,เมะฮอต,เมะอบอุ่น,เมะสำนึกผิด,เคะน่ารัก,เคะหน้าหวาน,เคะแอบรัก,เคะมีปม,เหนือธรรมชาติ,มหาลัย,OnlyBOOMTOON",
      "updatedAt": 1696957200000,
      "creators": "Team S＆S"
    },
    {
      "id": 76,
      "alias": "pearl_boy",
      "title": "Pearl Boy",
      "isAdult": false,
      "isComplete": false,
      "orderNo": 16,
      "thumbnails": [
        {
          "imagePath": "https://image.balcony.studio/th/co_thumbnail/seashell_boy/1666844768561.webp",
          "type": "SQUARE"
        },
        {
          "imagePath": "https://image.balcony.studio/th/co_thumbnail/seashell_boy/1666844768776.webp",
          "type": "MAIN"
        }
      ],
      "badge": {
        "newest": false,
        "adult": false,
        "scheduled": true,
        "up": false,
        "completed": false,
        "recommended": false,
        "discount": 0,
        "free": 1,
        "freetime": false
      },
      "viewCount": 1064258,
      "tag": "อัพทุกวันพุธ,BL,ดราม่า,สายดาร์ค,แฟนตาซี,เมะเจ้าเล่ห์,เมะคลั่งรัก,เมะลูกหมา,เมะฮอต,เมะอบอุ่น,เคะสวย,เคะหน้าหวาน,เคะขี้กลัว,เคะมีปม,เคะใจดี,OnlyBOOMTOON",
      "updatedAt": 1693933200000,
      "creators": "Inking"
    },
    {
      "id": 60,
      "alias": "shuttle",
      "title": "Love Shuttle",
      "isAdult": false,
      "isComplete": false,
      "orderNo": 17,
      "thumbnails": [
        {
          "imagePath": "https://image.balcony.studio/th/co_thumbnail/shuttle/1642991087055.webp",
          "type": "SQUARE"
        },
        {
          "imagePath": "https://image.balcony.studio/th/co_thumbnail/shuttle/1642991087316.webp",
          "type": "MAIN"
        }
      ],
      "badge": {
        "newest": false,
        "adult": false,
        "scheduled": false,
        "up": false,
        "completed": true,
        "recommended": false,
        "discount": 0,
        "free": 1,
        "freetime": false
      },
      "viewCount": 391569,
      "tag": "BL,Omegaverse ,เมะแซ่บ,เคะแซ่บ,เมะเด็กกว่า,เมะปากร้าย,เคะแก่กว่า,เคะแข็งแกร่ง,รักในที่ทำงาน,OnlyBOOMTOON",
      "updatedAt": 1689699600000,
      "creators": "Aeju"
    },
    {
      "id": 161,
      "alias": "wildeyes",
      "title": "เนตรอาฆาต",
      "isAdult": false,
      "isComplete": false,
      "orderNo": 18,
      "thumbnails": [
        {
          "imagePath": "https://image.balcony.studio/th/co_thumbnail/wildeyes/1668661630084.webp",
          "type": "SQUARE"
        },
        {
          "imagePath": "https://image.balcony.studio/th/co_thumbnail/wildeyes/1668661630246.webp",
          "type": "MAIN"
        }
      ],
      "badge": {
        "newest": false,
        "adult": false,
        "scheduled": false,
        "up": false,
        "completed": true,
        "recommended": false,
        "discount": 0,
        "free": 1,
        "freetime": false
      },
      "viewCount": 3384748,
      "tag": "โรมานซ์,ดราม่า,ย้อนยุคสมัยโบราณ,รักต่างชนชั้น,กลับมาพบกันอีกครั้ง,พระเอกเย็นชา,พระเอกมีปม,พระเอกแซ่บ,นางเอกใสซื่อ,นางเอกใจดี,นางเอกรักจริง,รักในวัง,OnlyBOOMTOON",
      "updatedAt": 1692723600000,
      "creators": "Ra-Hye, Flowermeat, sora"
    },
    {
      "id": 180,
      "alias": "SINSUJEON",
      "title": "ตำนานรักกิเลนสวรรค์",
      "isAdult": false,
      "isComplete": false,
      "orderNo": 19,
      "thumbnails": [
        {
          "imagePath": "https://image.balcony.studio/th/co_thumbnail/SINSUJEON/1663570942611.webp",
          "type": "SQUARE"
        },
        {
          "imagePath": "https://image.balcony.studio/th/co_thumbnail/SINSUJEON/1663570942785.webp",
          "type": "MAIN"
        }
      ],
      "badge": {
        "newest": false,
        "adult": false,
        "scheduled": false,
        "up": false,
        "completed": true,
        "recommended": false,
        "discount": 0,
        "free": 1,
        "freetime": false
      },
      "viewCount": 59996,
      "tag": "BL,แฟนตาซี,โรแมนติคแฟนตาซี,ย้อนยุคสมัยโบราณ,รักต่างเผ่าพันธุ์,เมะแข็งแกร่ง,เมะเจ้าเล่ห์,เมะเจ้าแผนการ,เมะอาวุธลับไซส์บิ๊ก,เคะน่ารัก,เคะใสซื่อ,เคะอบอุ่น,เคะหน้าหวาน,เคะใจดี,อมนุษย์/ปีศาจ,เหนือธรรมชาติ,สัตว์,OnlyBOOMTOON",
      "updatedAt": 1690909200000,
      "creators": "satan"
    },
    {
      "id": 123,
      "alias": "star_track",
      "title": "เส้นทางดวงดาว The Path of Star",
      "isAdult": false,
      "isComplete": false,
      "orderNo": 20,
      "thumbnails": [
        {
          "imagePath": "https://image.balcony.studio/th/co_thumbnail/star_track/1649398113903.webp",
          "type": "SQUARE"
        },
        {
          "imagePath": "https://image.balcony.studio/th/co_thumbnail/star_track/1649398114060.webp",
          "type": "MAIN"
        }
      ],
      "badge": {
        "newest": false,
        "adult": false,
        "scheduled": true,
        "up": false,
        "completed": false,
        "recommended": false,
        "discount": 0,
        "free": 1,
        "freetime": false
      },
      "viewCount": 233725,
      "tag": "อัพทุกวันพุธ,BL,โรแมนติคคอมเมดี้,น่ารัก,Feelgood,วงการบันเทิง,การเติบโต,เมะอบอุ่น,เมะไฮโซ,เมะแข็งแกร่ง,เคะมีปม,เคะน่ารัก,แอบรัก,รุ่นพี่รุ่นน้อง,ไอดอล,OnlyBOOMTOON",
      "updatedAt": 1683046800000,
      "creators": "Kim Aso, Yeonog"
    },
    {
      "id": 105,
      "alias": "B_D_L",
      "title": "เสน่ห์รักมังกรดำ",
      "isAdult": false,
      "isComplete": false,
      "orderNo": 21,
      "thumbnails": [
        {
          "imagePath": "https://image.balcony.studio/th/co_thumbnail/B_D_L/1648795999884.webp",
          "type": "SQUARE"
        },
        {
          "imagePath": "https://image.balcony.studio/th/co_thumbnail/B_D_L/1648796000066.webp",
          "type": "MAIN"
        }
      ],
      "badge": {
        "newest": true,
        "adult": false,
        "scheduled": false,
        "up": false,
        "completed": true,
        "recommended": false,
        "discount": 0,
        "free": 8,
        "freetime": false
      },
      "viewCount": 71115,
      "tag": "โรมานซ์,โรแมนติคคอมเมดี้,น่ารัก,Feelgood,พระเอกเพอร์เฟ็ค,นางเอกเฟรนด์ลี่,จบแล้ว",
      "updatedAt": 1652806800000,
      "creators": "July Archive, KIDARI STUDIO"
    }
  ],
  "pageable": {
    "sort": {
      "sorted": false,
      "unsorted": true,
      "empty": true
    },
    "offset": 0,
    "pageNumber": 0,
    "pageSize": 20,
    "paged": true,
    "unpaged": false
  },
  "last": false,
  "totalPages": 3,
  "totalElements": 54,
  "size": 20,
  "number": 0,
  "sort": {
    "sorted": false,
    "unsorted": true,
    "empty": true
  },
  "numberOfElements": 20,
  "first": true,
  "empty": false
}
