{
  "content": [
    {
      "id": 168,
      "alias": "ghost_door",
      "title": "สัมผัสหลอนซ่อนวิญญาณ",
      "isAdult": false,
      "isComplete": false,
      "orderNo": 0,
      "thumbnails": [
        {
          "imagePath": "https://image.balcony.studio/th/co_thumbnail/ghost_door/1659507708144.webp",
          "type": "SQUARE"
        },
        {
          "imagePath": "https://image.balcony.studio/th/co_thumbnail/ghost_door/1659507708312.webp",
          "type": "MAIN"
        }
      ],
      "badge": {
        "newest": true,
        "adult": false,
        "scheduled": true,
        "up": true,
        "completed": false,
        "recommended": false,
        "discount": 0,
        "free": 0,
        "freetime": false
      },
      "viewCount": 382700,
      "tag": "อัพทุกอาทิตย์,BL,ผี/วิญญาณ,เรื่องลี้ลับ,เมะแข็งแกร่ง,เมะอาวุธลับไซส์บิ๊ก,เมะเจ้าแผนการ,เมะเจ้าเล่ห์,เมะเพอร์เฟ็ค,เคะแว่น,เคะใสซื่อ,เคะไม่โดดเด่น,เคะขี้กลัว,มนุษย์เงินเดือน,รักในที่ทำงาน,เหนือธรรมชาติ,เจ้านาย,OnlyBOOMTOON",
      "updatedAt": 1704560400000,
      "creators": "MEL"
    },
    {
      "id": 241,
      "alias": "half_of_me",
      "title": "HALF OF ME",
      "isAdult": false,
      "isComplete": false,
      "orderNo": 0,
      "thumbnails": [
        {
          "imagePath": "https://image.balcony.studio/th/co_thumbnail/me_D/1689324469311.webp",
          "type": "SQUARE"
        },
        {
          "imagePath": "https://image.balcony.studio/th/co_thumbnail/me_D/1689324469510.webp",
          "type": "MAIN"
        }
      ],
      "badge": {
        "newest": false,
        "adult": false,
        "scheduled": true,
        "up": true,
        "completed": false,
        "recommended": false,
        "discount": 0,
        "free": 0,
        "freetime": false
      },
      "viewCount": 45920,
      "tag": "อัพทุกอาทิตย์,BL,แฟนตาซี,ตลก/คอมเมดี้,สิงร่าง/ข้ามมิติ,เมะแข็งแกร่ง,เมะเพอร์เฟ็ค,เคะแข็งแกร่ง,เคะหน้าหวาน,เคะคนตรง,เหนือธรรมชาติ,แอบรัก,ดราม่า,OnlyBOOMTOON",
      "updatedAt": 1704560400000,
      "creators": "samk, JUHAN"
    },
    {
      "id": 321,
      "alias": "fate_and_fortune",
      "title": "Between Fate and Fortune",
      "isAdult": false,
      "isComplete": false,
      "orderNo": 0,
      "thumbnails": [
        {
          "imagePath": "https://image.balcony.studio/th/co_thumbnail/fate/1699515547840.webp",
          "type": "SQUARE"
        },
        {
          "imagePath": "https://image.balcony.studio/th/co_thumbnail/fate/1699515548014.webp",
          "type": "MAIN"
        }
      ],
      "badge": {
        "newest": false,
        "adult": false,
        "scheduled": true,
        "up": true,
        "completed": false,
        "recommended": false,
        "discount": 0,
        "free": 0,
        "freetime": false
      },
      "viewCount": 112263,
      "tag": "อัพทุกอาทิตย์,BL,ดราม่า,กลับมาพบกันอีกครั้ง,เมะเจ้าเล่ห์,เมะเจ้าแผนการ,เมะกล้ามปู,เมะเด็กกว่า,เคะกล้ามปู,เคะจน,เคะแก่กว่า,เราสองสามคน,OnlyBOOMTOON",
      "updatedAt": 1704560400000,
      "creators": "Mono"
    },
    {
      "id": 399,
      "alias": "lovely_senior",
      "title": "รุ่นพี่ที่รัก",
      "isAdult": false,
      "isComplete": false,
      "orderNo": 0,
      "thumbnails": [
        {
          "imagePath": "https://image.balcony.studio/th/co_thumbnail/minna/1698835938767.webp",
          "type": "SQUARE"
        },
        {
          "imagePath": "https://image.balcony.studio/th/co_thumbnail/minna/1698835938989.webp",
          "type": "MAIN"
        }
      ],
      "badge": {
        "newest": true,
        "adult": false,
        "scheduled": true,
        "up": true,
        "completed": false,
        "recommended": false,
        "discount": 0,
        "free": 0,
        "freetime": false
      },
      "viewCount": 22766,
      "tag": "อัพทุกอาทิตย์,BL,รักวัยรุ่น,รักในมหาลัย,เมะเจ้าเล่ห์,เมะแข็งแกร่ง,เมะอาวุธลับไซส์บิ๊ก,เมะแก่กว่า,เมะแซ่บ,เคะน่ารัก,เคะใสซื่อ,เคะแว่น,เคะไซส์มินิ,เคะเด็กกว่า,เคะไม่โดดเด่น,รุ่นพี่รุ่นน้อง,OnlyBOOMTOON",
      "updatedAt": 1704560400000,
      "creators": "อีดูกึน"
    },
    {
      "id": 427,
      "alias": "vanilla_flavor",
      "title": "ขอรสวานิลลานะ!",
      "isAdult": false,
      "isComplete": false,
      "orderNo": 0,
      "thumbnails": [
        {
          "imagePath": "https://image.balcony.studio/th/co_thumbnail/bt_1110520/1698148916297.webp",
          "type": "SQUARE"
        },
        {
          "imagePath": "https://image.balcony.studio/th/co_thumbnail/bt_1110520/1698148916500.webp",
          "type": "MAIN"
        }
      ],
      "badge": {
        "newest": true,
        "adult": false,
        "scheduled": true,
        "up": true,
        "completed": false,
        "recommended": false,
        "discount": 0,
        "free": 0,
        "freetime": false
      },
      "viewCount": 24907,
      "tag": "อัพทุกอาทิตย์,BL,โรแมนติคคอมเมดี้,เพื่อนรักรักเพื่อน,รักวัยรุ่น,เมะอบอุ่น,เมะแซ่บ,เมะรักจริง,เคะน่ารัก,เคะขี้ยั่ว,เคะแซ่บ,เคะสดใส,มหาลัย,OnlyBOOMTOON",
      "updatedAt": 1704560400000,
      "creators": "A"
    },
    {
      "id": 431,
      "alias": "golden_pair",
      "title": "Golden Pair",
      "isAdult": false,
      "isComplete": false,
      "orderNo": 0,
      "thumbnails": [
        {
          "imagePath": "https://image.balcony.studio/th/co_thumbnail/GoldenPair/1697709174958.webp",
          "type": "SQUARE"
        },
        {
          "imagePath": "https://image.balcony.studio/th/co_thumbnail/GoldenPair/1697709175167.webp",
          "type": "MAIN"
        }
      ],
      "badge": {
        "newest": true,
        "adult": false,
        "scheduled": true,
        "up": true,
        "completed": false,
        "recommended": false,
        "discount": 0,
        "free": 0,
        "freetime": false
      },
      "viewCount": 37906,
      "tag": "อัพทุกอาทิตย์,BL,Omegaverse ,ไม่เซ็นเซอร์,อมนุษย์/ปีศาจ,รักต่างวัย,เมะคลั่งรัก,เมะอาวุธลับไซส์บิ๊ก,เมะลูกหมา,เมะใสซื่อ,เมะรักจริง,เมะเด็กกว่า,เมะขี้แย,เคะหล่อ,เคะแข็งแกร่ง,เคะกล้ามปู,เคะแก่กว่า,เคะลุง,เคะขี้แกล้ง,สัตว์,เหนือธรรมชาติ,OnlyBOOMTOON",
      "updatedAt": 1704560400000,
      "creators": "Hyeol-Aek"
    },
    {
      "id": 433,
      "alias": "not_my_type",
      "title": "รักไม่ตรงสเป็ก",
      "isAdult": false,
      "isComplete": false,
      "orderNo": 0,
      "thumbnails": [
        {
          "imagePath": "https://image.balcony.studio/th/co_thumbnail/not_my_type/1699868576914.webp",
          "type": "SQUARE"
        },
        {
          "imagePath": "https://image.balcony.studio/th/co_thumbnail/not_my_type/1699868577145.webp",
          "type": "MAIN"
        }
      ],
      "badge": {
        "newest": true,
        "adult": false,
        "scheduled": true,
        "up": true,
        "completed": false,
        "recommended": false,
        "discount": 0,
        "free": 0,
        "freetime": false
      },
      "viewCount": 23734,
      "tag": "อัพทุกอาทิตย์,BL,โรแมนติคคอมเมดี้,Omegaverse ,ตลก/คอมเมดี้,เข้าใจผิด,เมะฮอต,เมะแอบรัก,เมะแซ่บ,เมะรักจริง,เคะหล่อ,เคะกล้ามปู,เคะซื่อบื้อ,เคะน่ารัก,เคะแอบรัก,OnlyBOOMTOON",
      "updatedAt": 1704560400000,
      "creators": "Hataejin, CHASAM, topy"
    },
    {
      "id": 435,
      "alias": "snake_bite",
      "title": "Snake Bite",
      "isAdult": false,
      "isComplete": false,
      "orderNo": 0,
      "thumbnails": [
        {
          "imagePath": "https://image.balcony.studio/th/co_thumbnail/snake_bite/1697455977613.webp",
          "type": "SQUARE"
        },
        {
          "imagePath": "https://image.balcony.studio/th/co_thumbnail/snake_bite/1697455977851.webp",
          "type": "MAIN"
        }
      ],
      "badge": {
        "newest": true,
        "adult": false,
        "scheduled": true,
        "up": true,
        "completed": false,
        "recommended": false,
        "discount": 0,
        "free": 0,
        "freetime": false
      },
      "viewCount": 18935,
      "tag": "อัพทุกอาทิตย์,โรมานซ์,BL,GL,เราสองสามคน,สายดาร์ค,ฮาร์ดคอร์,มหาลัย,รุ่นพี่รุ่นน้อง,OnlyBOOMTOON",
      "updatedAt": 1704560400000,
      "creators": "Gongzo"
    },
    {
      "id": 360,
      "alias": "love_and_lust",
      "title": "ใคร่ราคะ",
      "isAdult": false,
      "isComplete": false,
      "orderNo": 0,
      "thumbnails": [
        {
          "imagePath": "https://image.balcony.studio/th/co_thumbnail/love_and_lust/1691640330652.webp",
          "type": "SQUARE"
        },
        {
          "imagePath": "https://image.balcony.studio/th/co_thumbnail/love_and_lust/1691640330836.webp",
          "type": "MAIN"
        }
      ],
      "badge": {
        "newest": false,
        "adult": false,
        "scheduled": true,
        "up": true,
        "completed": false,
        "recommended": false,
        "discount": 0,
        "free": 0,
        "freetime": false
      },
      "viewCount": 445420,
      "tag": "อัพทุกเสาร์,BL,ไม่เซ็นเซอร์,ดราม่า,เมะเด็กกว่า,เมะไฮโซ,เมะมีปม,เมะฮอต,เมะแซ่บ,เคะสวย,เคะแก่กว่า,เคะจน,เจ้านาย,OnlyBOOMTOON,อัพเดทพร้อมเกาหลี",
      "updatedAt": 1704546000000,
      "creators": "Majjip"
    },
    {
      "id": 385,
      "alias": "end_of_memory",
      "title": "ปลายทางของความทรงจำ",
      "isAdult": false,
      "isComplete": false,
      "orderNo": 0,
      "thumbnails": [
        {
          "imagePath": "https://image.balcony.studio/th/co_thumbnail/end_of_memory/1694427857175.webp",
          "type": "SQUARE"
        },
        {
          "imagePath": "https://image.balcony.studio/th/co_thumbnail/end_of_memory/1694427857430.webp",
          "type": "MAIN"
        }
      ],
      "badge": {
        "newest": true,
        "adult": false,
        "scheduled": true,
        "up": true,
        "completed": false,
        "recommended": false,
        "discount": 0,
        "free": 0,
        "freetime": false
      },
      "viewCount": 25152,
      "tag": "อัพทุกเสาร์,BL,ดราม่า,Serious,Omegaverse ,เมะเพอร์เฟ็ค,เมะสำนึกผิด,เมะอบอุ่น,เมะคลั่งรัก,เมะสุภาพ,เมะแข็งแกร่ง,เคะหน้าหวาน,เคะอบอุ่น,เคะเรียบร้อย,เคะมีปม,เคะไฮโซ,เคะสุภาพ,OnlyBOOMTOON,อัพเดทพร้อมเกาหลี",
      "updatedAt": 1704546000000,
      "creators": "Oneulbom, studio malans"
    },
    {
      "id": 52,
      "alias": "BBanana_S",
      "title": "บานาน่า สแกนเดิล",
      "isAdult": false,
      "isComplete": false,
      "orderNo": 0,
      "thumbnails": [
        {
          "imagePath": "https://image.balcony.studio/th/co_thumbnail/BBanana_S/1666595380675.webp",
          "type": "SQUARE"
        },
        {
          "imagePath": "https://image.balcony.studio/th/co_thumbnail/BBanana_S/1666595380908.webp",
          "type": "MAIN"
        }
      ],
      "badge": {
        "newest": false,
        "adult": false,
        "scheduled": true,
        "up": false,
        "completed": false,
        "recommended": false,
        "discount": 0,
        "free": 0,
        "freetime": false
      },
      "viewCount": 149777,
      "tag": "อัพทุกเสาร์,BL,ดราม่า,เมะสำนึกผิด,เคะแอบรัก,รักในมหาลัย,เพื่อนร่วมบ้าน,รุ่นพี่รุ่นน้อง,เมะอบอุ่น,เมะขี้หวง,รักหวานแหวว,เคะแก่กว่า,เมะหน้าหวาน,มหาลัย,OnlyBOOMTOON",
      "updatedAt": 1704474000000,
      "creators": "DolSHA"
    },
    {
      "id": 134,
      "alias": "B_position",
      "title": "Bad Position",
      "isAdult": false,
      "isComplete": false,
      "orderNo": 0,
      "thumbnails": [
        {
          "imagePath": "https://image.balcony.studio/th/co_thumbnail/B_position/1650947394439.webp",
          "type": "SQUARE"
        },
        {
          "imagePath": "https://image.balcony.studio/th/co_thumbnail/B_position/1650947394604.webp",
          "type": "MAIN"
        }
      ],
      "badge": {
        "newest": true,
        "adult": false,
        "scheduled": true,
        "up": false,
        "completed": false,
        "recommended": false,
        "discount": 0,
        "free": 0,
        "freetime": false
      },
      "viewCount": 232886,
      "tag": "อัพทุกเสาร์,BL,วงการบันเทิง,ดารา,เมะเจ้าเล่ห์,เมะเพอร์เฟ็ค,เมะอาวุธลับไซส์บิ๊ก,เมะเจ้าแผนการ,เคะสวย,เคะรักจริง,เคะซื่อบื้อ,เคะขี้แย,ความสัมพันธ์,โรแมนติคคอมเมดี้,OnlyBOOMTOON",
      "updatedAt": 1704474000000,
      "creators": "Zudo"
    },
    {
      "id": 157,
      "alias": "spinach_fl",
      "title": "Spinach Bouquet",
      "isAdult": false,
      "isComplete": false,
      "orderNo": 0,
      "thumbnails": [
        {
          "imagePath": "https://image.balcony.studio/th/co_thumbnail/spinach_fl/1675768703514.webp",
          "type": "SQUARE"
        },
        {
          "imagePath": "https://image.balcony.studio/th/co_thumbnail/spinach_fl/1675768703750.webp",
          "type": "MAIN"
        }
      ],
      "badge": {
        "newest": false,
        "adult": false,
        "scheduled": true,
        "up": false,
        "completed": false,
        "recommended": false,
        "discount": 0,
        "free": 0,
        "freetime": false
      },
      "viewCount": 48775,
      "tag": "อัพทุกเสาร์,BL,รักวัยรุ่น,โรแมนติคคอมเมดี้,Feelgood,น่ารัก,เข้าใจผิด,เมะอบอุ่น,เมะคนตรง,เมะเจ้าเล่ห์,เคะมีปม,เคะขี้แย,เคะขี้อาย,เคะไม่โดดเด่น,เพื่อนข้างบ้าน,รุ่นพี่รุ่นน้อง,โรงเรียน,OnlyBOOMTOON",
      "updatedAt": 1704474000000,
      "creators": "TERRA"
    },
    {
      "id": 187,
      "alias": "scum",
      "title": "ถิ่นคนเถื่อน",
      "isAdult": false,
      "isComplete": false,
      "orderNo": 0,
      "thumbnails": [
        {
          "imagePath": "https://image.balcony.studio/th/co_thumbnail/scum/1663570689691.webp",
          "type": "SQUARE"
        },
        {
          "imagePath": "https://image.balcony.studio/th/co_thumbnail/scum/1663570689972.webp",
          "type": "MAIN"
        }
      ],
      "badge": {
        "newest": true,
        "adult": false,
        "scheduled": true,
        "up": false,
        "completed": false,
        "recommended": false,
        "discount": 0,
        "free": 0,
        "freetime": false
      },
      "viewCount": 821587,
      "tag": "อัพทุกเสาร์,BL,ดราม่า,สายดาร์ค,รักต่างวัย,กลับมาพบกันอีกครั้ง,เมะแข็งแกร่ง,เมะเลือดเย็น,เมะแอบรัก,เมะคลั่งรัก,เมะอาวุธลับไซส์บิ๊ก,เมะเด็กกว่า,เคะกล้ามปู,เคะมีปม,เคะแข็งแกร่ง,เคะคนซึน,มาเฟีย,OnlyBOOMTOON",
      "updatedAt": 1704474000000,
      "creators": "Brothers Without A Tomorrow"
    },
    {
      "id": 256,
      "alias": "dog_and_wolf",
      "title": "ช่วงเวลาของหมาและหมาป่า",
      "isAdult": false,
      "isComplete": false,
      "orderNo": 0,
      "thumbnails": [
        {
          "imagePath": "https://image.balcony.studio/th/co_thumbnail/dogs_and_wolf/1675338357352.webp",
          "type": "MAIN"
        },
        {
          "imagePath": "https://image.balcony.studio/th/co_thumbnail/dogs_and_wolf/1680827761562.webp",
          "type": "SQUARE"
        },
        {
          "imagePath": "https://image.balcony.studio/th/co_thumbnail/dogs_and_wolf/1680827761783.webp",
          "type": "MAIN_NON_ADULT"
        }
      ],
      "badge": {
        "newest": true,
        "adult": false,
        "scheduled": true,
        "up": false,
        "completed": false,
        "recommended": false,
        "discount": 0,
        "free": 0,
        "freetime": false
      },
      "viewCount": 55614,
      "tag": "อัพทุกเสาร์,BL,ดราม่า,Serious,สายดาร์ค,Omegaverse ,เมะแข็งแกร่ง,เมะเจ้าแผนการ,เมะเจ้าเล่ห์,เมะคนซึน,เคะหน้าหวาน,เคะใสซื่อ,เคะมีปม,เคะไซส์มินิ,OnlyBOOMTOON",
      "updatedAt": 1704474000000,
      "creators": "Joy, SolWoo Lee"
    },
    {
      "id": 276,
      "alias": "asura",
      "title": "ปกรณัมรักราชาอสูร",
      "isAdult": false,
      "isComplete": false,
      "orderNo": 0,
      "thumbnails": [
        {
          "imagePath": "https://image.balcony.studio/th/co_thumbnail/asura/1679052815410.webp",
          "type": "SQUARE"
        },
        {
          "imagePath": "https://image.balcony.studio/th/co_thumbnail/asura/1679052815611.webp",
          "type": "MAIN"
        }
      ],
      "badge": {
        "newest": true,
        "adult": false,
        "scheduled": true,
        "up": false,
        "completed": false,
        "recommended": false,
        "discount": 0,
        "free": 0,
        "freetime": false
      },
      "viewCount": 88792,
      "tag": "อัพทุกเสาร์,BL,ย้อนยุคสมัยโบราณ,สายดาร์ค,ฮาร์ดคอร์,รักต่างชนชั้น,ดราม่า,เมะแข็งแกร่ง,เมะเลว,เมะคนซึน,เมะเลือดเย็น,เมะคลั่งรัก,เมะสำนึกผิด,เคะน่ารัก,เคะใสซื่อ,เคะอบอุ่น,เคะใจดี,เคะมีปม,OnlyBOOMTOON,รักในวัง",
      "updatedAt": 1704474000000,
      "creators": "Black kong"
    },
    {
      "id": 401,
      "alias": "hot_company",
      "title": "บริษัทร้อนซ่อนรัก",
      "isAdult": false,
      "isComplete": false,
      "orderNo": 0,
      "thumbnails": [
        {
          "imagePath": "https://image.balcony.studio/th/co_thumbnail/daf_1000701/1695117079692.webp",
          "type": "SQUARE"
        },
        {
          "imagePath": "https://image.balcony.studio/th/co_thumbnail/daf_1000701/1695117079921.webp",
          "type": "MAIN"
        }
      ],
      "badge": {
        "newest": true,
        "adult": false,
        "scheduled": true,
        "up": false,
        "completed": false,
        "recommended": false,
        "discount": 0,
        "free": 0,
        "freetime": false
      },
      "viewCount": 70346,
      "tag": "อัพทุกเสาร์,โรมานซ์,ออฟฟิต,โรแมนติคคอมเมดี้,มนุษย์เงินเดือน,พระเอกเจ้าเสน่ห์,พระเอกไฮโซ,พระเอกแซ่บ,พระเอกเซ็กซี่,นางเอกใสซื่อ,นางเอกขี้ยั่ว,นางเอกคนตรง,เจ้านาย,รักในที่ทำงาน,OnlyBOOMTOON",
      "updatedAt": 1704474000000,
      "creators": "Hongwa, CHACHA KIM"
    },
    {
      "id": 403,
      "alias": "fox_marriage",
      "title": "วิวาห์ลับของท่านจิ้งจอก",
      "isAdult": false,
      "isComplete": false,
      "orderNo": 0,
      "thumbnails": [
        {
          "imagePath": "https://image.balcony.studio/th/co_thumbnail/fox_marriage/1693283187606.webp",
          "type": "SQUARE"
        },
        {
          "imagePath": "https://image.balcony.studio/th/co_thumbnail/fox_marriage/1693283187853.webp",
          "type": "MAIN"
        }
      ],
      "badge": {
        "newest": true,
        "adult": false,
        "scheduled": true,
        "up": false,
        "completed": false,
        "recommended": false,
        "discount": 0,
        "free": 0,
        "freetime": false
      },
      "viewCount": 32979,
      "tag": "อัพทุกเสาร์,BL,แฟนตาซี,แฟนตาซียุคปัจจุบัน,Mpreg,เลี้ยงเด็ก,เมะแข็งแกร่ง,เมะปากร้าย,เมะคนซึน,เมะไฮโซ,เคะหน้าหวาน,เคะมีปม,เคะใสซื่อ,เคะสดใส,เหนือธรรมชาติ,อมนุษย์/ปีศาจ,OnlyBOOMTOON",
      "updatedAt": 1704474000000,
      "creators": "Han SiWon, Lee SoLWoo"
    },
    {
      "id": 434,
      "alias": "love_diet",
      "title": "รักนี้ต้องไดเอต",
      "isAdult": false,
      "isComplete": false,
      "orderNo": 0,
      "thumbnails": [
        {
          "imagePath": "https://image.balcony.studio/th/co_thumbnail/am_I_fat/1693889203821.webp",
          "type": "SQUARE"
        },
        {
          "imagePath": "https://image.balcony.studio/th/co_thumbnail/am_I_fat/1693889203996.webp",
          "type": "MAIN"
        }
      ],
      "badge": {
        "newest": true,
        "adult": false,
        "scheduled": true,
        "up": false,
        "completed": false,
        "recommended": false,
        "discount": 0,
        "free": 0,
        "freetime": false
      },
      "viewCount": 39972,
      "tag": "อัพทุกเสาร์,BL,ตลก/คอมเมดี้,เข้าใจผิด,เมะแข็งแกร่ง,เมะลูกหมา,เมะกล้ามปู,เมะเด็กกว่า,เมะมีปม,เคะน่ารัก,เคะหน้าหวาน,เคะรักจริง,เคะแก่กว่า,เคะแซ่บ,เคะขี้ยั่ว,มหาลัย,รุ่นพี่รุ่นน้อง,รักวัยรุ่น,OnlyBOOMTOON",
      "updatedAt": 1704474000000,
      "creators": "OHEUN, Cho Sangduck"
    },
    {
      "id": 437,
      "alias": "saturday",
      "title": "เจ้านายในวันเสาร์",
      "isAdult": false,
      "isComplete": false,
      "orderNo": 0,
      "thumbnails": [
        {
          "imagePath": "https://image.balcony.studio/th/co_thumbnail/SAT/1697075508912.webp",
          "type": "SQUARE"
        },
        {
          "imagePath": "https://image.balcony.studio/th/co_thumbnail/SAT/1697075509140.webp",
          "type": "MAIN"
        }
      ],
      "badge": {
        "newest": true,
        "adult": false,
        "scheduled": true,
        "up": false,
        "completed": false,
        "recommended": false,
        "discount": 0,
        "free": 0,
        "freetime": false
      },
      "viewCount": 57066,
      "tag": "อัพทุกเสาร์,BL,ไม่เซ็นเซอร์,BDSM,สายดาร์ค,ฮาร์ดคอร์,ดราม่า,ออฟฟิต,แอบรัก,เมะแข็งแกร่ง,เมะเจ้าแผนการ,เมะคนซึน,เมะเลือดเย็น,เมะสำนึกผิด,เมะปากร้าย,เคะน่ารัก,เคะใจดี,เคะมีปม,เคะแอบรัก,OnlyBOOMTOON",
      "updatedAt": 1704474000000,
      "creators": "Seomonhwa, DO.D"
    }
  ],
  "pageable": {
    "sort": {
      "unsorted": true,
      "sorted": false,
      "empty": true
    },
    "offset": 0,
    "pageNumber": 0,
    "pageSize": 20,
    "paged": true,
    "unpaged": false
  },
  "totalPages": 22,
  "last": false,
  "totalElements": 423,
  "size": 20,
  "number": 0,
  "sort": {
    "unsorted": true,
    "sorted": false,
    "empty": true
  },
  "numberOfElements": 20,
  "first": true,
  "empty": false
}
