{
  "content": [
    {
      "id": 428,
      "alias": "guild_next_door",
      "title": "กิลด์รักข้ามรั้ว",
      "isAdult": false,
      "isComplete": false,
      "orderNo": 1,
      "thumbnails": [
        {
          "imagePath": "https://image.balcony.studio/th/co_thumbnail/n_guild/1698754768242.webp",
          "type": "SQUARE"
        },
        {
          "imagePath": "https://image.balcony.studio/th/co_thumbnail/n_guild/1698754768509.webp",
          "type": "MAIN"
        }
      ],
      "badge": {
        "newest": true,
        "adult": false,
        "scheduled": true,
        "up": false,
        "completed": false,
        "recommended": false,
        "discount": 0,
        "free": 1,
        "freetime": false
      },
      "viewCount": 89567,
      "tag": "อัพทุกวันพฤหัส,BL,โรแมนติคคอมเมดี้,ตลก/คอมเมดี้,น่ารัก,เพื่อนข้างบ้าน,เข้าใจผิด,เมะปากร้าย,เมะเด็กกว่า,เมะขี้แกล้ง,เคะน่ารัก,เคะแก่กว่า,เคะซื่อบื้อ,เกม,ต่อสู้,OnlyBOOMTOON",
      "updatedAt": 1704301200000,
      "creators": "HoneyTrap, ANGELA, B_jak"
    },
    {
      "id": 120,
      "alias": "volume",
      "title": "Full Volume",
      "isAdult": false,
      "isComplete": false,
      "orderNo": 2,
      "thumbnails": [
        {
          "imagePath": "https://image.balcony.studio/th/co_thumbnail/volume/1701170615446.webp",
          "type": "SQUARE"
        },
        {
          "imagePath": "https://image.balcony.studio/th/co_thumbnail/volume/1701170615623.webp",
          "type": "MAIN"
        }
      ],
      "badge": {
        "newest": false,
        "adult": false,
        "scheduled": false,
        "up": false,
        "completed": true,
        "recommended": false,
        "discount": 0,
        "free": 1,
        "freetime": false
      },
      "viewCount": 630623,
      "tag": "BL,โรแมนติคคอมเมดี้,ฮาร์ดคอร์,ตลก/คอมเมดี้,เข้าใจผิด,เพื่อนข้างบ้าน,เมะเพอร์เฟ็ค,เมะอาวุธลับไซส์บิ๊ก,เมะเจ้าแผนการ,เมะเจ้าเล่ห์,เคะกล้ามปู,เคะมีปม,เคะใสซื่อ,เคะคนซึน,สตรีมเมอร์,OnlyBOOMTOON,จบแล้ว",
      "updatedAt": 1704301200000,
      "creators": "Albert, Yang Eun Ji"
    },
    {
      "id": 85,
      "alias": "kickoff",
      "title": "Kick Off",
      "isAdult": false,
      "isComplete": false,
      "orderNo": 3,
      "thumbnails": [
        {
          "imagePath": "https://image.balcony.studio/th/co_thumbnail/kickoff/1701170414027.webp",
          "type": "SQUARE"
        },
        {
          "imagePath": "https://image.balcony.studio/th/co_thumbnail/kickoff/1701170414247.webp",
          "type": "MAIN"
        }
      ],
      "badge": {
        "newest": false,
        "adult": false,
        "scheduled": true,
        "up": false,
        "completed": false,
        "recommended": false,
        "discount": 0,
        "free": 1,
        "freetime": false
      },
      "viewCount": 166691,
      "tag": "อัพทุกวันพฤหัส,BL,โรแมนติคคอมเมดี้,น่ารัก,มนุษย์เงินเดือน,กลับมาพบกันอีกครั้ง,เพื่อนสมัยเด็ก,เมะเพอร์เฟ็ค,เมะเจ้าแผนการ,เคะคนตรง,เคะสวย,เจ้านาย,รักในที่ทำงาน,ออฟฟิต,OnlyBOOMTOON",
      "updatedAt": 1704301200000,
      "creators": "HOCCO"
    },
    {
      "id": 402,
      "alias": "LoveMeEarl",
      "title": "ท่านเคานต์! รักผมหน่อยได้ไหมครับ!",
      "isAdult": false,
      "isComplete": false,
      "orderNo": 4,
      "thumbnails": [
        {
          "imagePath": "https://image.balcony.studio/th/co_thumbnail/LoveMeEarl/1695116929498.webp",
          "type": "SQUARE"
        },
        {
          "imagePath": "https://image.balcony.studio/th/co_thumbnail/LoveMeEarl/1695116929663.webp",
          "type": "MAIN"
        }
      ],
      "badge": {
        "newest": true,
        "adult": false,
        "scheduled": true,
        "up": false,
        "completed": false,
        "recommended": false,
        "discount": 0,
        "free": 1,
        "freetime": false
      },
      "viewCount": 25198,
      "tag": "อัพทุกวันพฤหัส,BL,แนวยุโรปโบราณ,รักในวัง,รักต่างชนชั้น,เมะหน้าหวาน,เมะเจ้าเล่ห์,เมะเจ้าแผนการ,เมะเด็กกว่า,เมะแซ่บ,เคะหล่อ,เคะแก่กว่า,เคะซื่อบื้อ,เคะใสซื่อ,แฟนตาซี,พลังวิเศษ,อัศวิน,OnlyBOOMTOON",
      "updatedAt": 1704301200000,
      "creators": "rayuan"
    },
    {
      "id": 190,
      "alias": "night_song",
      "title": "บทเพลงแห่งอสูรราตรี",
      "isAdult": false,
      "isComplete": false,
      "orderNo": 5,
      "thumbnails": [
        {
          "imagePath": "https://image.balcony.studio/th/co_thumbnail/night_song/1689323549533.webp",
          "type": "SQUARE"
        },
        {
          "imagePath": "https://image.balcony.studio/th/co_thumbnail/night_song/1689323549724.webp",
          "type": "MAIN"
        }
      ],
      "badge": {
        "newest": false,
        "adult": false,
        "scheduled": true,
        "up": false,
        "completed": false,
        "recommended": false,
        "discount": 0,
        "free": 10,
        "freetime": false
      },
      "viewCount": 1337339,
      "tag": "อัพทุกวันพฤหัส,BL,ย้อนยุคสมัยโบราณ,รักในวัง,ผี/วิญญาณ,เรื่องลี้ลับ,เมะแข็งแกร่ง,เมะเจ้าเล่ห์,เมะเจ้าแผนการ,เมะปากร้าย,เมะสวย,เคะหน้าหวาน,เคะสวย,เคะอบอุ่น,เคะใจดี,เคะใสซื่อ,อมนุษย์/ปีศาจ,เหนือธรรมชาติ,สัตว์,OnlyBOOMTOON",
      "updatedAt": 1704301200000,
      "creators": "ANANAS, C.R Jade"
    },
    {
      "id": 380,
      "alias": "sun_in_the_night",
      "title": "ตะวันยามราตรี",
      "isAdult": false,
      "isComplete": false,
      "orderNo": 6,
      "thumbnails": [
        {
          "imagePath": "https://image.balcony.studio/th/co_thumbnail/bam_he/1691386871465.webp",
          "type": "SQUARE"
        },
        {
          "imagePath": "https://image.balcony.studio/th/co_thumbnail/bam_he/1691386871649.webp",
          "type": "MAIN"
        }
      ],
      "badge": {
        "newest": true,
        "adult": false,
        "scheduled": true,
        "up": false,
        "completed": false,
        "recommended": false,
        "discount": 0,
        "free": 1,
        "freetime": false
      },
      "viewCount": 27627,
      "tag": "อัพทุกวันพฤหัส,BL,สายดาร์ค,ฮาร์ดคอร์,ดราม่า,เราสองสามคน,เมะแข็งแกร่ง,เมะคลั่งรัก,เมะอบอุ่น,เมะเจ้าแผนการ,เคะจน,เคะหน้าหวาน,เคะใสซื่อ,รักต่างวัย,OnlyBOOMTOON",
      "updatedAt": 1704301200000,
      "creators": "bammandeuk"
    },
    {
      "id": 378,
      "alias": "pear_blossom",
      "title": "กลิ่นไอรักดอกสาลี่",
      "isAdult": false,
      "isComplete": false,
      "orderNo": 7,
      "thumbnails": [
        {
          "imagePath": "https://image.balcony.studio/th/co_thumbnail/p_bloS2om/1691549164834.webp",
          "type": "SQUARE"
        },
        {
          "imagePath": "https://image.balcony.studio/th/co_thumbnail/p_bloS2om/1691549165061.webp",
          "type": "MAIN"
        }
      ],
      "badge": {
        "newest": true,
        "adult": false,
        "scheduled": true,
        "up": false,
        "completed": false,
        "recommended": false,
        "discount": 0,
        "free": 1,
        "freetime": false
      },
      "viewCount": 110998,
      "tag": "อัพทุกวันพฤหัส,BL,เราสองสามคน,เพื่อนสมัยเด็ก,แอบรัก,รักครั้งแรก,เพื่อนรักรักเพื่อน,เข้าใจผิด,กลับมาพบกันอีกครั้ง,เมะคนซึน,เมะแซ่บ,เมะลูกหมา,เมะอบอุ่น,เมะใสซื่อ,เมะเด็กกว่า,เมะแอบรัก,เคะน่ารัก,เคะแอบรัก,เคะสดใส,OnlyBOOMTOON",
      "updatedAt": 1704301200000,
      "creators": "wedge"
    },
    {
      "id": 372,
      "alias": "without_dragon",
      "title": "โลกที่ไร้มังกร",
      "isAdult": false,
      "isComplete": false,
      "orderNo": 8,
      "thumbnails": [
        {
          "imagePath": "https://image.balcony.studio/th/co_thumbnail/without_dragon/1694000707949.webp",
          "type": "SQUARE"
        },
        {
          "imagePath": "https://image.balcony.studio/th/co_thumbnail/without_dragon/1694000708081.webp",
          "type": "MAIN"
        }
      ],
      "badge": {
        "newest": true,
        "adult": false,
        "scheduled": true,
        "up": false,
        "completed": false,
        "recommended": false,
        "discount": 0,
        "free": 3,
        "freetime": false
      },
      "viewCount": 7506,
      "tag": "อัพทุกวันพฤหัส,อัพทุกอาทิตย์,โรมานซ์,แฟนตาซี,เหนือธรรมชาติ,พระเอกสุภาพ,พระเอกใจดี,นางเอกพิลึก,นางเอกมีปม,นางเอกใจดี",
      "updatedAt": 1703955600000,
      "creators": "Girdap, Byeol Ttang, Udyong, Ok Kuseul"
    },
    {
      "id": 419,
      "alias": "fox_mansion",
      "title": "ตำหนักจิ้งจอก",
      "isAdult": false,
      "isComplete": false,
      "orderNo": 9,
      "thumbnails": [
        {
          "imagePath": "https://image.balcony.studio/th/co_thumbnail/FoxMansion/1699592581529.webp",
          "type": "SQUARE"
        },
        {
          "imagePath": "https://image.balcony.studio/th/co_thumbnail/FoxMansion/1699592581670.webp",
          "type": "MAIN"
        }
      ],
      "badge": {
        "newest": true,
        "adult": false,
        "scheduled": true,
        "up": false,
        "completed": false,
        "recommended": false,
        "discount": 0,
        "free": 1,
        "freetime": false
      },
      "viewCount": 12063,
      "tag": "อัพทุกวันพฤหัส,โรมานซ์,เราสองสามคน,ย้อนยุคสมัยโบราณ,ยุทธภพ,เหนือธรรมชาติ,อมนุษย์/ปีศาจ,พระเอกเจ้าเล่ห์,พระเอกแซ่บ,นางเอกเก่ง,นางเอกเจ้าเสน่ห์,รักในวัง",
      "updatedAt": 1704380400000,
      "creators": "Meelbaat, star group, Dodo"
    },
    {
      "id": 338,
      "alias": "dear_door",
      "title": "DEAR. DOOR",
      "isAdult": false,
      "isComplete": false,
      "orderNo": 10,
      "thumbnails": [
        {
          "imagePath": "https://image.balcony.studio/th/co_thumbnail/dear_door/1683177785296.webp",
          "type": "SQUARE"
        },
        {
          "imagePath": "https://image.balcony.studio/th/co_thumbnail/dear_door/1683177785568.webp",
          "type": "MAIN"
        }
      ],
      "badge": {
        "newest": true,
        "adult": false,
        "scheduled": true,
        "up": false,
        "completed": false,
        "recommended": false,
        "discount": 0,
        "free": 3,
        "freetime": false
      },
      "viewCount": 104150,
      "tag": "อัพทุกวันพฤหัส,BL,แฟนตาซี,แฟนตาซียุคปัจจุบัน,ต่อสู้,อมนุษย์/ปีศาจ,เหนือธรรมชาติ,เมะแข็งแกร่ง,เมะคลั่งรัก,เคะสู้คน,เคะน่ารัก,สัตว์,รักต่างเผ่าพันธุ์,OnlyBOOMTOON",
      "updatedAt": 1704301200000,
      "creators": "Pluto"
    },
    {
      "id": 248,
      "alias": "forsythia",
      "title": "เส้นทางรักดอกแคนารี",
      "isAdult": false,
      "isComplete": false,
      "orderNo": 11,
      "thumbnails": [
        {
          "imagePath": "https://image.balcony.studio/th/co_thumbnail/forsythia/1693974714782.webp",
          "type": "SQUARE"
        },
        {
          "imagePath": "https://image.balcony.studio/th/co_thumbnail/forsythia/1693974714942.webp",
          "type": "MAIN"
        }
      ],
      "badge": {
        "newest": false,
        "adult": false,
        "scheduled": true,
        "up": false,
        "completed": false,
        "recommended": false,
        "discount": 0,
        "free": 1,
        "freetime": false
      },
      "viewCount": 142022,
      "tag": "อัพทุกวันพฤหัส,BL,โรแมนติคแฟนตาซี,แฟนตาซี,ตลก/คอมเมดี้,ย้อนยุคสมัยโบราณ,เหนือธรรมชาติ,อมนุษย์/ปีศาจ,เมะลูกหมา,เมะอาวุธลับไซส์บิ๊ก,เมะเด็กกว่า,เมะขี้แกล้ง,เมะสำนึกผิด,เมะคลั่งรัก,เคะมีปม,เคะใจดี,เคะน่ารัก,เคะขี้แย,โรแมนติคคอมเมดี้,OnlyBOOMTOON",
      "updatedAt": 1704301200000,
      "creators": "sumrim"
    },
    {
      "id": 219,
      "alias": "salvation",
      "title": "Salvation",
      "isAdult": false,
      "isComplete": false,
      "orderNo": 12,
      "thumbnails": [
        {
          "imagePath": "https://image.balcony.studio/th/co_thumbnail/salvation/1669873852456.webp",
          "type": "SQUARE"
        },
        {
          "imagePath": "https://image.balcony.studio/th/co_thumbnail/salvation/1669873852670.webp",
          "type": "MAIN"
        }
      ],
      "badge": {
        "newest": true,
        "adult": false,
        "scheduled": true,
        "up": false,
        "completed": false,
        "recommended": false,
        "discount": 0,
        "free": 1,
        "freetime": false
      },
      "viewCount": 57163,
      "tag": "อัพทุกวันพฤหัส,BL,แฟนตาซี,รักในวัง,แนวยุโรปโบราณ,เมะแข็งแกร่ง,เมะเจ้าเล่ห์,เมะเจ้าแผนการ,เมะแซ่บ,เมะหน้าหวาน,เคะซื่อบื้อ,เคะใสซื่อ,เคะหัวแข็ง,เคะสู้คน,OnlyBOOMTOON",
      "updatedAt": 1704301200000,
      "creators": "Gwendolyn, Dojin"
    },
    {
      "id": 292,
      "alias": "fake_romance",
      "title": "Fake Romance",
      "isAdult": false,
      "isComplete": false,
      "orderNo": 13,
      "thumbnails": [
        {
          "imagePath": "https://image.balcony.studio/th/co_thumbnail/bt_1110316/1679564779657.webp",
          "type": "SQUARE"
        },
        {
          "imagePath": "https://image.balcony.studio/th/co_thumbnail/bt_1110316/1679564779808.webp",
          "type": "MAIN"
        }
      ],
      "badge": {
        "newest": true,
        "adult": false,
        "scheduled": true,
        "up": false,
        "completed": false,
        "recommended": false,
        "discount": 0,
        "free": 1,
        "freetime": false
      },
      "viewCount": 55557,
      "tag": "อัพทุกวันพฤหัส,BL,แอบรัก,ดราม่า,เมะเพอร์เฟ็ค,เมะลูกหมา,เมะแอบรัก,เมะฮอต,เมะเด็กกว่า,เมะมีปม,เมะใสซื่อ,เคะเจ้าเล่ห์,เคะเจ้าแผนการ,เคะแก่กว่า,เคะขี้ยั่ว,เคะแซ่บ,รุ่นพี่รุ่นน้อง,OnlyBOOMTOON",
      "updatedAt": 1704301200000,
      "creators": "Tan Geum"
    },
    {
      "id": 203,
      "alias": "public_and_private",
      "title": "รักเกิดในบริษัท",
      "isAdult": false,
      "isComplete": false,
      "orderNo": 14,
      "thumbnails": [
        {
          "imagePath": "https://image.balcony.studio/th/co_thumbnail/0_4/1668414886188.webp",
          "type": "MAIN"
        },
        {
          "imagePath": "https://image.balcony.studio/th/co_thumbnail/0_4/1678687654531.webp",
          "type": "SQUARE"
        },
        {
          "imagePath": "https://image.balcony.studio/th/co_thumbnail/0_4/1678687654675.webp",
          "type": "MAIN_NON_ADULT"
        }
      ],
      "badge": {
        "newest": false,
        "adult": false,
        "scheduled": true,
        "up": false,
        "completed": false,
        "recommended": false,
        "discount": 0,
        "free": 1,
        "freetime": false
      },
      "viewCount": 416915,
      "tag": "อัพทุกวันพฤหัส,โรมานซ์,โรแมนติคคอมเมดี้,ออฟฟิต,คู่รักในบริษัท,มนุษย์เงินเดือน,เข้าใจผิด,กลับมาพบกันอีกครั้ง,เกิร์ลครัช,พระเอกสี่มิติ,พระเอกใสซื่อ,พระเอกเจี๋ยมเจี้ยม,พระเอกสุภาพ,นางเอกแซ่บ,นางเอกขี้ยั่ว,นางเอกเฟรนด์ลี่,นางเอกเจ้าเสน่ห์,รักในที่ทำงาน,OnlyBO",
      "updatedAt": 1701277200000,
      "creators": "heee-n, Nuguri"
    },
    {
      "id": 193,
      "alias": "sun_flower",
      "title": "บุปผาสุริยัน",
      "isAdult": false,
      "isComplete": false,
      "orderNo": 15,
      "thumbnails": [
        {
          "imagePath": "https://image.balcony.studio/th/co_thumbnail/sun_flower/1666342755966.webp",
          "type": "SQUARE"
        },
        {
          "imagePath": "https://image.balcony.studio/th/co_thumbnail/sun_flower/1666342756122.webp",
          "type": "MAIN"
        }
      ],
      "badge": {
        "newest": true,
        "adult": false,
        "scheduled": true,
        "up": false,
        "completed": false,
        "recommended": false,
        "discount": 0,
        "free": 1,
        "freetime": false
      },
      "viewCount": 146104,
      "tag": "อัพทุกวันพฤหัส,BL,แนวยุโรปโบราณ,รักในวัง,ดราม่า,Serious,เราสองสามคน,ทั้งรักทั้งเกลียด,แก้แค้น,เมะแข็งแกร่ง,เมะเลือดเย็น,เมะเลว,เมะอบอุ่น,เมะใสซื่อ,เมะเด็กกว่า,เคะกล้ามปู,เคะเพอร์เฟ็ค,เคะคนซึน,อัศวิน,OnlyBOOMTOON",
      "updatedAt": 1701277200000,
      "creators": "Havi"
    },
    {
      "id": 300,
      "alias": "Neuromance",
      "title": "Neuromance",
      "isAdult": false,
      "isComplete": false,
      "orderNo": 16,
      "thumbnails": [
        {
          "imagePath": "https://image.balcony.studio/th/co_thumbnail/Neuromance/1679562863970.webp",
          "type": "SQUARE"
        },
        {
          "imagePath": "https://image.balcony.studio/th/co_thumbnail/Neuromance/1679562864123.webp",
          "type": "MAIN"
        }
      ],
      "badge": {
        "newest": false,
        "adult": false,
        "scheduled": false,
        "up": false,
        "completed": true,
        "recommended": false,
        "discount": 0,
        "free": 1,
        "freetime": false
      },
      "viewCount": 40643,
      "tag": "BL,แฟนตาซี,ตลก/คอมเมดี้,แฟนตาซียุคปัจจุบัน,แอบรัก,กลับมาพบกันอีกครั้ง,เมะหน้าหวาน,เมะสวย,เมะคลั่งรัก,เมะอาวุธลับไซส์บิ๊ก,เมะเจ้าเล่ห์,เมะมีปม,เคะกล้ามปู,เคะแข็งแกร่ง,เคะอบอุ่น,เคะสดใส,เคะแก่กว่า,อมนุษย์/ปีศาจ,OnlyBOOMTOON",
      "updatedAt": 1697043600000,
      "creators": "JK"
    },
    {
      "id": 322,
      "alias": "fortune",
      "title": "ทำนายทายทัก พบรักวันนี้!",
      "isAdult": false,
      "isComplete": false,
      "orderNo": 17,
      "thumbnails": [
        {
          "imagePath": "https://image.balcony.studio/th/co_thumbnail/fortune/1685080270478.webp",
          "type": "SQUARE"
        },
        {
          "imagePath": "https://image.balcony.studio/th/co_thumbnail/fortune/1685080270612.webp",
          "type": "MAIN"
        }
      ],
      "badge": {
        "newest": false,
        "adult": false,
        "scheduled": false,
        "up": false,
        "completed": true,
        "recommended": false,
        "discount": 0,
        "free": 1,
        "freetime": false
      },
      "viewCount": 25472,
      "tag": "BL,โรแมนติคคอมเมดี้,น่ารัก,Feelgood,รักวัยรุ่น,รักในโรงเรียน,เมะเด็กกว่า,เมะแอบรัก,เมะฮอต,เมะลูกหมา,เคะน่ารัก,เคะใสซื่อ,เคะแก่กว่า,เคะซื่อบื้อ,โรงเรียน,รุ่นพี่รุ่นน้อง,OnlyBOOMTOON",
      "updatedAt": 1698400800000,
      "creators": "soonmu"
    },
    {
      "id": 200,
      "alias": "duchess_debauchery",
      "title": "Duchess Debauchery",
      "isAdult": false,
      "isComplete": false,
      "orderNo": 18,
      "thumbnails": [
        {
          "imagePath": "https://image.balcony.studio/th/co_thumbnail/dbd_00052/1675327239900.webp",
          "type": "SQUARE"
        },
        {
          "imagePath": "https://image.balcony.studio/th/co_thumbnail/dbd_00052/1675327240117.webp",
          "type": "MAIN"
        }
      ],
      "badge": {
        "newest": false,
        "adult": false,
        "scheduled": false,
        "up": false,
        "completed": true,
        "recommended": false,
        "discount": 0,
        "free": 1,
        "freetime": false
      },
      "viewCount": 272469,
      "tag": "โรมานซ์,แนวยุโรปโบราณ,รักในวัง,พระเอกเย็นชา,พระเอกไม่ใส่ใจ,พระเอกเพอร์เฟ็ค,พระเอกแซ่บ,นางเอกใจดี,นางเอกมีปม,นางเอกขี้ยั่ว,นางเอกแซ่บ,เข้าใจผิด,OnlyBOOMTOON",
      "updatedAt": 1692205200000,
      "creators": "GOYO, Jusang"
    },
    {
      "id": 306,
      "alias": "mermaid",
      "title": "รักแรกของเถ้าแก่ร้านปลาดิบคือนายเงือก",
      "isAdult": false,
      "isComplete": false,
      "orderNo": 19,
      "thumbnails": [
        {
          "imagePath": "https://image.balcony.studio/th/co_thumbnail/mermaid/1681445376663.webp",
          "type": "SQUARE"
        },
        {
          "imagePath": "https://image.balcony.studio/th/co_thumbnail/mermaid/1681445376777.webp",
          "type": "MAIN"
        },
        {
          "imagePath": "https://image.balcony.studio/th/co_thumbnail/mermaid/1681445376960.webp",
          "type": "MAIN_NON_ADULT"
        }
      ],
      "badge": {
        "newest": true,
        "adult": false,
        "scheduled": false,
        "up": false,
        "completed": true,
        "recommended": false,
        "discount": 0,
        "free": 1,
        "freetime": false
      },
      "viewCount": 111999,
      "tag": "BL,โรแมนติคแฟนตาซี,โรแมนติคคอมเมดี้,ตลก/คอมเมดี้,รักต่างเผ่าพันธุ์,Feelgood,เมะแอบรัก,เมะใสซื่อ,เมะอบอุ่น,เมะคลั่งรัก,เคะสวย,เคะร่าเริง ,เคะแข็งแกร่ง,เคะขี้ยั่ว,เคะแซ่บ,รักครั้งแรก,อมนุษย์/ปีศาจ,เหนือธรรมชาติ,OnlyBOOMTOON",
      "updatedAt": 1692205200000,
      "creators": "Hwireul, Namdong"
    },
    {
      "id": 243,
      "alias": "49days",
      "title": "49 วัน",
      "isAdult": false,
      "isComplete": false,
      "orderNo": 20,
      "thumbnails": [
        {
          "imagePath": "https://image.balcony.studio/th/co_thumbnail/49days_/1673602521191.webp",
          "type": "SQUARE"
        },
        {
          "imagePath": "https://image.balcony.studio/th/co_thumbnail/49days_/1673602521349.webp",
          "type": "MAIN"
        }
      ],
      "badge": {
        "newest": false,
        "adult": false,
        "scheduled": false,
        "up": false,
        "completed": true,
        "recommended": false,
        "discount": 0,
        "free": 1,
        "freetime": false
      },
      "viewCount": 16180,
      "tag": "BL,โรแมนติคแฟนตาซี,แอบรัก,ผี/วิญญาณ,กลับมาพบกันอีกครั้ง,OnlyBOOMTOON",
      "updatedAt": 1690995600000,
      "creators": "เอพ"
    }
  ],
  "pageable": {
    "sort": {
      "unsorted": true,
      "sorted": false,
      "empty": true
    },
    "offset": 0,
    "pageNumber": 0,
    "pageSize": 20,
    "paged": true,
    "unpaged": false
  },
  "last": false,
  "totalPages": 3,
  "totalElements": 58,
  "size": 20,
  "number": 0,
  "sort": {
    "unsorted": true,
    "sorted": false,
    "empty": true
  },
  "numberOfElements": 20,
  "first": true,
  "empty": false
}
