{
  "content": [
    {
      "id": 447,
      "alias": "dawn_night",
      "title": "รุ่งอรุณแห่งอนธการ",
      "isAdult": false,
      "isComplete": false,
      "orderNo": 1,
      "thumbnails": [
        {
          "imagePath": "https://image.balcony.studio/th/co_thumbnail/dawn_night/1703755215215.webp",
          "type": "SQUARE"
        },
        {
          "imagePath": "https://image.balcony.studio/th/co_thumbnail/dawn_night/1703755215373.webp",
          "type": "MAIN"
        }
      ],
      "badge": {
        "newest": true,
        "adult": false,
        "scheduled": true,
        "up": false,
        "completed": false,
        "recommended": false,
        "discount": 0,
        "free": 1,
        "freetime": false
      },
      "viewCount": 30674,
      "tag": "อัพทุกวันอังคาร,BL,สายดาร์ค,ไม่เซ็นเซอร์,ฮาร์ดคอร์,ดราม่า,Serious,กลับมาพบกันอีกครั้ง,เมะหน้าหวาน,เมะเด็กกว่า,เมะสุภาพ,เมะรักจริง,เคะหล่อ,เคะแข็งแกร่ง,เคะเลือดเย็น,เคะมีปม,เคะคนซึน,มาเฟีย,OnlyBOOMTOON",
      "updatedAt": 1704128400000,
      "creators": "seungyeong, duckhwa"
    },
    {
      "id": 425,
      "alias": "back_light",
      "title": "Backlight",
      "isAdult": false,
      "isComplete": false,
      "orderNo": 2,
      "thumbnails": [
        {
          "imagePath": "https://image.balcony.studio/th/co_thumbnail/back_light/1699868813830.webp",
          "type": "SQUARE"
        },
        {
          "imagePath": "https://image.balcony.studio/th/co_thumbnail/back_light/1699868813964.webp",
          "type": "MAIN"
        }
      ],
      "badge": {
        "newest": true,
        "adult": false,
        "scheduled": true,
        "up": false,
        "completed": false,
        "recommended": false,
        "discount": 0,
        "free": 1,
        "freetime": false
      },
      "viewCount": 130977,
      "tag": "อัพทุกวันอังคาร,BL,ไม่เซ็นเซอร์,กลับมาพบกันอีกครั้ง,เพื่อนรักรักเพื่อน,วงการบันเทิง,เมะเพอร์เฟ็ค,เมะฮอต,เมะคลั่งรัก,เคะหล่อ,เคะมีปม,เคะกล้ามปู,เคะใจดี,นายแบบ,OnlyBOOMTOON,อัพเดทพร้อมเกาหลี",
      "updatedAt": 1704200400000,
      "creators": "GANGDDO"
    },
    {
      "id": 342,
      "alias": "bright_sky",
      "title": "เมื่อวันฟ้าใส",
      "isAdult": false,
      "isComplete": false,
      "orderNo": 3,
      "thumbnails": [
        {
          "imagePath": "https://image.balcony.studio/th/co_thumbnail/bright_sky/1689122104474.webp",
          "type": "SQUARE"
        },
        {
          "imagePath": "https://image.balcony.studio/th/co_thumbnail/bright_sky/1689122104685.webp",
          "type": "MAIN"
        }
      ],
      "badge": {
        "newest": true,
        "adult": false,
        "scheduled": true,
        "up": false,
        "completed": false,
        "recommended": false,
        "discount": 0,
        "free": 1,
        "freetime": false
      },
      "viewCount": 212960,
      "tag": "อัพทุกวันอังคาร,BL,โรแมนติคคอมเมดี้,Feelgood,น่ารัก,ตลก/คอมเมดี้,เลี้ยงเด็ก,เมะปากร้าย,เมะคนซึน,เมะอบอุ่น,เมะแก่กว่า,เมะคลั่งรัก,เคะกล้ามปู,เคะใสซื่อ,เคะเด็กกว่า,เคะมีปม,เคะน่ารัก,เคะใจดี,OnlyBOOMTOON,อัพเดทพร้อมเกาหลี",
      "updatedAt": 1704200400000,
      "creators": "Jeong Seokchan"
    },
    {
      "id": 426,
      "alias": "10X",
      "title": "ฮันเตอร์คนนี้... 10 ครั้งในหนึ่งคืน",
      "isAdult": false,
      "isComplete": false,
      "orderNo": 5,
      "thumbnails": [
        {
          "imagePath": "https://image.balcony.studio/th/co_thumbnail/10X/1700484972673.webp",
          "type": "SQUARE"
        },
        {
          "imagePath": "https://image.balcony.studio/th/co_thumbnail/10X/1700484972917.webp",
          "type": "MAIN"
        }
      ],
      "badge": {
        "newest": true,
        "adult": false,
        "scheduled": true,
        "up": false,
        "completed": false,
        "recommended": false,
        "discount": 0,
        "free": 1,
        "freetime": false
      },
      "viewCount": 37676,
      "tag": "อัพทุกวันอังคาร,BL,แฟนตาซี,แฟนตาซียุคปัจจุบัน,กลับมาพบกันอีกครั้ง,รักครั้งแรก,เมะคลั่งรัก,เมะเด็กกว่า,เมะขี้แกล้ง,เมะแข็งแกร่ง,เคะหล่อ,เคะแข็งแกร่ง,เคะกล้ามปู,เคะแก่กว่า,เคะเสียสละ,เคะใจดี,พลังวิเศษ",
      "updatedAt": 1704207600000,
      "creators": "Dugo, TAJOAL, BABSOT"
    },
    {
      "id": 388,
      "alias": "lovely_ghost",
      "title": "รับพลังผมไปสิครับ คุณผีที่รัก!",
      "isAdult": false,
      "isComplete": false,
      "orderNo": 6,
      "thumbnails": [
        {
          "imagePath": "https://image.balcony.studio/th/co_thumbnail/lovely_ghost/1693282662853.webp",
          "type": "SQUARE"
        },
        {
          "imagePath": "https://image.balcony.studio/th/co_thumbnail/lovely_ghost/1693282663023.webp",
          "type": "MAIN"
        }
      ],
      "badge": {
        "newest": true,
        "adult": false,
        "scheduled": true,
        "up": false,
        "completed": false,
        "recommended": false,
        "discount": 0,
        "free": 1,
        "freetime": false
      },
      "viewCount": 19226,
      "tag": "อัพทุกวันอังคาร,BL,แฟนตาซี,เรื่องลี้ลับ,สืบสวน/สยองขวัญ,ดราม่า,เมะเจ้าเล่ห์,เมะเลือดเย็น,เมะเจ้าแผนการ,เมะขี้แกล้ง,เมะแซ่บ,เคะน่ารัก,เคะมีปม,เคะใสซื่อ,เคะขี้กลัว,เหนือธรรมชาติ,อมนุษย์/ปีศาจ,OnlyBOOMTOON",
      "updatedAt": 1704128400000,
      "creators": "Ban"
    },
    {
      "id": 386,
      "alias": "paper_flower",
      "title": "บุปผาประดิษฐ์",
      "isAdult": false,
      "isComplete": false,
      "orderNo": 7,
      "thumbnails": [
        {
          "imagePath": "https://image.balcony.studio/th/co_thumbnail/paper_Fl/1693485067919.webp",
          "type": "SQUARE"
        },
        {
          "imagePath": "https://image.balcony.studio/th/co_thumbnail/paper_Fl/1693485068216.webp",
          "type": "MAIN"
        }
      ],
      "badge": {
        "newest": true,
        "adult": false,
        "scheduled": true,
        "up": false,
        "completed": false,
        "recommended": false,
        "discount": 0,
        "free": 1,
        "freetime": false
      },
      "viewCount": 29426,
      "tag": "อัพทุกวันอังคาร,BL,ย้อนยุคสมัยโบราณ,สายดาร์ค,ฮาร์ดคอร์,ดราม่า,Serious,รักในวัง,เมะแข็งแกร่ง,เมะเลว,เมะสำนึกผิด,เมะคลั่งรัก,เมะเลือดเย็น,เคะใจดี,เคะหนี,เคะมีปม,เคะใสซื่อ,เคะแอบรัก,OnlyBOOMTOON",
      "updatedAt": 1704128400000,
      "creators": "VanG, RANHAN"
    },
    {
      "id": 192,
      "alias": "smrn_kfr",
      "title": "สมีร์นาแอนด์คาพรี",
      "isAdult": false,
      "isComplete": false,
      "orderNo": 8,
      "thumbnails": [
        {
          "imagePath": "https://image.balcony.studio/th/co_thumbnail/smrn_kfr/1666178272959.webp",
          "type": "SQUARE"
        },
        {
          "imagePath": "https://image.balcony.studio/th/co_thumbnail/smrn_kfr/1666178273116.webp",
          "type": "MAIN"
        }
      ],
      "badge": {
        "newest": false,
        "adult": false,
        "scheduled": true,
        "up": false,
        "completed": false,
        "recommended": false,
        "discount": 0,
        "free": 10,
        "freetime": false
      },
      "viewCount": 1316763,
      "tag": "อัพทุกวันอังคาร,BL,โรแมนติคแฟนตาซี,แนวยุโรปโบราณ,Omegaverse ,เหนือธรรมชาติ,อมนุษย์/ปีศาจ,เมะหน้าหวาน,เมะสวย,เมะเด็กกว่า,เมะแข็งแกร่ง,เคะกล้ามปู,เคะเพอร์เฟ็ค,เคะแก่กว่า,Mpreg,เคะราชินี,อัศวิน,พลังวิเศษ,OnlyBOOMTOON",
      "updatedAt": 1704128400000,
      "creators": "Brothers Without A Tomorrow"
    },
    {
      "id": 379,
      "alias": "my_destiny",
      "title": "เขาบอกว่านายคือพรหมลิขิต..?!",
      "isAdult": false,
      "isComplete": false,
      "orderNo": 9,
      "thumbnails": [
        {
          "imagePath": "https://image.balcony.studio/th/co_thumbnail/fate_dead/1692871117231.webp",
          "type": "SQUARE"
        },
        {
          "imagePath": "https://image.balcony.studio/th/co_thumbnail/fate_dead/1692871117520.webp",
          "type": "MAIN"
        }
      ],
      "badge": {
        "newest": true,
        "adult": false,
        "scheduled": true,
        "up": false,
        "completed": false,
        "recommended": false,
        "discount": 0,
        "free": 3,
        "freetime": false
      },
      "viewCount": 22239,
      "tag": "อัพทุกวันอังคาร,BL,รักวัยรุ่น,เหนือธรรมชาติ,รักในมหาลัย,เพื่อนรักรักเพื่อน,เข้าใจผิด,เมะเพอร์เฟ็ค,เมะอบอุ่น,เคะน่ารัก,เคะคนตรง,เคะสดใส,เคะซื่อบื้อ,OnlyBOOMTOON",
      "updatedAt": 1704128400000,
      "creators": "LEE HO RIM"
    },
    {
      "id": 375,
      "alias": "love_percent",
      "title": "เปอร์เซ็นต์ LOVE",
      "isAdult": false,
      "isComplete": false,
      "orderNo": 10,
      "thumbnails": [
        {
          "imagePath": "https://image.balcony.studio/th/co_thumbnail/love_percent/1693482938861.webp",
          "type": "SQUARE"
        },
        {
          "imagePath": "https://image.balcony.studio/th/co_thumbnail/love_percent/1693482939064.webp",
          "type": "MAIN"
        }
      ],
      "badge": {
        "newest": true,
        "adult": false,
        "scheduled": true,
        "up": false,
        "completed": false,
        "recommended": false,
        "discount": 0,
        "free": 1,
        "freetime": false
      },
      "viewCount": 24089,
      "tag": "อัพทุกวันอังคาร,BL,Omegaverse ,Mpreg,เลี้ยงเด็ก,กลับมาพบกันอีกครั้ง,เข้าใจผิด,เพื่อนข้างบ้าน,เมะลูกหมา,เมะใสซื่อ,เมะเด็กกว่า,เมะอบอุ่น,เคะสวย,เคะมีปม,เคะแก่กว่า,เคะแอบรัก,OnlyBOOMTOON",
      "updatedAt": 1704128400000,
      "creators": "CHEONGPODO"
    },
    {
      "id": 367,
      "alias": "swimming_pool",
      "title": "สระรัก คืนพักใจ",
      "isAdult": false,
      "isComplete": false,
      "orderNo": 11,
      "thumbnails": [
        {
          "imagePath": "https://image.balcony.studio/th/co_thumbnail/open_night/1688555113156.webp",
          "type": "SQUARE"
        },
        {
          "imagePath": "https://image.balcony.studio/th/co_thumbnail/open_night/1688555113463.webp",
          "type": "MAIN"
        }
      ],
      "badge": {
        "newest": true,
        "adult": false,
        "scheduled": true,
        "up": false,
        "completed": false,
        "recommended": false,
        "discount": 0,
        "free": 1,
        "freetime": false
      },
      "viewCount": 39179,
      "tag": "อัพทุกวันอังคาร,BL,กลับมาพบกันอีกครั้ง,เข้าใจผิด,เพื่อนรักรักเพื่อน,แอบรัก,เมะเพอร์เฟ็ค,เมะลูกหมา,เมะฮอต,เมะขี้แย,เมะแอบรัก,เคะหล่อ,เคะแว่น,เคะแอบรัก,เคะซื่อบื้อ,มหาลัย,รักวัยรุ่น,รักในมหาลัย,OnlyBOOMTOON",
      "updatedAt": 1704128400000,
      "creators": "tanmon, DANDYGUY"
    },
    {
      "id": 407,
      "alias": "work_love_balance",
      "title": "Work Love Balance",
      "isAdult": false,
      "isComplete": false,
      "orderNo": 12,
      "thumbnails": [
        {
          "imagePath": "https://image.balcony.studio/th/co_thumbnail/wlb/1698651690741.webp",
          "type": "SQUARE"
        },
        {
          "imagePath": "https://image.balcony.studio/th/co_thumbnail/wlb/1698651690886.webp",
          "type": "MAIN"
        }
      ],
      "badge": {
        "newest": true,
        "adult": false,
        "scheduled": true,
        "up": false,
        "completed": false,
        "recommended": false,
        "discount": 0,
        "free": 1,
        "freetime": false
      },
      "viewCount": 7849,
      "tag": "อัพทุกวันอังคาร,BL,โรแมนติคคอมเมดี้,มนุษย์เงินเดือน,ออฟฟิต,รักต่างวัย,เมะเพอร์เฟ็ค,เมะแข็งแกร่ง,เมะแก่กว่า,เมะอาวุธลับไซส์บิ๊ก,เมะสุภาพ,เมะฮอต,เคะน่ารัก,เคะเด็กกว่า,เคะซื่อบื้อ,เคะสดใส,เคะอบอุ่น,รักในที่ทำงาน",
      "updatedAt": 1704207600000,
      "creators": "A1"
    },
    {
      "id": 363,
      "alias": "vanilla",
      "title": "Hardcore Vanilla",
      "isAdult": false,
      "isComplete": false,
      "orderNo": 13,
      "thumbnails": [
        {
          "imagePath": "https://image.balcony.studio/th/co_thumbnail/vanilla/1689690142752.webp",
          "type": "SQUARE"
        },
        {
          "imagePath": "https://image.balcony.studio/th/co_thumbnail/vanilla/1689690143010.webp",
          "type": "MAIN"
        },
        {
          "imagePath": "https://image.balcony.studio/th/co_thumbnail/vanilla/1689690143309.webp",
          "type": "MAIN_NON_ADULT"
        }
      ],
      "badge": {
        "newest": true,
        "adult": false,
        "scheduled": true,
        "up": false,
        "completed": false,
        "recommended": false,
        "discount": 0,
        "free": 1,
        "freetime": false
      },
      "viewCount": 55351,
      "tag": "อัพทุกวันอังคาร,โรมานซ์,BDSM,แอบรัก,รักวัยรุ่น,รักในมหาลัย,พระเอกไทป์ลูกหมา,พระเอกใสซื่อ,พระเอกเด็กกว่า,นางเอกแก่กว่า,นางเอกแซ่บ,นางเอกเจ้าเสน่ห์,มหาลัย,รุ่นพี่รุ่นน้อง,OnlyBOOMTOON",
      "updatedAt": 1704128400000,
      "creators": "Youmy"
    },
    {
      "id": 314,
      "alias": "caffeine",
      "title": "คาเฟอีน",
      "isAdult": false,
      "isComplete": false,
      "orderNo": 14,
      "thumbnails": [
        {
          "imagePath": "https://image.balcony.studio/BOOMTOON_COM/co_thumbnail/caffeine/1690273508117.webp",
          "type": "MAIN"
        },
        {
          "imagePath": "https://image.balcony.studio/BOOMTOON_COM/co_thumbnail/caffeine/1690273508685.webp",
          "type": "SQUARE"
        }
      ],
      "badge": {
        "newest": true,
        "adult": false,
        "scheduled": true,
        "up": false,
        "completed": false,
        "recommended": false,
        "discount": 0,
        "free": 1,
        "freetime": false
      },
      "viewCount": 143535,
      "tag": "อัพทุกวันอังคาร,โรมานซ์,ดราม่า,สายดาร์ค,ฮาร์ดคอร์,เราสองสามคน,กลับมาพบกันอีกครั้ง,แอบรัก,รักครั้งแรก,เพื่อนสมัยเด็ก,พระเอกแซ่บ,นางเอกแซ่บ,OnlyBOOMTOON",
      "updatedAt": 1704128400000,
      "creators": "samosa, pachae"
    },
    {
      "id": 275,
      "alias": "understand",
      "title": "ทายทักรักมาเฟีย",
      "isAdult": false,
      "isComplete": false,
      "orderNo": 15,
      "thumbnails": [
        {
          "imagePath": "https://image.balcony.studio/th/co_thumbnail/understand/1694084551625.webp",
          "type": "SQUARE"
        },
        {
          "imagePath": "https://image.balcony.studio/th/co_thumbnail/understand/1694084551908.webp",
          "type": "MAIN"
        }
      ],
      "badge": {
        "newest": false,
        "adult": false,
        "scheduled": true,
        "up": false,
        "completed": false,
        "recommended": false,
        "discount": 0,
        "free": 1,
        "freetime": false
      },
      "viewCount": 178992,
      "tag": "อัพทุกวันอังคาร,BL,โรแมนติคแฟนตาซี,ตลก/คอมเมดี้,เหนือธรรมชาติ,เมะแข็งแกร่ง,เมะคนซึน,เมะฮอต,เมะเย็นชา,เมะอาวุธลับไซส์บิ๊ก,เมะกล้ามปู,เคะเจ้าเล่ห์,เคะซื่อบื้อ,เคะน่ารัก,เคะขี้ยั่ว,มาเฟีย,พลังวิเศษ,OnlyBOOMTOON",
      "updatedAt": 1704128400000,
      "creators": "LimeTree, BINUN, Lamp"
    },
    {
      "id": 283,
      "alias": "wave",
      "title": "คลื่นที่ซัดเข้าหาเธอ",
      "isAdult": false,
      "isComplete": false,
      "orderNo": 16,
      "thumbnails": [
        {
          "imagePath": "https://image.balcony.studio/th/co_thumbnail/oleaje-hacia-ti/1680503290354.webp",
          "type": "SQUARE"
        },
        {
          "imagePath": "https://image.balcony.studio/th/co_thumbnail/oleaje-hacia-ti/1680503290569.webp",
          "type": "MAIN"
        }
      ],
      "badge": {
        "newest": false,
        "adult": false,
        "scheduled": false,
        "up": false,
        "completed": true,
        "recommended": false,
        "discount": 0,
        "free": 1,
        "freetime": false
      },
      "viewCount": 230040,
      "tag": "BL,Omegaverse ,โรแมนติคคอมเมดี้,เมะคนซึน,เมะคลั่งรัก,เมะกล้ามปู,เมะฮอต,เคะสวย,เคะมีปม,เคะรักจริง,เคะใสซื่อ,Mpreg,เลี้ยงเด็ก,OnlyBOOMTOON",
      "updatedAt": 1701709200000,
      "creators": "Cheongyeon"
    },
    {
      "id": 103,
      "alias": "minmotion",
      "title": "Minmotion Syndrome",
      "isAdult": false,
      "isComplete": false,
      "orderNo": 17,
      "thumbnails": [
        {
          "imagePath": "https://image.balcony.studio/th/co_thumbnail/minmotion/1675730245391.webp",
          "type": "SQUARE"
        },
        {
          "imagePath": "https://image.balcony.studio/th/co_thumbnail/minmotion/1675730245556.webp",
          "type": "MAIN"
        }
      ],
      "badge": {
        "newest": false,
        "adult": false,
        "scheduled": false,
        "up": false,
        "completed": true,
        "recommended": false,
        "discount": 0,
        "free": 1,
        "freetime": false
      },
      "viewCount": 416874,
      "tag": "BL,Omegaverse ,สายดาร์ค,ฮาร์ดคอร์,ดราม่า,Serious,เจ้านาย,เราสองสามคน,เมะยากจน,เมะแข็งแกร่ง,เคะราชินี,เคะเลือดเย็น,เคะมีปม,มาเฟีย,OnlyBOOMTOON",
      "updatedAt": 1696870800000,
      "creators": "Niji"
    },
    {
      "id": 231,
      "alias": "mistress",
      "title": "นายหญิง",
      "isAdult": false,
      "isComplete": false,
      "orderNo": 18,
      "thumbnails": [
        {
          "imagePath": "https://image.balcony.studio/th/co_thumbnail/dx_00083/1672203813139.webp",
          "type": "SQUARE"
        },
        {
          "imagePath": "https://image.balcony.studio/th/co_thumbnail/dx_00083/1672203813315.webp",
          "type": "MAIN"
        }
      ],
      "badge": {
        "newest": true,
        "adult": false,
        "scheduled": true,
        "up": false,
        "completed": false,
        "recommended": false,
        "discount": 0,
        "free": 1,
        "freetime": false
      },
      "viewCount": 512106,
      "tag": "อัพทุกวันอังคาร,โรมานซ์,ดราม่า,ย้อนยุคสมัยโบราณ,รักต่างชนชั้น,เราสองสามคน,เพื่อนสมัยเด็ก,พระเอกใสซื่อ,พระเอกใจดี,แอบรัก,เจ้านาย,ทาส,OnlyBOOMTOON",
      "updatedAt": 1704128400000,
      "creators": "campeace, J B"
    },
    {
      "id": 14,
      "alias": "bacCleanUp",
      "title": "Clean Up 100%",
      "isAdult": false,
      "isComplete": false,
      "orderNo": 19,
      "thumbnails": [
        {
          "imagePath": "https://image.balcony.studio/th/co_thumbnail/bacCleanUp/1687322275233.webp",
          "type": "SQUARE"
        },
        {
          "imagePath": "https://image.balcony.studio/th/co_thumbnail/bacCleanUp/1687322275415.webp",
          "type": "MAIN"
        }
      ],
      "badge": {
        "newest": false,
        "adult": false,
        "scheduled": false,
        "up": false,
        "completed": true,
        "recommended": false,
        "discount": 0,
        "free": 1,
        "freetime": false
      },
      "viewCount": 192370,
      "tag": "BL,เมะเพอร์เฟ็ค,เมะใจดี,เคะเด็กกว่า,เคะสดใส,OnlyBOOMTOON,แฟนเก่า,เมะไฮโซ,เคะใจดี,เคะจน,เคะซื่อบื้อ,เมะแข็งแกร่ง,จบแล้ว",
      "updatedAt": 1693846800000,
      "creators": "HOBAEN"
    },
    {
      "id": 182,
      "alias": "demonking",
      "title": "เรื่องลับ ๆ ของจอมปีศาจ",
      "isAdult": false,
      "isComplete": false,
      "orderNo": 20,
      "thumbnails": [
        {
          "imagePath": "https://image.balcony.studio/th/co_thumbnail/bt_1110162/1664517477788.webp",
          "type": "SQUARE"
        },
        {
          "imagePath": "https://image.balcony.studio/th/co_thumbnail/bt_1110162/1664517477984.webp",
          "type": "MAIN"
        }
      ],
      "badge": {
        "newest": false,
        "adult": false,
        "scheduled": false,
        "up": false,
        "completed": true,
        "recommended": false,
        "discount": 0,
        "free": 1,
        "freetime": false
      },
      "viewCount": 113799,
      "tag": "BL,แฟนตาซี,ตลก/คอมเมดี้,ฮาร์ดคอร์,อมนุษย์/ปีศาจ,รักต่างเผ่าพันธุ์,เราสองสามคน,เมะแข็งแกร่ง,เมะแซ่บ,เคะน่ารัก,เคะกล้ามปู,เคะใสซื่อ,เคะแซ่บ,เคะจน,เคะลูกหมา,อัศวิน,เหนือธรรมชาติ,OnlyBOOMTOON",
      "updatedAt": 1693242000000,
      "creators": "Arnoysil, JK"
    },
    {
      "id": 177,
      "alias": "badthinking",
      "title": "Bad Thinking Diary",
      "isAdult": false,
      "isComplete": false,
      "orderNo": 21,
      "thumbnails": [
        {
          "imagePath": "https://image.balcony.studio/th/co_thumbnail/badthinking/1662105877123.webp",
          "type": "MAIN"
        },
        {
          "imagePath": "https://image.balcony.studio/th/co_thumbnail/badthinking/1675323258459.webp",
          "type": "SQUARE"
        }
      ],
      "badge": {
        "newest": false,
        "adult": false,
        "scheduled": false,
        "up": false,
        "completed": true,
        "recommended": false,
        "discount": 0,
        "free": 1,
        "freetime": false
      },
      "viewCount": 2024082,
      "tag": "GL,เพื่อนรักรักเพื่อน,เข้าใจผิด,แอบรัก,รักวัยรุ่น,รักในมหาลัย,นางเอกเฟรนด์ลี่,นางเอกใสซื่อ,นางเอกขี้หวง,นางเอกแซ่บ,นางเอกเจ้าเสน่ห์,มหาลัย,OnlyBOOMTOON",
      "updatedAt": 1692637200000,
      "creators": "Rangrari, Hodan"
    }
  ],
  "pageable": {
    "sort": {
      "unsorted": true,
      "sorted": false,
      "empty": true
    },
    "offset": 0,
    "pageNumber": 0,
    "pageSize": 20,
    "paged": true,
    "unpaged": false
  },
  "totalPages": 3,
  "last": false,
  "totalElements": 56,
  "size": 20,
  "number": 0,
  "sort": {
    "unsorted": true,
    "sorted": false,
    "empty": true
  },
  "numberOfElements": 20,
  "first": true,
  "empty": false
}
